{
    "basename": "asr-allocate_01-f3446f6",
    "cmd": "lfortran --show-asr --no-color {infile} -o {outfile}",
    "infile": "tests/../integration_tests/allocate_01.f90",
    "infile_hash": "96c52770cdc64608c1daf52a37e31fd4566ef0f27fe3b50cc483978d",
    "outfile": null,
    "outfile_hash": null,
    "stdout": "asr-allocate_01-f3446f6.stdout",
    "stdout_hash": "ca5e03b8413e8a8d12c3e70bbb5c6648b72036043e80c5f80c456a1c",
    "stderr": null,
    "stderr_hash": null,
    "returncode": 0
}