{
    "basename": "asr-arrays_01_real-6cb0873",
    "cmd": "lfortran --show-asr --no-color {infile} -o {outfile}",
    "infile": "tests/../integration_tests/arrays_01_real.f90",
    "infile_hash": "52d4b470c5523650dead5fa570d62db7293b9ecd23758e3cc4ba28c2",
    "outfile": null,
    "outfile_hash": null,
    "stdout": "asr-arrays_01_real-6cb0873.stdout",
    "stdout_hash": "6013a5e96e0e5a7ed36eee8774cb41080e38332cd9cb8524897c8a76",
    "stderr": null,
    "stderr_hash": null,
    "returncode": 0
}