{
    "basename": "asr-bits_02-e48c6d3",
    "cmd": "lfortran --show-asr --no-color {infile} -o {outfile}",
    "infile": "tests/../integration_tests/bits_02.f90",
    "infile_hash": "326043189040d63a64dac0f62cb9504336196a58ad139ffe70eeb884",
    "outfile": null,
    "outfile_hash": null,
    "stdout": "asr-bits_02-e48c6d3.stdout",
    "stdout_hash": "903d1d36b92da53a1bcb1d3e8789797cd9170520b865a4837657f669",
    "stderr": null,
    "stderr_hash": null,
    "returncode": 0
}