{
    "basename": "asr-arrays_01_size-352da98",
    "cmd": "lfortran --show-asr --no-color {infile} -o {outfile}",
    "infile": "tests/../integration_tests/arrays_01_size.f90",
    "infile_hash": "cb58e1bbc81b8cb3e39e493299f8ce73339c3bfe6f97ec12ea102145",
    "outfile": null,
    "outfile_hash": null,
    "stdout": "asr-arrays_01_size-352da98.stdout",
    "stdout_hash": "8f7f1ee5f17d223acf3bde50a59e2bc18d2a69b1bf554a152aaacf92",
    "stderr": null,
    "stderr_hash": null,
    "returncode": 0
}