{
    "basename": "asr-write2-3444284",
    "cmd": "lfortran --show-asr --no-color {infile} -o {outfile}",
    "infile": "tests/write2.f90",
    "infile_hash": "e32f4a7448b2f59536da5f9579270c896bf9d80ebadd03daccc928a1",
    "outfile": null,
    "outfile_hash": null,
    "stdout": "asr-write2-3444284.stdout",
    "stdout_hash": "88834ac45975a707604b85b405235ba1ee345cc4f2d0add713dd2cbf",
    "stderr": null,
    "stderr_hash": null,
    "returncode": 0
}