{
    "basename": "asr-recursion_02-20a7daf",
    "cmd": "lfortran --show-asr --no-color {infile} -o {outfile}",
    "infile": "tests/../integration_tests/recursion_02.f90",
    "infile_hash": "ff5b57697ae915f5f54134d8a976f0f1fa76965cb7937298a10a6d2f",
    "outfile": null,
    "outfile_hash": null,
    "stdout": "asr-recursion_02-20a7daf.stdout",
    "stdout_hash": "37fd605abd9b3655c6c4f7e2ecd72dea1cb171ee46cf78e33a3ac203",
    "stderr": null,
    "stderr_hash": null,
    "returncode": 0
}