{
    "basename": "asr-bits_03-c7d2024",
    "cmd": "lfortran --show-asr --no-color {infile} -o {outfile}",
    "infile": "tests/../integration_tests/bits_03.f90",
    "infile_hash": "cc34aad3be3fdea9a5462e9abfa5bdcfb6450d87092552dd633e7d63",
    "outfile": null,
    "outfile_hash": null,
    "stdout": "asr-bits_03-c7d2024.stdout",
    "stdout_hash": "e7aa65f5c7d03a86087982fb9d0781519c8de166fc8344a99daf7562",
    "stderr": null,
    "stderr_hash": null,
    "returncode": 0
}