{
    "basename": "asr-expr_06-2de4136",
    "cmd": "lfortran --show-asr --no-color {infile} -o {outfile}",
    "infile": "tests/../integration_tests/expr_06.f90",
    "infile_hash": "86c5ce938c64e34b4a0d0c0005ed174ab091a74089c4e28d87f55945",
    "outfile": null,
    "outfile_hash": null,
    "stdout": "asr-expr_06-2de4136.stdout",
    "stdout_hash": "f7b22a3b7e4100de65084e3fb1950eb2895e8e839345d224dc7ca205",
    "stderr": null,
    "stderr_hash": null,
    "returncode": 0
}