{
    "basename": "asr-stop-c3f410b",
    "cmd": "lfortran --show-asr --no-color {infile} -o {outfile}",
    "infile": "tests/stop.f90",
    "infile_hash": "4992b783d9f3aeee0fc682e7600ed3b3e57f5d9e8ea4ef63ab0bbb4d",
    "outfile": null,
    "outfile_hash": null,
    "stdout": "asr-stop-c3f410b.stdout",
    "stdout_hash": "38276692ba04f479ee1506d78162865ec24174c95028ba45b76d58d8",
    "stderr": null,
    "stderr_hash": null,
    "returncode": 0
}