{
    "basename": "asr-doloop_03-9c463c5",
    "cmd": "lfortran --show-asr --no-color {infile} -o {outfile}",
    "infile": "tests/../integration_tests/doloop_03.f90",
    "infile_hash": "dcde24e0761d15465d5a4e54aa1cc9a4471c92b32b90f0f0912e298e",
    "outfile": null,
    "outfile_hash": null,
    "stdout": "asr-doloop_03-9c463c5.stdout",
    "stdout_hash": "ea720e8f36fbec9eaf96b9cd19a6c1a493745f1c331543e0e25e96d5",
    "stderr": null,
    "stderr_hash": null,
    "returncode": 0
}