{
    "basename": "asr-int_03-924441d",
    "cmd": "lfortran --show-asr --no-color {infile} -o {outfile}",
    "infile": "tests/../integration_tests/int_03.f90",
    "infile_hash": "e8b652fe103338a6d8caf4e51635132f343995c89c0bcdaf633f925e",
    "outfile": null,
    "outfile_hash": null,
    "stdout": "asr-int_03-924441d.stdout",
    "stdout_hash": "6e81aa15f652b2e957c373f42c9c75205efc1bc573f13c80b6a5b5de",
    "stderr": null,
    "stderr_hash": null,
    "returncode": 0
}