{
    "basename": "asr-intrinsics_05-4c31742",
    "cmd": "lfortran --show-asr --no-color {infile} -o {outfile}",
    "infile": "tests/../integration_tests/intrinsics_05.f90",
    "infile_hash": "735edff1f9942ce107c1b84f9ddcf00e648e553327f54dacf7b8238c",
    "outfile": null,
    "outfile_hash": null,
    "stdout": "asr-intrinsics_05-4c31742.stdout",
    "stdout_hash": "90e29696ae6fe8ada5a1939ea79db7858e3b77b872b3c2d4da6ad5d3",
    "stderr": null,
    "stderr_hash": null,
    "returncode": 0
}