{
    "basename": "asr-nested_03-57ffed2",
    "cmd": "lfortran --show-asr --no-color {infile} -o {outfile}",
    "infile": "tests/../integration_tests/nested_03.f90",
    "infile_hash": "f5d522eba458efa50018d8ebcd4df6b9098d3fd59164c530fdc522e5",
    "outfile": null,
    "outfile_hash": null,
    "stdout": "asr-nested_03-57ffed2.stdout",
    "stdout_hash": "4874e98ade5243c1f8e8fed36e581ec2bca4ce4808abc54a239f431e",
    "stderr": null,
    "stderr_hash": null,
    "returncode": 0
}