{
    "basename": "asr-forall_01-11937e6",
    "cmd": "lfortran --show-asr --no-color {infile} -o {outfile}",
    "infile": "tests/../integration_tests/forall_01.f90",
    "infile_hash": "a482aaee28abbbe45149c269745483f2ede65c21ea57212e6a647019",
    "outfile": null,
    "outfile_hash": null,
    "stdout": "asr-forall_01-11937e6.stdout",
    "stdout_hash": "f7351c59361a1a19891d227ad016b92106047a01f060cf2678d697b6",
    "stderr": null,
    "stderr_hash": null,
    "returncode": 0
}