{
    "basename": "asr-string_12-e72e066",
    "cmd": "lfortran --show-asr --no-color {infile} -o {outfile}",
    "infile": "tests/../integration_tests/string_12.f90",
    "infile_hash": "f1256d77d5088476469f0be51c75a330b58464226574036fcc7decce",
    "outfile": null,
    "outfile_hash": null,
    "stdout": "asr-string_12-e72e066.stdout",
    "stdout_hash": "b9b890364e9cb3ce86b2a9a4a6bdf89cdf70dca62f839156463a7af0",
    "stderr": null,
    "stderr_hash": null,
    "returncode": 0
}