{
    "basename": "asr-functions_07-2d29eab",
    "cmd": "lfortran --show-asr --no-color {infile} -o {outfile}",
    "infile": "tests/../integration_tests/functions_07.f90",
    "infile_hash": "7353db41b76b1bb72bf3a708e5b317dec74af0ada289020227f88626",
    "outfile": null,
    "outfile_hash": null,
    "stdout": "asr-functions_07-2d29eab.stdout",
    "stdout_hash": "73f0e53ce4e4ec9dd9217d002e2c56a27595034b3458652a46c773ae",
    "stderr": null,
    "stderr_hash": null,
    "returncode": 0
}