{
    "basename": "asr-submodule_02-9152b7b",
    "cmd": "lfortran --show-asr --no-color {infile} -o {outfile}",
    "infile": "tests/../integration_tests/submodule_02.f90",
    "infile_hash": "eb5651198a139f1a3e4bda3dd45dc20f0f6ceb8f961eff3d2cff2342",
    "outfile": null,
    "outfile_hash": null,
    "stdout": "asr-submodule_02-9152b7b.stdout",
    "stdout_hash": "9ed1fa96216156776a24954a23a214bafcc731ae8473fd3c22c68a4c",
    "stderr": null,
    "stderr_hash": null,
    "returncode": 0
}