{
    "basename": "asr-allocate_03-8219a72",
    "cmd": "lfortran --show-asr --no-color {infile} -o {outfile}",
    "infile": "tests/../integration_tests/allocate_03.f90",
    "infile_hash": "cc91318a8c55753718f222c8b5aa1722c4bcad1ff8252f830ce98647",
    "outfile": null,
    "outfile_hash": null,
    "stdout": "asr-allocate_03-8219a72.stdout",
    "stdout_hash": "240444c199db548857d01e570a26b63f49d4d389936fac7583b1b69e",
    "stderr": null,
    "stderr_hash": null,
    "returncode": 0
}