(TranslationUnit (SymbolTable 1 {intrinsics_29: (Program (SymbolTable 2 {new_line: (ExternalSymbol 2 new_line 4 new_line lfortran_intrinsic_string [] new_line Private)}) intrinsics_29 [] [(Print () [(StringConcat (StringConcat (StringConstant "This is record 1." (Character 1 17 () [])) (FunctionCall 2 new_line () [((StringConstant "A" (Character 1 1 () [])))] (Character 1 1 () []) (StringConstant "
" (Character 1 1 () [])) ()) (Character 1 18 () []) (StringConstant "This is record 1.
" (Character 1 18 () []))) (StringConstant "This is record 2." (Character 1 17 () [])) (Character 1 35 () []) (StringConstant "This is record 1.
This is record 2." (Character 1 35 () [])))])]), iso_fortran_env: (IntrinsicModule lfortran_intrinsic_iso_fortran_env), lfortran_intrinsic_builtin: (IntrinsicModule lfortran_intrinsic_builtin), lfortran_intrinsic_string: (IntrinsicModule lfortran_intrinsic_string)}) [])
