{
    "basename": "asr-class_03-aaccfbb",
    "cmd": "lfortran --show-asr --no-color {infile} -o {outfile}",
    "infile": "tests/../integration_tests/class_03.f90",
    "infile_hash": "cb7cff87d0874864a75325845434c59a6f1ba77970b3e24f433f0240",
    "outfile": null,
    "outfile_hash": null,
    "stdout": "asr-class_03-aaccfbb.stdout",
    "stdout_hash": "7593133f61477429d4b2b851b43498be267ae794bc2d30b146dd6e64",
    "stderr": null,
    "stderr_hash": null,
    "returncode": 0
}