{
    "basename": "asr-program_03-fbe20e8",
    "cmd": "lfortran --show-asr --no-color {infile} -o {outfile}",
    "infile": "tests/../integration_tests/program_03.f90",
    "infile_hash": "66e74edaf380b88bc4d65b0f35934f6857a8e67080628b16bd0e935a",
    "outfile": null,
    "outfile_hash": null,
    "stdout": "asr-program_03-fbe20e8.stdout",
    "stdout_hash": "5c1211bfdca57d30e54ad315fae84f639777b80ef90ff6a8bf2ff720",
    "stderr": null,
    "stderr_hash": null,
    "returncode": 0
}