{
    "basename": "asr-array_size_04-dcfa313",
    "cmd": "lfortran --show-asr --no-color {infile} -o {outfile}",
    "infile": "tests/errors/array_size_04.f90",
    "infile_hash": "56c5e8e7d50d036df8650348eb2355c05ea7eec82306539c12a10d75",
    "outfile": null,
    "outfile_hash": null,
    "stdout": null,
    "stdout_hash": null,
    "stderr": "asr-array_size_04-dcfa313.stderr",
    "stderr_hash": "27a38e71ee74d362d64b50372b36bfce0bcca04101f1a5e47d04f5d0",
    "returncode": 2
}