{
    "basename": "asr-bits_05-1b98f97",
    "cmd": "lfortran --show-asr --no-color {infile} -o {outfile}",
    "infile": "tests/../integration_tests/bits_05.f90",
    "infile_hash": "9a68b4d514588f51399782270c3a63efb0fe5d3fce1c4617547842cc",
    "outfile": null,
    "outfile_hash": null,
    "stdout": "asr-bits_05-1b98f97.stdout",
    "stdout_hash": "f86e19ea2a349e2f6d7b64b665b78b3b3db1919627d538be8747e8ee",
    "stderr": null,
    "stderr_hash": null,
    "returncode": 0
}