#include <iostream>
#include <string>
#include <vector>
#include <cassert>
#include <cmath>
#include <complex>
#include <Kokkos_Core.hpp>
#include <lfortran_intrinsics.h>

template <typename T>
Kokkos::View<T*> from_std_vector(const std::vector<T> &v)
{
    Kokkos::View<T*> r("r", v.size());
    for (size_t i=0; i < v.size(); i++) {
        r(i) = v[i];
    }
    return r;
}

namespace {

void main2() {
        Kokkos::View<float[5]> a("a");
        Kokkos::View<float[5]> b("b");
        Kokkos::View<int[3]> c("c");
        Kokkos::View<bool[2]> d("d");
        Kokkos::View<float[2][3]> e("e");
        Kokkos::View<int[3][4]> f("f");
        Kokkos::View<bool[5][2]> g("g");
        Kokkos::View<float[2][3][4]> h("h");
        Kokkos::View<int[3][4][3]> i("i");
        Kokkos::View<bool[5][2][2]> j("j");
}

}
int main(int argc, char* argv[])
{
    Kokkos::initialize(argc, argv);
    main2();
    Kokkos::finalize();
    return 0;
}
