{
    "basename": "cpp-types_06-a5c2d06",
    "cmd": "lfortran --no-color --show-cpp {infile}",
    "infile": "tests/../integration_tests/types_06.f90",
    "infile_hash": "821a3f29390ed022c7e72bdf2e4f9bace059d335abe1d1b729ac6d22",
    "outfile": null,
    "outfile_hash": null,
    "stdout": "cpp-types_06-a5c2d06.stdout",
    "stdout_hash": "7a529931f4d6870f835161edfdd40d642b4fcb4fd10ac7c63be9a85f",
    "stderr": null,
    "stderr_hash": null,
    "returncode": 0
}