{
    "basename": "cpp-types_02-0b28cb7",
    "cmd": "lfortran --no-color --show-cpp {infile}",
    "infile": "tests/../integration_tests/types_02.f90",
    "infile_hash": "6b9728dd8c74663d697504a17537aef00ed9210bf24fae6e7e0468bc",
    "outfile": null,
    "outfile_hash": null,
    "stdout": "cpp-types_02-0b28cb7.stdout",
    "stdout_hash": "52b8a5a1fd78d195d61e3109972166062b66bfbc47ca4d698b478460",
    "stderr": null,
    "stderr_hash": null,
    "returncode": 0
}