; ModuleID = 'LFortran'
source_filename = "LFortran"

%dimension_descriptor = type { i32, i32, i32, i32 }
%array.0 = type { i32*, i32, %dimension_descriptor*, i1, i32 }

@0 = private unnamed_addr constant [13 x i8] c"%d %d %d %d\0A\00", align 1
@1 = private unnamed_addr constant [13 x i8] c"%d %d %d %d\0A\00", align 1
@2 = private unnamed_addr constant [13 x i8] c"%d %d %d %d\0A\00", align 1
@3 = private unnamed_addr constant [13 x i8] c"%d %d %d %d\0A\00", align 1
@4 = private unnamed_addr constant [13 x i8] c"%d %d %d %d\0A\00", align 1
@5 = private unnamed_addr constant [13 x i8] c"%d %d %d %d\0A\00", align 1

define i32 @__module_lfortran_intrinsic_builtin_lbound(%dimension_descriptor** %x, i32* %dim) {
.entry:
  %lbound = alloca i32, align 4
  %0 = load %dimension_descriptor*, %dimension_descriptor** %x, align 8
  %1 = load i32, i32* %dim, align 4
  %2 = sub i32 %1, 1
  %3 = getelementptr inbounds %dimension_descriptor, %dimension_descriptor* %0, i32 %2
  %4 = getelementptr %dimension_descriptor, %dimension_descriptor* %3, i32 0, i32 1
  %5 = load i32, i32* %4, align 4
  store i32 %5, i32* %lbound, align 4
  br label %return

return:                                           ; preds = %.entry
  %6 = load i32, i32* %lbound, align 4
  ret i32 %6
}

declare void @__module_lfortran_intrinsic_builtin_move_alloc(i32*, i32*)

define i32 @__module_lfortran_intrinsic_builtin_ubound(%dimension_descriptor** %x, i32* %dim) {
.entry:
  %ubound = alloca i32, align 4
  %0 = load %dimension_descriptor*, %dimension_descriptor** %x, align 8
  %1 = load i32, i32* %dim, align 4
  %2 = sub i32 %1, 1
  %3 = getelementptr inbounds %dimension_descriptor, %dimension_descriptor* %0, i32 %2
  %4 = getelementptr %dimension_descriptor, %dimension_descriptor* %3, i32 0, i32 2
  %5 = load i32, i32* %4, align 4
  store i32 %5, i32* %ubound, align 4
  br label %return

return:                                           ; preds = %.entry
  %6 = load i32, i32* %ubound, align 4
  ret i32 %6
}

define i32 @main() {
.entry:
  %"1_t" = alloca i32, align 4
  %"1_v" = alloca i32, align 4
  %"2_t" = alloca i32, align 4
  %"2_v" = alloca i32, align 4
  %"3_t" = alloca i32, align 4
  %"3_v" = alloca i32, align 4
  %a = alloca %array.0, align 8
  %0 = getelementptr %array.0, %array.0* %a, i32 0, i32 1
  store i32 0, i32* %0, align 4
  %1 = getelementptr %array.0, %array.0* %a, i32 0, i32 2
  %2 = alloca i32, align 4
  store i32 3, i32* %2, align 4
  %3 = load i32, i32* %2, align 4
  %4 = alloca %dimension_descriptor, i32 %3, align 8
  %5 = getelementptr %array.0, %array.0* %a, i32 0, i32 4
  store i32 3, i32* %5, align 4
  store %dimension_descriptor* %4, %dimension_descriptor** %1, align 8
  %6 = load %dimension_descriptor*, %dimension_descriptor** %1, align 8
  %7 = getelementptr inbounds %dimension_descriptor, %dimension_descriptor* %6, i32 0
  %8 = getelementptr %dimension_descriptor, %dimension_descriptor* %7, i32 0, i32 0
  %9 = getelementptr %dimension_descriptor, %dimension_descriptor* %7, i32 0, i32 1
  %10 = getelementptr %dimension_descriptor, %dimension_descriptor* %7, i32 0, i32 2
  %11 = getelementptr %dimension_descriptor, %dimension_descriptor* %7, i32 0, i32 3
  store i32 1, i32* %8, align 4
  store i32 1, i32* %9, align 4
  store i32 2, i32* %10, align 4
  %12 = load i32, i32* %10, align 4
  %13 = load i32, i32* %9, align 4
  %14 = sub i32 %12, %13
  %15 = add i32 %14, 1
  store i32 %15, i32* %11, align 4
  %16 = getelementptr inbounds %dimension_descriptor, %dimension_descriptor* %6, i32 1
  %17 = getelementptr %dimension_descriptor, %dimension_descriptor* %16, i32 0, i32 0
  %18 = getelementptr %dimension_descriptor, %dimension_descriptor* %16, i32 0, i32 1
  %19 = getelementptr %dimension_descriptor, %dimension_descriptor* %16, i32 0, i32 2
  %20 = getelementptr %dimension_descriptor, %dimension_descriptor* %16, i32 0, i32 3
  store i32 1, i32* %17, align 4
  store i32 1, i32* %18, align 4
  store i32 2, i32* %19, align 4
  %21 = load i32, i32* %19, align 4
  %22 = load i32, i32* %18, align 4
  %23 = sub i32 %21, %22
  %24 = add i32 %23, 1
  store i32 %24, i32* %20, align 4
  %25 = getelementptr inbounds %dimension_descriptor, %dimension_descriptor* %6, i32 2
  %26 = getelementptr %dimension_descriptor, %dimension_descriptor* %25, i32 0, i32 0
  %27 = getelementptr %dimension_descriptor, %dimension_descriptor* %25, i32 0, i32 1
  %28 = getelementptr %dimension_descriptor, %dimension_descriptor* %25, i32 0, i32 2
  %29 = getelementptr %dimension_descriptor, %dimension_descriptor* %25, i32 0, i32 3
  store i32 1, i32* %26, align 4
  store i32 1, i32* %27, align 4
  store i32 1, i32* %28, align 4
  %30 = load i32, i32* %28, align 4
  %31 = load i32, i32* %27, align 4
  %32 = sub i32 %30, %31
  %33 = add i32 %32, 1
  store i32 %33, i32* %29, align 4
  %34 = alloca i32, align 4
  store i32 4, i32* %34, align 4
  %35 = getelementptr %array.0, %array.0* %a, i32 0, i32 0
  %36 = load i32, i32* %34, align 4
  %37 = alloca i32, i32 %36, align 4
  store i32* %37, i32** %35, align 8
  %b = alloca %array.0, align 8
  %38 = getelementptr %array.0, %array.0* %b, i32 0, i32 1
  store i32 0, i32* %38, align 4
  %39 = getelementptr %array.0, %array.0* %b, i32 0, i32 2
  %40 = alloca i32, align 4
  store i32 3, i32* %40, align 4
  %41 = load i32, i32* %40, align 4
  %42 = alloca %dimension_descriptor, i32 %41, align 8
  %43 = getelementptr %array.0, %array.0* %b, i32 0, i32 4
  store i32 3, i32* %43, align 4
  store %dimension_descriptor* %42, %dimension_descriptor** %39, align 8
  %44 = load %dimension_descriptor*, %dimension_descriptor** %39, align 8
  %45 = getelementptr inbounds %dimension_descriptor, %dimension_descriptor* %44, i32 0
  %46 = getelementptr %dimension_descriptor, %dimension_descriptor* %45, i32 0, i32 0
  %47 = getelementptr %dimension_descriptor, %dimension_descriptor* %45, i32 0, i32 1
  %48 = getelementptr %dimension_descriptor, %dimension_descriptor* %45, i32 0, i32 2
  %49 = getelementptr %dimension_descriptor, %dimension_descriptor* %45, i32 0, i32 3
  store i32 1, i32* %46, align 4
  store i32 1, i32* %47, align 4
  store i32 2, i32* %48, align 4
  %50 = load i32, i32* %48, align 4
  %51 = load i32, i32* %47, align 4
  %52 = sub i32 %50, %51
  %53 = add i32 %52, 1
  store i32 %53, i32* %49, align 4
  %54 = getelementptr inbounds %dimension_descriptor, %dimension_descriptor* %44, i32 1
  %55 = getelementptr %dimension_descriptor, %dimension_descriptor* %54, i32 0, i32 0
  %56 = getelementptr %dimension_descriptor, %dimension_descriptor* %54, i32 0, i32 1
  %57 = getelementptr %dimension_descriptor, %dimension_descriptor* %54, i32 0, i32 2
  %58 = getelementptr %dimension_descriptor, %dimension_descriptor* %54, i32 0, i32 3
  store i32 1, i32* %55, align 4
  store i32 1, i32* %56, align 4
  store i32 2, i32* %57, align 4
  %59 = load i32, i32* %57, align 4
  %60 = load i32, i32* %56, align 4
  %61 = sub i32 %59, %60
  %62 = add i32 %61, 1
  store i32 %62, i32* %58, align 4
  %63 = getelementptr inbounds %dimension_descriptor, %dimension_descriptor* %44, i32 2
  %64 = getelementptr %dimension_descriptor, %dimension_descriptor* %63, i32 0, i32 0
  %65 = getelementptr %dimension_descriptor, %dimension_descriptor* %63, i32 0, i32 1
  %66 = getelementptr %dimension_descriptor, %dimension_descriptor* %63, i32 0, i32 2
  %67 = getelementptr %dimension_descriptor, %dimension_descriptor* %63, i32 0, i32 3
  store i32 1, i32* %64, align 4
  store i32 1, i32* %65, align 4
  store i32 1, i32* %66, align 4
  %68 = load i32, i32* %66, align 4
  %69 = load i32, i32* %65, align 4
  %70 = sub i32 %68, %69
  %71 = add i32 %70, 1
  store i32 %71, i32* %67, align 4
  %72 = alloca i32, align 4
  store i32 4, i32* %72, align 4
  %73 = getelementptr %array.0, %array.0* %b, i32 0, i32 0
  %74 = load i32, i32* %72, align 4
  %75 = alloca i32, i32 %74, align 4
  store i32* %75, i32** %73, align 8
  %c = alloca %array.0, align 8
  %76 = getelementptr %array.0, %array.0* %c, i32 0, i32 1
  store i32 0, i32* %76, align 4
  %77 = getelementptr %array.0, %array.0* %c, i32 0, i32 2
  %78 = alloca i32, align 4
  store i32 3, i32* %78, align 4
  %79 = load i32, i32* %78, align 4
  %80 = alloca %dimension_descriptor, i32 %79, align 8
  %81 = getelementptr %array.0, %array.0* %c, i32 0, i32 4
  store i32 3, i32* %81, align 4
  store %dimension_descriptor* %80, %dimension_descriptor** %77, align 8
  %82 = load %dimension_descriptor*, %dimension_descriptor** %77, align 8
  %83 = getelementptr inbounds %dimension_descriptor, %dimension_descriptor* %82, i32 0
  %84 = getelementptr %dimension_descriptor, %dimension_descriptor* %83, i32 0, i32 0
  %85 = getelementptr %dimension_descriptor, %dimension_descriptor* %83, i32 0, i32 1
  %86 = getelementptr %dimension_descriptor, %dimension_descriptor* %83, i32 0, i32 2
  %87 = getelementptr %dimension_descriptor, %dimension_descriptor* %83, i32 0, i32 3
  store i32 1, i32* %84, align 4
  store i32 1, i32* %85, align 4
  store i32 2, i32* %86, align 4
  %88 = load i32, i32* %86, align 4
  %89 = load i32, i32* %85, align 4
  %90 = sub i32 %88, %89
  %91 = add i32 %90, 1
  store i32 %91, i32* %87, align 4
  %92 = getelementptr inbounds %dimension_descriptor, %dimension_descriptor* %82, i32 1
  %93 = getelementptr %dimension_descriptor, %dimension_descriptor* %92, i32 0, i32 0
  %94 = getelementptr %dimension_descriptor, %dimension_descriptor* %92, i32 0, i32 1
  %95 = getelementptr %dimension_descriptor, %dimension_descriptor* %92, i32 0, i32 2
  %96 = getelementptr %dimension_descriptor, %dimension_descriptor* %92, i32 0, i32 3
  store i32 1, i32* %93, align 4
  store i32 1, i32* %94, align 4
  store i32 2, i32* %95, align 4
  %97 = load i32, i32* %95, align 4
  %98 = load i32, i32* %94, align 4
  %99 = sub i32 %97, %98
  %100 = add i32 %99, 1
  store i32 %100, i32* %96, align 4
  %101 = getelementptr inbounds %dimension_descriptor, %dimension_descriptor* %82, i32 2
  %102 = getelementptr %dimension_descriptor, %dimension_descriptor* %101, i32 0, i32 0
  %103 = getelementptr %dimension_descriptor, %dimension_descriptor* %101, i32 0, i32 1
  %104 = getelementptr %dimension_descriptor, %dimension_descriptor* %101, i32 0, i32 2
  %105 = getelementptr %dimension_descriptor, %dimension_descriptor* %101, i32 0, i32 3
  store i32 1, i32* %102, align 4
  store i32 1, i32* %103, align 4
  store i32 1, i32* %104, align 4
  %106 = load i32, i32* %104, align 4
  %107 = load i32, i32* %103, align 4
  %108 = sub i32 %106, %107
  %109 = add i32 %108, 1
  store i32 %109, i32* %105, align 4
  %110 = alloca i32, align 4
  store i32 4, i32* %110, align 4
  %111 = getelementptr %array.0, %array.0* %c, i32 0, i32 0
  %112 = load i32, i32* %110, align 4
  %113 = alloca i32, i32 %112, align 4
  store i32* %113, i32** %111, align 8
  %i = alloca i32, align 4
  %j = alloca i32, align 4
  %k = alloca i32, align 4
  store i32 0, i32* %i, align 4
  br label %loop.head

loop.head:                                        ; preds = %loop.end5, %.entry
  %114 = load i32, i32* %i, align 4
  %115 = add i32 %114, 1
  %116 = icmp sle i32 %115, 2
  br i1 %116, label %loop.body, label %loop.end6

loop.body:                                        ; preds = %loop.head
  %117 = load i32, i32* %i, align 4
  %118 = add i32 %117, 1
  store i32 %118, i32* %i, align 4
  store i32 0, i32* %j, align 4
  br label %loop.head1

loop.head1:                                       ; preds = %loop.end, %loop.body
  %119 = load i32, i32* %j, align 4
  %120 = add i32 %119, 1
  %121 = icmp sle i32 %120, 2
  br i1 %121, label %loop.body2, label %loop.end5

loop.body2:                                       ; preds = %loop.head1
  %122 = load i32, i32* %j, align 4
  %123 = add i32 %122, 1
  store i32 %123, i32* %j, align 4
  store i32 0, i32* %k, align 4
  br label %loop.head3

loop.head3:                                       ; preds = %loop.body4, %loop.body2
  %124 = load i32, i32* %k, align 4
  %125 = add i32 %124, 1
  %126 = icmp sle i32 %125, 1
  br i1 %126, label %loop.body4, label %loop.end

loop.body4:                                       ; preds = %loop.head3
  %127 = load i32, i32* %k, align 4
  %128 = add i32 %127, 1
  store i32 %128, i32* %k, align 4
  %129 = load i32, i32* %i, align 4
  %130 = load i32, i32* %j, align 4
  %131 = load i32, i32* %k, align 4
  %132 = getelementptr %array.0, %array.0* %a, i32 0, i32 2
  %133 = load %dimension_descriptor*, %dimension_descriptor** %132, align 8
  %134 = getelementptr inbounds %dimension_descriptor, %dimension_descriptor* %133, i32 0
  %135 = getelementptr %dimension_descriptor, %dimension_descriptor* %134, i32 0, i32 1
  %136 = load i32, i32* %135, align 4
  %137 = sub i32 %129, %136
  %138 = mul i32 1, %137
  %139 = add i32 0, %138
  %140 = getelementptr %dimension_descriptor, %dimension_descriptor* %134, i32 0, i32 3
  %141 = load i32, i32* %140, align 4
  %142 = mul i32 1, %141
  %143 = getelementptr inbounds %dimension_descriptor, %dimension_descriptor* %133, i32 1
  %144 = getelementptr %dimension_descriptor, %dimension_descriptor* %143, i32 0, i32 1
  %145 = load i32, i32* %144, align 4
  %146 = sub i32 %130, %145
  %147 = mul i32 %142, %146
  %148 = add i32 %139, %147
  %149 = getelementptr %dimension_descriptor, %dimension_descriptor* %143, i32 0, i32 3
  %150 = load i32, i32* %149, align 4
  %151 = mul i32 %142, %150
  %152 = getelementptr inbounds %dimension_descriptor, %dimension_descriptor* %133, i32 2
  %153 = getelementptr %dimension_descriptor, %dimension_descriptor* %152, i32 0, i32 1
  %154 = load i32, i32* %153, align 4
  %155 = sub i32 %131, %154
  %156 = mul i32 %151, %155
  %157 = add i32 %148, %156
  %158 = getelementptr %dimension_descriptor, %dimension_descriptor* %152, i32 0, i32 3
  %159 = load i32, i32* %158, align 4
  %160 = mul i32 %151, %159
  %161 = getelementptr %array.0, %array.0* %a, i32 0, i32 0
  %162 = load i32*, i32** %161, align 8
  %163 = getelementptr inbounds i32, i32* %162, i32 %157
  %164 = load i32, i32* %i, align 4
  %165 = load i32, i32* %i, align 4
  %166 = mul i32 %164, %165
  store i32 %166, i32* %163, align 4
  %167 = load i32, i32* %i, align 4
  %168 = load i32, i32* %j, align 4
  %169 = load i32, i32* %k, align 4
  %170 = getelementptr %array.0, %array.0* %b, i32 0, i32 2
  %171 = load %dimension_descriptor*, %dimension_descriptor** %170, align 8
  %172 = getelementptr inbounds %dimension_descriptor, %dimension_descriptor* %171, i32 0
  %173 = getelementptr %dimension_descriptor, %dimension_descriptor* %172, i32 0, i32 1
  %174 = load i32, i32* %173, align 4
  %175 = sub i32 %167, %174
  %176 = mul i32 1, %175
  %177 = add i32 0, %176
  %178 = getelementptr %dimension_descriptor, %dimension_descriptor* %172, i32 0, i32 3
  %179 = load i32, i32* %178, align 4
  %180 = mul i32 1, %179
  %181 = getelementptr inbounds %dimension_descriptor, %dimension_descriptor* %171, i32 1
  %182 = getelementptr %dimension_descriptor, %dimension_descriptor* %181, i32 0, i32 1
  %183 = load i32, i32* %182, align 4
  %184 = sub i32 %168, %183
  %185 = mul i32 %180, %184
  %186 = add i32 %177, %185
  %187 = getelementptr %dimension_descriptor, %dimension_descriptor* %181, i32 0, i32 3
  %188 = load i32, i32* %187, align 4
  %189 = mul i32 %180, %188
  %190 = getelementptr inbounds %dimension_descriptor, %dimension_descriptor* %171, i32 2
  %191 = getelementptr %dimension_descriptor, %dimension_descriptor* %190, i32 0, i32 1
  %192 = load i32, i32* %191, align 4
  %193 = sub i32 %169, %192
  %194 = mul i32 %189, %193
  %195 = add i32 %186, %194
  %196 = getelementptr %dimension_descriptor, %dimension_descriptor* %190, i32 0, i32 3
  %197 = load i32, i32* %196, align 4
  %198 = mul i32 %189, %197
  %199 = getelementptr %array.0, %array.0* %b, i32 0, i32 0
  %200 = load i32*, i32** %199, align 8
  %201 = getelementptr inbounds i32, i32* %200, i32 %195
  %202 = load i32, i32* %j, align 4
  %203 = load i32, i32* %j, align 4
  %204 = mul i32 %202, %203
  store i32 %204, i32* %201, align 4
  br label %loop.head3

loop.end:                                         ; preds = %loop.head3
  br label %loop.head1

loop.end5:                                        ; preds = %loop.head1
  br label %loop.head

loop.end6:                                        ; preds = %loop.head
  store i32 0, i32* %i, align 4
  %205 = getelementptr %array.0, %array.0* %a, i32 0, i32 2
  %206 = load %dimension_descriptor*, %dimension_descriptor** %205, align 8
  %207 = getelementptr inbounds %dimension_descriptor, %dimension_descriptor* %206, i32 0
  %208 = getelementptr %dimension_descriptor, %dimension_descriptor* %207, i32 0, i32 1
  %209 = load i32, i32* %208, align 4
  %210 = sub i32 1, %209
  %211 = mul i32 1, %210
  %212 = add i32 0, %211
  %213 = getelementptr %dimension_descriptor, %dimension_descriptor* %207, i32 0, i32 3
  %214 = load i32, i32* %213, align 4
  %215 = mul i32 1, %214
  %216 = getelementptr inbounds %dimension_descriptor, %dimension_descriptor* %206, i32 1
  %217 = getelementptr %dimension_descriptor, %dimension_descriptor* %216, i32 0, i32 1
  %218 = load i32, i32* %217, align 4
  %219 = sub i32 1, %218
  %220 = mul i32 %215, %219
  %221 = add i32 %212, %220
  %222 = getelementptr %dimension_descriptor, %dimension_descriptor* %216, i32 0, i32 3
  %223 = load i32, i32* %222, align 4
  %224 = mul i32 %215, %223
  %225 = getelementptr inbounds %dimension_descriptor, %dimension_descriptor* %206, i32 2
  %226 = getelementptr %dimension_descriptor, %dimension_descriptor* %225, i32 0, i32 1
  %227 = load i32, i32* %226, align 4
  %228 = sub i32 1, %227
  %229 = mul i32 %224, %228
  %230 = add i32 %221, %229
  %231 = getelementptr %dimension_descriptor, %dimension_descriptor* %225, i32 0, i32 3
  %232 = load i32, i32* %231, align 4
  %233 = mul i32 %224, %232
  %234 = getelementptr %array.0, %array.0* %a, i32 0, i32 0
  %235 = load i32*, i32** %234, align 8
  %236 = getelementptr inbounds i32, i32* %235, i32 %230
  %237 = load i32, i32* %236, align 4
  %238 = getelementptr %array.0, %array.0* %a, i32 0, i32 2
  %239 = load %dimension_descriptor*, %dimension_descriptor** %238, align 8
  %240 = getelementptr inbounds %dimension_descriptor, %dimension_descriptor* %239, i32 0
  %241 = getelementptr %dimension_descriptor, %dimension_descriptor* %240, i32 0, i32 1
  %242 = load i32, i32* %241, align 4
  %243 = sub i32 1, %242
  %244 = mul i32 1, %243
  %245 = add i32 0, %244
  %246 = getelementptr %dimension_descriptor, %dimension_descriptor* %240, i32 0, i32 3
  %247 = load i32, i32* %246, align 4
  %248 = mul i32 1, %247
  %249 = getelementptr inbounds %dimension_descriptor, %dimension_descriptor* %239, i32 1
  %250 = getelementptr %dimension_descriptor, %dimension_descriptor* %249, i32 0, i32 1
  %251 = load i32, i32* %250, align 4
  %252 = sub i32 2, %251
  %253 = mul i32 %248, %252
  %254 = add i32 %245, %253
  %255 = getelementptr %dimension_descriptor, %dimension_descriptor* %249, i32 0, i32 3
  %256 = load i32, i32* %255, align 4
  %257 = mul i32 %248, %256
  %258 = getelementptr inbounds %dimension_descriptor, %dimension_descriptor* %239, i32 2
  %259 = getelementptr %dimension_descriptor, %dimension_descriptor* %258, i32 0, i32 1
  %260 = load i32, i32* %259, align 4
  %261 = sub i32 1, %260
  %262 = mul i32 %257, %261
  %263 = add i32 %254, %262
  %264 = getelementptr %dimension_descriptor, %dimension_descriptor* %258, i32 0, i32 3
  %265 = load i32, i32* %264, align 4
  %266 = mul i32 %257, %265
  %267 = getelementptr %array.0, %array.0* %a, i32 0, i32 0
  %268 = load i32*, i32** %267, align 8
  %269 = getelementptr inbounds i32, i32* %268, i32 %263
  %270 = load i32, i32* %269, align 4
  %271 = getelementptr %array.0, %array.0* %a, i32 0, i32 2
  %272 = load %dimension_descriptor*, %dimension_descriptor** %271, align 8
  %273 = getelementptr inbounds %dimension_descriptor, %dimension_descriptor* %272, i32 0
  %274 = getelementptr %dimension_descriptor, %dimension_descriptor* %273, i32 0, i32 1
  %275 = load i32, i32* %274, align 4
  %276 = sub i32 2, %275
  %277 = mul i32 1, %276
  %278 = add i32 0, %277
  %279 = getelementptr %dimension_descriptor, %dimension_descriptor* %273, i32 0, i32 3
  %280 = load i32, i32* %279, align 4
  %281 = mul i32 1, %280
  %282 = getelementptr inbounds %dimension_descriptor, %dimension_descriptor* %272, i32 1
  %283 = getelementptr %dimension_descriptor, %dimension_descriptor* %282, i32 0, i32 1
  %284 = load i32, i32* %283, align 4
  %285 = sub i32 1, %284
  %286 = mul i32 %281, %285
  %287 = add i32 %278, %286
  %288 = getelementptr %dimension_descriptor, %dimension_descriptor* %282, i32 0, i32 3
  %289 = load i32, i32* %288, align 4
  %290 = mul i32 %281, %289
  %291 = getelementptr inbounds %dimension_descriptor, %dimension_descriptor* %272, i32 2
  %292 = getelementptr %dimension_descriptor, %dimension_descriptor* %291, i32 0, i32 1
  %293 = load i32, i32* %292, align 4
  %294 = sub i32 1, %293
  %295 = mul i32 %290, %294
  %296 = add i32 %287, %295
  %297 = getelementptr %dimension_descriptor, %dimension_descriptor* %291, i32 0, i32 3
  %298 = load i32, i32* %297, align 4
  %299 = mul i32 %290, %298
  %300 = getelementptr %array.0, %array.0* %a, i32 0, i32 0
  %301 = load i32*, i32** %300, align 8
  %302 = getelementptr inbounds i32, i32* %301, i32 %296
  %303 = load i32, i32* %302, align 4
  %304 = getelementptr %array.0, %array.0* %a, i32 0, i32 2
  %305 = load %dimension_descriptor*, %dimension_descriptor** %304, align 8
  %306 = getelementptr inbounds %dimension_descriptor, %dimension_descriptor* %305, i32 0
  %307 = getelementptr %dimension_descriptor, %dimension_descriptor* %306, i32 0, i32 1
  %308 = load i32, i32* %307, align 4
  %309 = sub i32 2, %308
  %310 = mul i32 1, %309
  %311 = add i32 0, %310
  %312 = getelementptr %dimension_descriptor, %dimension_descriptor* %306, i32 0, i32 3
  %313 = load i32, i32* %312, align 4
  %314 = mul i32 1, %313
  %315 = getelementptr inbounds %dimension_descriptor, %dimension_descriptor* %305, i32 1
  %316 = getelementptr %dimension_descriptor, %dimension_descriptor* %315, i32 0, i32 1
  %317 = load i32, i32* %316, align 4
  %318 = sub i32 2, %317
  %319 = mul i32 %314, %318
  %320 = add i32 %311, %319
  %321 = getelementptr %dimension_descriptor, %dimension_descriptor* %315, i32 0, i32 3
  %322 = load i32, i32* %321, align 4
  %323 = mul i32 %314, %322
  %324 = getelementptr inbounds %dimension_descriptor, %dimension_descriptor* %305, i32 2
  %325 = getelementptr %dimension_descriptor, %dimension_descriptor* %324, i32 0, i32 1
  %326 = load i32, i32* %325, align 4
  %327 = sub i32 1, %326
  %328 = mul i32 %323, %327
  %329 = add i32 %320, %328
  %330 = getelementptr %dimension_descriptor, %dimension_descriptor* %324, i32 0, i32 3
  %331 = load i32, i32* %330, align 4
  %332 = mul i32 %323, %331
  %333 = getelementptr %array.0, %array.0* %a, i32 0, i32 0
  %334 = load i32*, i32** %333, align 8
  %335 = getelementptr inbounds i32, i32* %334, i32 %329
  %336 = load i32, i32* %335, align 4
  call void (i8*, ...) @_lfortran_printf(i8* getelementptr inbounds ([13 x i8], [13 x i8]* @0, i32 0, i32 0), i32 %237, i32 %270, i32 %303, i32 %336)
  %337 = getelementptr %array.0, %array.0* %b, i32 0, i32 2
  %338 = load %dimension_descriptor*, %dimension_descriptor** %337, align 8
  %339 = getelementptr inbounds %dimension_descriptor, %dimension_descriptor* %338, i32 0
  %340 = getelementptr %dimension_descriptor, %dimension_descriptor* %339, i32 0, i32 1
  %341 = load i32, i32* %340, align 4
  %342 = sub i32 1, %341
  %343 = mul i32 1, %342
  %344 = add i32 0, %343
  %345 = getelementptr %dimension_descriptor, %dimension_descriptor* %339, i32 0, i32 3
  %346 = load i32, i32* %345, align 4
  %347 = mul i32 1, %346
  %348 = getelementptr inbounds %dimension_descriptor, %dimension_descriptor* %338, i32 1
  %349 = getelementptr %dimension_descriptor, %dimension_descriptor* %348, i32 0, i32 1
  %350 = load i32, i32* %349, align 4
  %351 = sub i32 1, %350
  %352 = mul i32 %347, %351
  %353 = add i32 %344, %352
  %354 = getelementptr %dimension_descriptor, %dimension_descriptor* %348, i32 0, i32 3
  %355 = load i32, i32* %354, align 4
  %356 = mul i32 %347, %355
  %357 = getelementptr inbounds %dimension_descriptor, %dimension_descriptor* %338, i32 2
  %358 = getelementptr %dimension_descriptor, %dimension_descriptor* %357, i32 0, i32 1
  %359 = load i32, i32* %358, align 4
  %360 = sub i32 1, %359
  %361 = mul i32 %356, %360
  %362 = add i32 %353, %361
  %363 = getelementptr %dimension_descriptor, %dimension_descriptor* %357, i32 0, i32 3
  %364 = load i32, i32* %363, align 4
  %365 = mul i32 %356, %364
  %366 = getelementptr %array.0, %array.0* %b, i32 0, i32 0
  %367 = load i32*, i32** %366, align 8
  %368 = getelementptr inbounds i32, i32* %367, i32 %362
  %369 = load i32, i32* %368, align 4
  %370 = getelementptr %array.0, %array.0* %b, i32 0, i32 2
  %371 = load %dimension_descriptor*, %dimension_descriptor** %370, align 8
  %372 = getelementptr inbounds %dimension_descriptor, %dimension_descriptor* %371, i32 0
  %373 = getelementptr %dimension_descriptor, %dimension_descriptor* %372, i32 0, i32 1
  %374 = load i32, i32* %373, align 4
  %375 = sub i32 1, %374
  %376 = mul i32 1, %375
  %377 = add i32 0, %376
  %378 = getelementptr %dimension_descriptor, %dimension_descriptor* %372, i32 0, i32 3
  %379 = load i32, i32* %378, align 4
  %380 = mul i32 1, %379
  %381 = getelementptr inbounds %dimension_descriptor, %dimension_descriptor* %371, i32 1
  %382 = getelementptr %dimension_descriptor, %dimension_descriptor* %381, i32 0, i32 1
  %383 = load i32, i32* %382, align 4
  %384 = sub i32 2, %383
  %385 = mul i32 %380, %384
  %386 = add i32 %377, %385
  %387 = getelementptr %dimension_descriptor, %dimension_descriptor* %381, i32 0, i32 3
  %388 = load i32, i32* %387, align 4
  %389 = mul i32 %380, %388
  %390 = getelementptr inbounds %dimension_descriptor, %dimension_descriptor* %371, i32 2
  %391 = getelementptr %dimension_descriptor, %dimension_descriptor* %390, i32 0, i32 1
  %392 = load i32, i32* %391, align 4
  %393 = sub i32 1, %392
  %394 = mul i32 %389, %393
  %395 = add i32 %386, %394
  %396 = getelementptr %dimension_descriptor, %dimension_descriptor* %390, i32 0, i32 3
  %397 = load i32, i32* %396, align 4
  %398 = mul i32 %389, %397
  %399 = getelementptr %array.0, %array.0* %b, i32 0, i32 0
  %400 = load i32*, i32** %399, align 8
  %401 = getelementptr inbounds i32, i32* %400, i32 %395
  %402 = load i32, i32* %401, align 4
  %403 = getelementptr %array.0, %array.0* %b, i32 0, i32 2
  %404 = load %dimension_descriptor*, %dimension_descriptor** %403, align 8
  %405 = getelementptr inbounds %dimension_descriptor, %dimension_descriptor* %404, i32 0
  %406 = getelementptr %dimension_descriptor, %dimension_descriptor* %405, i32 0, i32 1
  %407 = load i32, i32* %406, align 4
  %408 = sub i32 2, %407
  %409 = mul i32 1, %408
  %410 = add i32 0, %409
  %411 = getelementptr %dimension_descriptor, %dimension_descriptor* %405, i32 0, i32 3
  %412 = load i32, i32* %411, align 4
  %413 = mul i32 1, %412
  %414 = getelementptr inbounds %dimension_descriptor, %dimension_descriptor* %404, i32 1
  %415 = getelementptr %dimension_descriptor, %dimension_descriptor* %414, i32 0, i32 1
  %416 = load i32, i32* %415, align 4
  %417 = sub i32 1, %416
  %418 = mul i32 %413, %417
  %419 = add i32 %410, %418
  %420 = getelementptr %dimension_descriptor, %dimension_descriptor* %414, i32 0, i32 3
  %421 = load i32, i32* %420, align 4
  %422 = mul i32 %413, %421
  %423 = getelementptr inbounds %dimension_descriptor, %dimension_descriptor* %404, i32 2
  %424 = getelementptr %dimension_descriptor, %dimension_descriptor* %423, i32 0, i32 1
  %425 = load i32, i32* %424, align 4
  %426 = sub i32 1, %425
  %427 = mul i32 %422, %426
  %428 = add i32 %419, %427
  %429 = getelementptr %dimension_descriptor, %dimension_descriptor* %423, i32 0, i32 3
  %430 = load i32, i32* %429, align 4
  %431 = mul i32 %422, %430
  %432 = getelementptr %array.0, %array.0* %b, i32 0, i32 0
  %433 = load i32*, i32** %432, align 8
  %434 = getelementptr inbounds i32, i32* %433, i32 %428
  %435 = load i32, i32* %434, align 4
  %436 = getelementptr %array.0, %array.0* %b, i32 0, i32 2
  %437 = load %dimension_descriptor*, %dimension_descriptor** %436, align 8
  %438 = getelementptr inbounds %dimension_descriptor, %dimension_descriptor* %437, i32 0
  %439 = getelementptr %dimension_descriptor, %dimension_descriptor* %438, i32 0, i32 1
  %440 = load i32, i32* %439, align 4
  %441 = sub i32 2, %440
  %442 = mul i32 1, %441
  %443 = add i32 0, %442
  %444 = getelementptr %dimension_descriptor, %dimension_descriptor* %438, i32 0, i32 3
  %445 = load i32, i32* %444, align 4
  %446 = mul i32 1, %445
  %447 = getelementptr inbounds %dimension_descriptor, %dimension_descriptor* %437, i32 1
  %448 = getelementptr %dimension_descriptor, %dimension_descriptor* %447, i32 0, i32 1
  %449 = load i32, i32* %448, align 4
  %450 = sub i32 2, %449
  %451 = mul i32 %446, %450
  %452 = add i32 %443, %451
  %453 = getelementptr %dimension_descriptor, %dimension_descriptor* %447, i32 0, i32 3
  %454 = load i32, i32* %453, align 4
  %455 = mul i32 %446, %454
  %456 = getelementptr inbounds %dimension_descriptor, %dimension_descriptor* %437, i32 2
  %457 = getelementptr %dimension_descriptor, %dimension_descriptor* %456, i32 0, i32 1
  %458 = load i32, i32* %457, align 4
  %459 = sub i32 1, %458
  %460 = mul i32 %455, %459
  %461 = add i32 %452, %460
  %462 = getelementptr %dimension_descriptor, %dimension_descriptor* %456, i32 0, i32 3
  %463 = load i32, i32* %462, align 4
  %464 = mul i32 %455, %463
  %465 = getelementptr %array.0, %array.0* %b, i32 0, i32 0
  %466 = load i32*, i32** %465, align 8
  %467 = getelementptr inbounds i32, i32* %466, i32 %461
  %468 = load i32, i32* %467, align 4
  call void (i8*, ...) @_lfortran_printf(i8* getelementptr inbounds ([13 x i8], [13 x i8]* @1, i32 0, i32 0), i32 %369, i32 %402, i32 %435, i32 %468)
  store i32 1, i32* %"1_v", align 4
  %469 = alloca %dimension_descriptor*, align 8
  %470 = getelementptr %array.0, %array.0* %c, i32 0, i32 2
  %471 = load %dimension_descriptor*, %dimension_descriptor** %470, align 8
  store %dimension_descriptor* %471, %dimension_descriptor** %469, align 8
  %472 = alloca i32, align 4
  store i32 1, i32* %472, align 4
  %473 = call i32 @__module_lfortran_intrinsic_builtin_lbound(%dimension_descriptor** %469, i32* %472)
  %474 = sub i32 %473, 1
  store i32 %474, i32* %"1_t", align 4
  br label %loop.head7

loop.head7:                                       ; preds = %loop.end14, %loop.end6
  %475 = load i32, i32* %"1_t", align 4
  %476 = add i32 %475, 1
  %477 = alloca %dimension_descriptor*, align 8
  %478 = getelementptr %array.0, %array.0* %c, i32 0, i32 2
  %479 = load %dimension_descriptor*, %dimension_descriptor** %478, align 8
  store %dimension_descriptor* %479, %dimension_descriptor** %477, align 8
  %480 = alloca i32, align 4
  store i32 1, i32* %480, align 4
  %481 = call i32 @__module_lfortran_intrinsic_builtin_ubound(%dimension_descriptor** %477, i32* %480)
  %482 = icmp sle i32 %476, %481
  br i1 %482, label %loop.body8, label %loop.end15

loop.body8:                                       ; preds = %loop.head7
  %483 = load i32, i32* %"1_t", align 4
  %484 = add i32 %483, 1
  store i32 %484, i32* %"1_t", align 4
  store i32 1, i32* %"2_v", align 4
  %485 = alloca %dimension_descriptor*, align 8
  %486 = getelementptr %array.0, %array.0* %c, i32 0, i32 2
  %487 = load %dimension_descriptor*, %dimension_descriptor** %486, align 8
  store %dimension_descriptor* %487, %dimension_descriptor** %485, align 8
  %488 = alloca i32, align 4
  store i32 2, i32* %488, align 4
  %489 = call i32 @__module_lfortran_intrinsic_builtin_lbound(%dimension_descriptor** %485, i32* %488)
  %490 = sub i32 %489, 1
  store i32 %490, i32* %"2_t", align 4
  br label %loop.head9

loop.head9:                                       ; preds = %loop.end13, %loop.body8
  %491 = load i32, i32* %"2_t", align 4
  %492 = add i32 %491, 1
  %493 = alloca %dimension_descriptor*, align 8
  %494 = getelementptr %array.0, %array.0* %c, i32 0, i32 2
  %495 = load %dimension_descriptor*, %dimension_descriptor** %494, align 8
  store %dimension_descriptor* %495, %dimension_descriptor** %493, align 8
  %496 = alloca i32, align 4
  store i32 2, i32* %496, align 4
  %497 = call i32 @__module_lfortran_intrinsic_builtin_ubound(%dimension_descriptor** %493, i32* %496)
  %498 = icmp sle i32 %492, %497
  br i1 %498, label %loop.body10, label %loop.end14

loop.body10:                                      ; preds = %loop.head9
  %499 = load i32, i32* %"2_t", align 4
  %500 = add i32 %499, 1
  store i32 %500, i32* %"2_t", align 4
  store i32 1, i32* %"3_v", align 4
  %501 = alloca %dimension_descriptor*, align 8
  %502 = getelementptr %array.0, %array.0* %c, i32 0, i32 2
  %503 = load %dimension_descriptor*, %dimension_descriptor** %502, align 8
  store %dimension_descriptor* %503, %dimension_descriptor** %501, align 8
  %504 = alloca i32, align 4
  store i32 3, i32* %504, align 4
  %505 = call i32 @__module_lfortran_intrinsic_builtin_lbound(%dimension_descriptor** %501, i32* %504)
  %506 = sub i32 %505, 1
  store i32 %506, i32* %"3_t", align 4
  br label %loop.head11

loop.head11:                                      ; preds = %loop.body12, %loop.body10
  %507 = load i32, i32* %"3_t", align 4
  %508 = add i32 %507, 1
  %509 = alloca %dimension_descriptor*, align 8
  %510 = getelementptr %array.0, %array.0* %c, i32 0, i32 2
  %511 = load %dimension_descriptor*, %dimension_descriptor** %510, align 8
  store %dimension_descriptor* %511, %dimension_descriptor** %509, align 8
  %512 = alloca i32, align 4
  store i32 3, i32* %512, align 4
  %513 = call i32 @__module_lfortran_intrinsic_builtin_ubound(%dimension_descriptor** %509, i32* %512)
  %514 = icmp sle i32 %508, %513
  br i1 %514, label %loop.body12, label %loop.end13

loop.body12:                                      ; preds = %loop.head11
  %515 = load i32, i32* %"3_t", align 4
  %516 = add i32 %515, 1
  store i32 %516, i32* %"3_t", align 4
  %517 = load i32, i32* %"1_t", align 4
  %518 = load i32, i32* %"2_t", align 4
  %519 = load i32, i32* %"3_t", align 4
  %520 = getelementptr %array.0, %array.0* %c, i32 0, i32 2
  %521 = load %dimension_descriptor*, %dimension_descriptor** %520, align 8
  %522 = getelementptr inbounds %dimension_descriptor, %dimension_descriptor* %521, i32 0
  %523 = getelementptr %dimension_descriptor, %dimension_descriptor* %522, i32 0, i32 1
  %524 = load i32, i32* %523, align 4
  %525 = sub i32 %517, %524
  %526 = mul i32 1, %525
  %527 = add i32 0, %526
  %528 = getelementptr %dimension_descriptor, %dimension_descriptor* %522, i32 0, i32 3
  %529 = load i32, i32* %528, align 4
  %530 = mul i32 1, %529
  %531 = getelementptr inbounds %dimension_descriptor, %dimension_descriptor* %521, i32 1
  %532 = getelementptr %dimension_descriptor, %dimension_descriptor* %531, i32 0, i32 1
  %533 = load i32, i32* %532, align 4
  %534 = sub i32 %518, %533
  %535 = mul i32 %530, %534
  %536 = add i32 %527, %535
  %537 = getelementptr %dimension_descriptor, %dimension_descriptor* %531, i32 0, i32 3
  %538 = load i32, i32* %537, align 4
  %539 = mul i32 %530, %538
  %540 = getelementptr inbounds %dimension_descriptor, %dimension_descriptor* %521, i32 2
  %541 = getelementptr %dimension_descriptor, %dimension_descriptor* %540, i32 0, i32 1
  %542 = load i32, i32* %541, align 4
  %543 = sub i32 %519, %542
  %544 = mul i32 %539, %543
  %545 = add i32 %536, %544
  %546 = getelementptr %dimension_descriptor, %dimension_descriptor* %540, i32 0, i32 3
  %547 = load i32, i32* %546, align 4
  %548 = mul i32 %539, %547
  %549 = getelementptr %array.0, %array.0* %c, i32 0, i32 0
  %550 = load i32*, i32** %549, align 8
  %551 = getelementptr inbounds i32, i32* %550, i32 %545
  %552 = load i32, i32* %"1_v", align 4
  %553 = load i32, i32* %"2_v", align 4
  %554 = load i32, i32* %"3_v", align 4
  %555 = getelementptr %array.0, %array.0* %a, i32 0, i32 2
  %556 = load %dimension_descriptor*, %dimension_descriptor** %555, align 8
  %557 = getelementptr inbounds %dimension_descriptor, %dimension_descriptor* %556, i32 0
  %558 = getelementptr %dimension_descriptor, %dimension_descriptor* %557, i32 0, i32 1
  %559 = load i32, i32* %558, align 4
  %560 = sub i32 %552, %559
  %561 = mul i32 1, %560
  %562 = add i32 0, %561
  %563 = getelementptr %dimension_descriptor, %dimension_descriptor* %557, i32 0, i32 3
  %564 = load i32, i32* %563, align 4
  %565 = mul i32 1, %564
  %566 = getelementptr inbounds %dimension_descriptor, %dimension_descriptor* %556, i32 1
  %567 = getelementptr %dimension_descriptor, %dimension_descriptor* %566, i32 0, i32 1
  %568 = load i32, i32* %567, align 4
  %569 = sub i32 %553, %568
  %570 = mul i32 %565, %569
  %571 = add i32 %562, %570
  %572 = getelementptr %dimension_descriptor, %dimension_descriptor* %566, i32 0, i32 3
  %573 = load i32, i32* %572, align 4
  %574 = mul i32 %565, %573
  %575 = getelementptr inbounds %dimension_descriptor, %dimension_descriptor* %556, i32 2
  %576 = getelementptr %dimension_descriptor, %dimension_descriptor* %575, i32 0, i32 1
  %577 = load i32, i32* %576, align 4
  %578 = sub i32 %554, %577
  %579 = mul i32 %574, %578
  %580 = add i32 %571, %579
  %581 = getelementptr %dimension_descriptor, %dimension_descriptor* %575, i32 0, i32 3
  %582 = load i32, i32* %581, align 4
  %583 = mul i32 %574, %582
  %584 = getelementptr %array.0, %array.0* %a, i32 0, i32 0
  %585 = load i32*, i32** %584, align 8
  %586 = getelementptr inbounds i32, i32* %585, i32 %580
  %587 = load i32, i32* %586, align 4
  %588 = load i32, i32* %"1_v", align 4
  %589 = load i32, i32* %"2_v", align 4
  %590 = load i32, i32* %"3_v", align 4
  %591 = getelementptr %array.0, %array.0* %b, i32 0, i32 2
  %592 = load %dimension_descriptor*, %dimension_descriptor** %591, align 8
  %593 = getelementptr inbounds %dimension_descriptor, %dimension_descriptor* %592, i32 0
  %594 = getelementptr %dimension_descriptor, %dimension_descriptor* %593, i32 0, i32 1
  %595 = load i32, i32* %594, align 4
  %596 = sub i32 %588, %595
  %597 = mul i32 1, %596
  %598 = add i32 0, %597
  %599 = getelementptr %dimension_descriptor, %dimension_descriptor* %593, i32 0, i32 3
  %600 = load i32, i32* %599, align 4
  %601 = mul i32 1, %600
  %602 = getelementptr inbounds %dimension_descriptor, %dimension_descriptor* %592, i32 1
  %603 = getelementptr %dimension_descriptor, %dimension_descriptor* %602, i32 0, i32 1
  %604 = load i32, i32* %603, align 4
  %605 = sub i32 %589, %604
  %606 = mul i32 %601, %605
  %607 = add i32 %598, %606
  %608 = getelementptr %dimension_descriptor, %dimension_descriptor* %602, i32 0, i32 3
  %609 = load i32, i32* %608, align 4
  %610 = mul i32 %601, %609
  %611 = getelementptr inbounds %dimension_descriptor, %dimension_descriptor* %592, i32 2
  %612 = getelementptr %dimension_descriptor, %dimension_descriptor* %611, i32 0, i32 1
  %613 = load i32, i32* %612, align 4
  %614 = sub i32 %590, %613
  %615 = mul i32 %610, %614
  %616 = add i32 %607, %615
  %617 = getelementptr %dimension_descriptor, %dimension_descriptor* %611, i32 0, i32 3
  %618 = load i32, i32* %617, align 4
  %619 = mul i32 %610, %618
  %620 = getelementptr %array.0, %array.0* %b, i32 0, i32 0
  %621 = load i32*, i32** %620, align 8
  %622 = getelementptr inbounds i32, i32* %621, i32 %616
  %623 = load i32, i32* %622, align 4
  %624 = add i32 %587, %623
  store i32 %624, i32* %551, align 4
  %625 = load i32, i32* %"3_v", align 4
  %626 = add i32 %625, 1
  store i32 %626, i32* %"3_v", align 4
  br label %loop.head11

loop.end13:                                       ; preds = %loop.head11
  %627 = load i32, i32* %"2_v", align 4
  %628 = add i32 %627, 1
  store i32 %628, i32* %"2_v", align 4
  br label %loop.head9

loop.end14:                                       ; preds = %loop.head9
  %629 = load i32, i32* %"1_v", align 4
  %630 = add i32 %629, 1
  store i32 %630, i32* %"1_v", align 4
  br label %loop.head7

loop.end15:                                       ; preds = %loop.head7
  %631 = getelementptr %array.0, %array.0* %c, i32 0, i32 2
  %632 = load %dimension_descriptor*, %dimension_descriptor** %631, align 8
  %633 = getelementptr inbounds %dimension_descriptor, %dimension_descriptor* %632, i32 0
  %634 = getelementptr %dimension_descriptor, %dimension_descriptor* %633, i32 0, i32 1
  %635 = load i32, i32* %634, align 4
  %636 = sub i32 1, %635
  %637 = mul i32 1, %636
  %638 = add i32 0, %637
  %639 = getelementptr %dimension_descriptor, %dimension_descriptor* %633, i32 0, i32 3
  %640 = load i32, i32* %639, align 4
  %641 = mul i32 1, %640
  %642 = getelementptr inbounds %dimension_descriptor, %dimension_descriptor* %632, i32 1
  %643 = getelementptr %dimension_descriptor, %dimension_descriptor* %642, i32 0, i32 1
  %644 = load i32, i32* %643, align 4
  %645 = sub i32 1, %644
  %646 = mul i32 %641, %645
  %647 = add i32 %638, %646
  %648 = getelementptr %dimension_descriptor, %dimension_descriptor* %642, i32 0, i32 3
  %649 = load i32, i32* %648, align 4
  %650 = mul i32 %641, %649
  %651 = getelementptr inbounds %dimension_descriptor, %dimension_descriptor* %632, i32 2
  %652 = getelementptr %dimension_descriptor, %dimension_descriptor* %651, i32 0, i32 1
  %653 = load i32, i32* %652, align 4
  %654 = sub i32 1, %653
  %655 = mul i32 %650, %654
  %656 = add i32 %647, %655
  %657 = getelementptr %dimension_descriptor, %dimension_descriptor* %651, i32 0, i32 3
  %658 = load i32, i32* %657, align 4
  %659 = mul i32 %650, %658
  %660 = getelementptr %array.0, %array.0* %c, i32 0, i32 0
  %661 = load i32*, i32** %660, align 8
  %662 = getelementptr inbounds i32, i32* %661, i32 %656
  %663 = load i32, i32* %662, align 4
  %664 = getelementptr %array.0, %array.0* %c, i32 0, i32 2
  %665 = load %dimension_descriptor*, %dimension_descriptor** %664, align 8
  %666 = getelementptr inbounds %dimension_descriptor, %dimension_descriptor* %665, i32 0
  %667 = getelementptr %dimension_descriptor, %dimension_descriptor* %666, i32 0, i32 1
  %668 = load i32, i32* %667, align 4
  %669 = sub i32 1, %668
  %670 = mul i32 1, %669
  %671 = add i32 0, %670
  %672 = getelementptr %dimension_descriptor, %dimension_descriptor* %666, i32 0, i32 3
  %673 = load i32, i32* %672, align 4
  %674 = mul i32 1, %673
  %675 = getelementptr inbounds %dimension_descriptor, %dimension_descriptor* %665, i32 1
  %676 = getelementptr %dimension_descriptor, %dimension_descriptor* %675, i32 0, i32 1
  %677 = load i32, i32* %676, align 4
  %678 = sub i32 2, %677
  %679 = mul i32 %674, %678
  %680 = add i32 %671, %679
  %681 = getelementptr %dimension_descriptor, %dimension_descriptor* %675, i32 0, i32 3
  %682 = load i32, i32* %681, align 4
  %683 = mul i32 %674, %682
  %684 = getelementptr inbounds %dimension_descriptor, %dimension_descriptor* %665, i32 2
  %685 = getelementptr %dimension_descriptor, %dimension_descriptor* %684, i32 0, i32 1
  %686 = load i32, i32* %685, align 4
  %687 = sub i32 1, %686
  %688 = mul i32 %683, %687
  %689 = add i32 %680, %688
  %690 = getelementptr %dimension_descriptor, %dimension_descriptor* %684, i32 0, i32 3
  %691 = load i32, i32* %690, align 4
  %692 = mul i32 %683, %691
  %693 = getelementptr %array.0, %array.0* %c, i32 0, i32 0
  %694 = load i32*, i32** %693, align 8
  %695 = getelementptr inbounds i32, i32* %694, i32 %689
  %696 = load i32, i32* %695, align 4
  %697 = getelementptr %array.0, %array.0* %c, i32 0, i32 2
  %698 = load %dimension_descriptor*, %dimension_descriptor** %697, align 8
  %699 = getelementptr inbounds %dimension_descriptor, %dimension_descriptor* %698, i32 0
  %700 = getelementptr %dimension_descriptor, %dimension_descriptor* %699, i32 0, i32 1
  %701 = load i32, i32* %700, align 4
  %702 = sub i32 2, %701
  %703 = mul i32 1, %702
  %704 = add i32 0, %703
  %705 = getelementptr %dimension_descriptor, %dimension_descriptor* %699, i32 0, i32 3
  %706 = load i32, i32* %705, align 4
  %707 = mul i32 1, %706
  %708 = getelementptr inbounds %dimension_descriptor, %dimension_descriptor* %698, i32 1
  %709 = getelementptr %dimension_descriptor, %dimension_descriptor* %708, i32 0, i32 1
  %710 = load i32, i32* %709, align 4
  %711 = sub i32 1, %710
  %712 = mul i32 %707, %711
  %713 = add i32 %704, %712
  %714 = getelementptr %dimension_descriptor, %dimension_descriptor* %708, i32 0, i32 3
  %715 = load i32, i32* %714, align 4
  %716 = mul i32 %707, %715
  %717 = getelementptr inbounds %dimension_descriptor, %dimension_descriptor* %698, i32 2
  %718 = getelementptr %dimension_descriptor, %dimension_descriptor* %717, i32 0, i32 1
  %719 = load i32, i32* %718, align 4
  %720 = sub i32 1, %719
  %721 = mul i32 %716, %720
  %722 = add i32 %713, %721
  %723 = getelementptr %dimension_descriptor, %dimension_descriptor* %717, i32 0, i32 3
  %724 = load i32, i32* %723, align 4
  %725 = mul i32 %716, %724
  %726 = getelementptr %array.0, %array.0* %c, i32 0, i32 0
  %727 = load i32*, i32** %726, align 8
  %728 = getelementptr inbounds i32, i32* %727, i32 %722
  %729 = load i32, i32* %728, align 4
  %730 = getelementptr %array.0, %array.0* %c, i32 0, i32 2
  %731 = load %dimension_descriptor*, %dimension_descriptor** %730, align 8
  %732 = getelementptr inbounds %dimension_descriptor, %dimension_descriptor* %731, i32 0
  %733 = getelementptr %dimension_descriptor, %dimension_descriptor* %732, i32 0, i32 1
  %734 = load i32, i32* %733, align 4
  %735 = sub i32 2, %734
  %736 = mul i32 1, %735
  %737 = add i32 0, %736
  %738 = getelementptr %dimension_descriptor, %dimension_descriptor* %732, i32 0, i32 3
  %739 = load i32, i32* %738, align 4
  %740 = mul i32 1, %739
  %741 = getelementptr inbounds %dimension_descriptor, %dimension_descriptor* %731, i32 1
  %742 = getelementptr %dimension_descriptor, %dimension_descriptor* %741, i32 0, i32 1
  %743 = load i32, i32* %742, align 4
  %744 = sub i32 2, %743
  %745 = mul i32 %740, %744
  %746 = add i32 %737, %745
  %747 = getelementptr %dimension_descriptor, %dimension_descriptor* %741, i32 0, i32 3
  %748 = load i32, i32* %747, align 4
  %749 = mul i32 %740, %748
  %750 = getelementptr inbounds %dimension_descriptor, %dimension_descriptor* %731, i32 2
  %751 = getelementptr %dimension_descriptor, %dimension_descriptor* %750, i32 0, i32 1
  %752 = load i32, i32* %751, align 4
  %753 = sub i32 1, %752
  %754 = mul i32 %749, %753
  %755 = add i32 %746, %754
  %756 = getelementptr %dimension_descriptor, %dimension_descriptor* %750, i32 0, i32 3
  %757 = load i32, i32* %756, align 4
  %758 = mul i32 %749, %757
  %759 = getelementptr %array.0, %array.0* %c, i32 0, i32 0
  %760 = load i32*, i32** %759, align 8
  %761 = getelementptr inbounds i32, i32* %760, i32 %755
  %762 = load i32, i32* %761, align 4
  call void (i8*, ...) @_lfortran_printf(i8* getelementptr inbounds ([13 x i8], [13 x i8]* @2, i32 0, i32 0), i32 %663, i32 %696, i32 %729, i32 %762)
  store i32 1, i32* %"1_v", align 4
  %763 = alloca %dimension_descriptor*, align 8
  %764 = getelementptr %array.0, %array.0* %c, i32 0, i32 2
  %765 = load %dimension_descriptor*, %dimension_descriptor** %764, align 8
  store %dimension_descriptor* %765, %dimension_descriptor** %763, align 8
  %766 = alloca i32, align 4
  store i32 1, i32* %766, align 4
  %767 = call i32 @__module_lfortran_intrinsic_builtin_lbound(%dimension_descriptor** %763, i32* %766)
  %768 = sub i32 %767, 1
  store i32 %768, i32* %"1_t", align 4
  br label %loop.head16

loop.head16:                                      ; preds = %loop.end23, %loop.end15
  %769 = load i32, i32* %"1_t", align 4
  %770 = add i32 %769, 1
  %771 = alloca %dimension_descriptor*, align 8
  %772 = getelementptr %array.0, %array.0* %c, i32 0, i32 2
  %773 = load %dimension_descriptor*, %dimension_descriptor** %772, align 8
  store %dimension_descriptor* %773, %dimension_descriptor** %771, align 8
  %774 = alloca i32, align 4
  store i32 1, i32* %774, align 4
  %775 = call i32 @__module_lfortran_intrinsic_builtin_ubound(%dimension_descriptor** %771, i32* %774)
  %776 = icmp sle i32 %770, %775
  br i1 %776, label %loop.body17, label %loop.end24

loop.body17:                                      ; preds = %loop.head16
  %777 = load i32, i32* %"1_t", align 4
  %778 = add i32 %777, 1
  store i32 %778, i32* %"1_t", align 4
  store i32 1, i32* %"2_v", align 4
  %779 = alloca %dimension_descriptor*, align 8
  %780 = getelementptr %array.0, %array.0* %c, i32 0, i32 2
  %781 = load %dimension_descriptor*, %dimension_descriptor** %780, align 8
  store %dimension_descriptor* %781, %dimension_descriptor** %779, align 8
  %782 = alloca i32, align 4
  store i32 2, i32* %782, align 4
  %783 = call i32 @__module_lfortran_intrinsic_builtin_lbound(%dimension_descriptor** %779, i32* %782)
  %784 = sub i32 %783, 1
  store i32 %784, i32* %"2_t", align 4
  br label %loop.head18

loop.head18:                                      ; preds = %loop.end22, %loop.body17
  %785 = load i32, i32* %"2_t", align 4
  %786 = add i32 %785, 1
  %787 = alloca %dimension_descriptor*, align 8
  %788 = getelementptr %array.0, %array.0* %c, i32 0, i32 2
  %789 = load %dimension_descriptor*, %dimension_descriptor** %788, align 8
  store %dimension_descriptor* %789, %dimension_descriptor** %787, align 8
  %790 = alloca i32, align 4
  store i32 2, i32* %790, align 4
  %791 = call i32 @__module_lfortran_intrinsic_builtin_ubound(%dimension_descriptor** %787, i32* %790)
  %792 = icmp sle i32 %786, %791
  br i1 %792, label %loop.body19, label %loop.end23

loop.body19:                                      ; preds = %loop.head18
  %793 = load i32, i32* %"2_t", align 4
  %794 = add i32 %793, 1
  store i32 %794, i32* %"2_t", align 4
  store i32 1, i32* %"3_v", align 4
  %795 = alloca %dimension_descriptor*, align 8
  %796 = getelementptr %array.0, %array.0* %c, i32 0, i32 2
  %797 = load %dimension_descriptor*, %dimension_descriptor** %796, align 8
  store %dimension_descriptor* %797, %dimension_descriptor** %795, align 8
  %798 = alloca i32, align 4
  store i32 3, i32* %798, align 4
  %799 = call i32 @__module_lfortran_intrinsic_builtin_lbound(%dimension_descriptor** %795, i32* %798)
  %800 = sub i32 %799, 1
  store i32 %800, i32* %"3_t", align 4
  br label %loop.head20

loop.head20:                                      ; preds = %loop.body21, %loop.body19
  %801 = load i32, i32* %"3_t", align 4
  %802 = add i32 %801, 1
  %803 = alloca %dimension_descriptor*, align 8
  %804 = getelementptr %array.0, %array.0* %c, i32 0, i32 2
  %805 = load %dimension_descriptor*, %dimension_descriptor** %804, align 8
  store %dimension_descriptor* %805, %dimension_descriptor** %803, align 8
  %806 = alloca i32, align 4
  store i32 3, i32* %806, align 4
  %807 = call i32 @__module_lfortran_intrinsic_builtin_ubound(%dimension_descriptor** %803, i32* %806)
  %808 = icmp sle i32 %802, %807
  br i1 %808, label %loop.body21, label %loop.end22

loop.body21:                                      ; preds = %loop.head20
  %809 = load i32, i32* %"3_t", align 4
  %810 = add i32 %809, 1
  store i32 %810, i32* %"3_t", align 4
  %811 = load i32, i32* %"1_t", align 4
  %812 = load i32, i32* %"2_t", align 4
  %813 = load i32, i32* %"3_t", align 4
  %814 = getelementptr %array.0, %array.0* %c, i32 0, i32 2
  %815 = load %dimension_descriptor*, %dimension_descriptor** %814, align 8
  %816 = getelementptr inbounds %dimension_descriptor, %dimension_descriptor* %815, i32 0
  %817 = getelementptr %dimension_descriptor, %dimension_descriptor* %816, i32 0, i32 1
  %818 = load i32, i32* %817, align 4
  %819 = sub i32 %811, %818
  %820 = mul i32 1, %819
  %821 = add i32 0, %820
  %822 = getelementptr %dimension_descriptor, %dimension_descriptor* %816, i32 0, i32 3
  %823 = load i32, i32* %822, align 4
  %824 = mul i32 1, %823
  %825 = getelementptr inbounds %dimension_descriptor, %dimension_descriptor* %815, i32 1
  %826 = getelementptr %dimension_descriptor, %dimension_descriptor* %825, i32 0, i32 1
  %827 = load i32, i32* %826, align 4
  %828 = sub i32 %812, %827
  %829 = mul i32 %824, %828
  %830 = add i32 %821, %829
  %831 = getelementptr %dimension_descriptor, %dimension_descriptor* %825, i32 0, i32 3
  %832 = load i32, i32* %831, align 4
  %833 = mul i32 %824, %832
  %834 = getelementptr inbounds %dimension_descriptor, %dimension_descriptor* %815, i32 2
  %835 = getelementptr %dimension_descriptor, %dimension_descriptor* %834, i32 0, i32 1
  %836 = load i32, i32* %835, align 4
  %837 = sub i32 %813, %836
  %838 = mul i32 %833, %837
  %839 = add i32 %830, %838
  %840 = getelementptr %dimension_descriptor, %dimension_descriptor* %834, i32 0, i32 3
  %841 = load i32, i32* %840, align 4
  %842 = mul i32 %833, %841
  %843 = getelementptr %array.0, %array.0* %c, i32 0, i32 0
  %844 = load i32*, i32** %843, align 8
  %845 = getelementptr inbounds i32, i32* %844, i32 %839
  %846 = load i32, i32* %"1_v", align 4
  %847 = load i32, i32* %"2_v", align 4
  %848 = load i32, i32* %"3_v", align 4
  %849 = getelementptr %array.0, %array.0* %a, i32 0, i32 2
  %850 = load %dimension_descriptor*, %dimension_descriptor** %849, align 8
  %851 = getelementptr inbounds %dimension_descriptor, %dimension_descriptor* %850, i32 0
  %852 = getelementptr %dimension_descriptor, %dimension_descriptor* %851, i32 0, i32 1
  %853 = load i32, i32* %852, align 4
  %854 = sub i32 %846, %853
  %855 = mul i32 1, %854
  %856 = add i32 0, %855
  %857 = getelementptr %dimension_descriptor, %dimension_descriptor* %851, i32 0, i32 3
  %858 = load i32, i32* %857, align 4
  %859 = mul i32 1, %858
  %860 = getelementptr inbounds %dimension_descriptor, %dimension_descriptor* %850, i32 1
  %861 = getelementptr %dimension_descriptor, %dimension_descriptor* %860, i32 0, i32 1
  %862 = load i32, i32* %861, align 4
  %863 = sub i32 %847, %862
  %864 = mul i32 %859, %863
  %865 = add i32 %856, %864
  %866 = getelementptr %dimension_descriptor, %dimension_descriptor* %860, i32 0, i32 3
  %867 = load i32, i32* %866, align 4
  %868 = mul i32 %859, %867
  %869 = getelementptr inbounds %dimension_descriptor, %dimension_descriptor* %850, i32 2
  %870 = getelementptr %dimension_descriptor, %dimension_descriptor* %869, i32 0, i32 1
  %871 = load i32, i32* %870, align 4
  %872 = sub i32 %848, %871
  %873 = mul i32 %868, %872
  %874 = add i32 %865, %873
  %875 = getelementptr %dimension_descriptor, %dimension_descriptor* %869, i32 0, i32 3
  %876 = load i32, i32* %875, align 4
  %877 = mul i32 %868, %876
  %878 = getelementptr %array.0, %array.0* %a, i32 0, i32 0
  %879 = load i32*, i32** %878, align 8
  %880 = getelementptr inbounds i32, i32* %879, i32 %874
  %881 = load i32, i32* %880, align 4
  %882 = load i32, i32* %"1_v", align 4
  %883 = load i32, i32* %"2_v", align 4
  %884 = load i32, i32* %"3_v", align 4
  %885 = getelementptr %array.0, %array.0* %b, i32 0, i32 2
  %886 = load %dimension_descriptor*, %dimension_descriptor** %885, align 8
  %887 = getelementptr inbounds %dimension_descriptor, %dimension_descriptor* %886, i32 0
  %888 = getelementptr %dimension_descriptor, %dimension_descriptor* %887, i32 0, i32 1
  %889 = load i32, i32* %888, align 4
  %890 = sub i32 %882, %889
  %891 = mul i32 1, %890
  %892 = add i32 0, %891
  %893 = getelementptr %dimension_descriptor, %dimension_descriptor* %887, i32 0, i32 3
  %894 = load i32, i32* %893, align 4
  %895 = mul i32 1, %894
  %896 = getelementptr inbounds %dimension_descriptor, %dimension_descriptor* %886, i32 1
  %897 = getelementptr %dimension_descriptor, %dimension_descriptor* %896, i32 0, i32 1
  %898 = load i32, i32* %897, align 4
  %899 = sub i32 %883, %898
  %900 = mul i32 %895, %899
  %901 = add i32 %892, %900
  %902 = getelementptr %dimension_descriptor, %dimension_descriptor* %896, i32 0, i32 3
  %903 = load i32, i32* %902, align 4
  %904 = mul i32 %895, %903
  %905 = getelementptr inbounds %dimension_descriptor, %dimension_descriptor* %886, i32 2
  %906 = getelementptr %dimension_descriptor, %dimension_descriptor* %905, i32 0, i32 1
  %907 = load i32, i32* %906, align 4
  %908 = sub i32 %884, %907
  %909 = mul i32 %904, %908
  %910 = add i32 %901, %909
  %911 = getelementptr %dimension_descriptor, %dimension_descriptor* %905, i32 0, i32 3
  %912 = load i32, i32* %911, align 4
  %913 = mul i32 %904, %912
  %914 = getelementptr %array.0, %array.0* %b, i32 0, i32 0
  %915 = load i32*, i32** %914, align 8
  %916 = getelementptr inbounds i32, i32* %915, i32 %910
  %917 = load i32, i32* %916, align 4
  %918 = sub i32 %881, %917
  store i32 %918, i32* %845, align 4
  %919 = load i32, i32* %"3_v", align 4
  %920 = add i32 %919, 1
  store i32 %920, i32* %"3_v", align 4
  br label %loop.head20

loop.end22:                                       ; preds = %loop.head20
  %921 = load i32, i32* %"2_v", align 4
  %922 = add i32 %921, 1
  store i32 %922, i32* %"2_v", align 4
  br label %loop.head18

loop.end23:                                       ; preds = %loop.head18
  %923 = load i32, i32* %"1_v", align 4
  %924 = add i32 %923, 1
  store i32 %924, i32* %"1_v", align 4
  br label %loop.head16

loop.end24:                                       ; preds = %loop.head16
  %925 = getelementptr %array.0, %array.0* %c, i32 0, i32 2
  %926 = load %dimension_descriptor*, %dimension_descriptor** %925, align 8
  %927 = getelementptr inbounds %dimension_descriptor, %dimension_descriptor* %926, i32 0
  %928 = getelementptr %dimension_descriptor, %dimension_descriptor* %927, i32 0, i32 1
  %929 = load i32, i32* %928, align 4
  %930 = sub i32 1, %929
  %931 = mul i32 1, %930
  %932 = add i32 0, %931
  %933 = getelementptr %dimension_descriptor, %dimension_descriptor* %927, i32 0, i32 3
  %934 = load i32, i32* %933, align 4
  %935 = mul i32 1, %934
  %936 = getelementptr inbounds %dimension_descriptor, %dimension_descriptor* %926, i32 1
  %937 = getelementptr %dimension_descriptor, %dimension_descriptor* %936, i32 0, i32 1
  %938 = load i32, i32* %937, align 4
  %939 = sub i32 1, %938
  %940 = mul i32 %935, %939
  %941 = add i32 %932, %940
  %942 = getelementptr %dimension_descriptor, %dimension_descriptor* %936, i32 0, i32 3
  %943 = load i32, i32* %942, align 4
  %944 = mul i32 %935, %943
  %945 = getelementptr inbounds %dimension_descriptor, %dimension_descriptor* %926, i32 2
  %946 = getelementptr %dimension_descriptor, %dimension_descriptor* %945, i32 0, i32 1
  %947 = load i32, i32* %946, align 4
  %948 = sub i32 1, %947
  %949 = mul i32 %944, %948
  %950 = add i32 %941, %949
  %951 = getelementptr %dimension_descriptor, %dimension_descriptor* %945, i32 0, i32 3
  %952 = load i32, i32* %951, align 4
  %953 = mul i32 %944, %952
  %954 = getelementptr %array.0, %array.0* %c, i32 0, i32 0
  %955 = load i32*, i32** %954, align 8
  %956 = getelementptr inbounds i32, i32* %955, i32 %950
  %957 = load i32, i32* %956, align 4
  %958 = getelementptr %array.0, %array.0* %c, i32 0, i32 2
  %959 = load %dimension_descriptor*, %dimension_descriptor** %958, align 8
  %960 = getelementptr inbounds %dimension_descriptor, %dimension_descriptor* %959, i32 0
  %961 = getelementptr %dimension_descriptor, %dimension_descriptor* %960, i32 0, i32 1
  %962 = load i32, i32* %961, align 4
  %963 = sub i32 1, %962
  %964 = mul i32 1, %963
  %965 = add i32 0, %964
  %966 = getelementptr %dimension_descriptor, %dimension_descriptor* %960, i32 0, i32 3
  %967 = load i32, i32* %966, align 4
  %968 = mul i32 1, %967
  %969 = getelementptr inbounds %dimension_descriptor, %dimension_descriptor* %959, i32 1
  %970 = getelementptr %dimension_descriptor, %dimension_descriptor* %969, i32 0, i32 1
  %971 = load i32, i32* %970, align 4
  %972 = sub i32 2, %971
  %973 = mul i32 %968, %972
  %974 = add i32 %965, %973
  %975 = getelementptr %dimension_descriptor, %dimension_descriptor* %969, i32 0, i32 3
  %976 = load i32, i32* %975, align 4
  %977 = mul i32 %968, %976
  %978 = getelementptr inbounds %dimension_descriptor, %dimension_descriptor* %959, i32 2
  %979 = getelementptr %dimension_descriptor, %dimension_descriptor* %978, i32 0, i32 1
  %980 = load i32, i32* %979, align 4
  %981 = sub i32 1, %980
  %982 = mul i32 %977, %981
  %983 = add i32 %974, %982
  %984 = getelementptr %dimension_descriptor, %dimension_descriptor* %978, i32 0, i32 3
  %985 = load i32, i32* %984, align 4
  %986 = mul i32 %977, %985
  %987 = getelementptr %array.0, %array.0* %c, i32 0, i32 0
  %988 = load i32*, i32** %987, align 8
  %989 = getelementptr inbounds i32, i32* %988, i32 %983
  %990 = load i32, i32* %989, align 4
  %991 = getelementptr %array.0, %array.0* %c, i32 0, i32 2
  %992 = load %dimension_descriptor*, %dimension_descriptor** %991, align 8
  %993 = getelementptr inbounds %dimension_descriptor, %dimension_descriptor* %992, i32 0
  %994 = getelementptr %dimension_descriptor, %dimension_descriptor* %993, i32 0, i32 1
  %995 = load i32, i32* %994, align 4
  %996 = sub i32 2, %995
  %997 = mul i32 1, %996
  %998 = add i32 0, %997
  %999 = getelementptr %dimension_descriptor, %dimension_descriptor* %993, i32 0, i32 3
  %1000 = load i32, i32* %999, align 4
  %1001 = mul i32 1, %1000
  %1002 = getelementptr inbounds %dimension_descriptor, %dimension_descriptor* %992, i32 1
  %1003 = getelementptr %dimension_descriptor, %dimension_descriptor* %1002, i32 0, i32 1
  %1004 = load i32, i32* %1003, align 4
  %1005 = sub i32 1, %1004
  %1006 = mul i32 %1001, %1005
  %1007 = add i32 %998, %1006
  %1008 = getelementptr %dimension_descriptor, %dimension_descriptor* %1002, i32 0, i32 3
  %1009 = load i32, i32* %1008, align 4
  %1010 = mul i32 %1001, %1009
  %1011 = getelementptr inbounds %dimension_descriptor, %dimension_descriptor* %992, i32 2
  %1012 = getelementptr %dimension_descriptor, %dimension_descriptor* %1011, i32 0, i32 1
  %1013 = load i32, i32* %1012, align 4
  %1014 = sub i32 1, %1013
  %1015 = mul i32 %1010, %1014
  %1016 = add i32 %1007, %1015
  %1017 = getelementptr %dimension_descriptor, %dimension_descriptor* %1011, i32 0, i32 3
  %1018 = load i32, i32* %1017, align 4
  %1019 = mul i32 %1010, %1018
  %1020 = getelementptr %array.0, %array.0* %c, i32 0, i32 0
  %1021 = load i32*, i32** %1020, align 8
  %1022 = getelementptr inbounds i32, i32* %1021, i32 %1016
  %1023 = load i32, i32* %1022, align 4
  %1024 = getelementptr %array.0, %array.0* %c, i32 0, i32 2
  %1025 = load %dimension_descriptor*, %dimension_descriptor** %1024, align 8
  %1026 = getelementptr inbounds %dimension_descriptor, %dimension_descriptor* %1025, i32 0
  %1027 = getelementptr %dimension_descriptor, %dimension_descriptor* %1026, i32 0, i32 1
  %1028 = load i32, i32* %1027, align 4
  %1029 = sub i32 2, %1028
  %1030 = mul i32 1, %1029
  %1031 = add i32 0, %1030
  %1032 = getelementptr %dimension_descriptor, %dimension_descriptor* %1026, i32 0, i32 3
  %1033 = load i32, i32* %1032, align 4
  %1034 = mul i32 1, %1033
  %1035 = getelementptr inbounds %dimension_descriptor, %dimension_descriptor* %1025, i32 1
  %1036 = getelementptr %dimension_descriptor, %dimension_descriptor* %1035, i32 0, i32 1
  %1037 = load i32, i32* %1036, align 4
  %1038 = sub i32 2, %1037
  %1039 = mul i32 %1034, %1038
  %1040 = add i32 %1031, %1039
  %1041 = getelementptr %dimension_descriptor, %dimension_descriptor* %1035, i32 0, i32 3
  %1042 = load i32, i32* %1041, align 4
  %1043 = mul i32 %1034, %1042
  %1044 = getelementptr inbounds %dimension_descriptor, %dimension_descriptor* %1025, i32 2
  %1045 = getelementptr %dimension_descriptor, %dimension_descriptor* %1044, i32 0, i32 1
  %1046 = load i32, i32* %1045, align 4
  %1047 = sub i32 1, %1046
  %1048 = mul i32 %1043, %1047
  %1049 = add i32 %1040, %1048
  %1050 = getelementptr %dimension_descriptor, %dimension_descriptor* %1044, i32 0, i32 3
  %1051 = load i32, i32* %1050, align 4
  %1052 = mul i32 %1043, %1051
  %1053 = getelementptr %array.0, %array.0* %c, i32 0, i32 0
  %1054 = load i32*, i32** %1053, align 8
  %1055 = getelementptr inbounds i32, i32* %1054, i32 %1049
  %1056 = load i32, i32* %1055, align 4
  call void (i8*, ...) @_lfortran_printf(i8* getelementptr inbounds ([13 x i8], [13 x i8]* @3, i32 0, i32 0), i32 %957, i32 %990, i32 %1023, i32 %1056)
  store i32 1, i32* %"1_v", align 4
  %1057 = alloca %dimension_descriptor*, align 8
  %1058 = getelementptr %array.0, %array.0* %c, i32 0, i32 2
  %1059 = load %dimension_descriptor*, %dimension_descriptor** %1058, align 8
  store %dimension_descriptor* %1059, %dimension_descriptor** %1057, align 8
  %1060 = alloca i32, align 4
  store i32 1, i32* %1060, align 4
  %1061 = call i32 @__module_lfortran_intrinsic_builtin_lbound(%dimension_descriptor** %1057, i32* %1060)
  %1062 = sub i32 %1061, 1
  store i32 %1062, i32* %"1_t", align 4
  br label %loop.head25

loop.head25:                                      ; preds = %loop.end32, %loop.end24
  %1063 = load i32, i32* %"1_t", align 4
  %1064 = add i32 %1063, 1
  %1065 = alloca %dimension_descriptor*, align 8
  %1066 = getelementptr %array.0, %array.0* %c, i32 0, i32 2
  %1067 = load %dimension_descriptor*, %dimension_descriptor** %1066, align 8
  store %dimension_descriptor* %1067, %dimension_descriptor** %1065, align 8
  %1068 = alloca i32, align 4
  store i32 1, i32* %1068, align 4
  %1069 = call i32 @__module_lfortran_intrinsic_builtin_ubound(%dimension_descriptor** %1065, i32* %1068)
  %1070 = icmp sle i32 %1064, %1069
  br i1 %1070, label %loop.body26, label %loop.end33

loop.body26:                                      ; preds = %loop.head25
  %1071 = load i32, i32* %"1_t", align 4
  %1072 = add i32 %1071, 1
  store i32 %1072, i32* %"1_t", align 4
  store i32 1, i32* %"2_v", align 4
  %1073 = alloca %dimension_descriptor*, align 8
  %1074 = getelementptr %array.0, %array.0* %c, i32 0, i32 2
  %1075 = load %dimension_descriptor*, %dimension_descriptor** %1074, align 8
  store %dimension_descriptor* %1075, %dimension_descriptor** %1073, align 8
  %1076 = alloca i32, align 4
  store i32 2, i32* %1076, align 4
  %1077 = call i32 @__module_lfortran_intrinsic_builtin_lbound(%dimension_descriptor** %1073, i32* %1076)
  %1078 = sub i32 %1077, 1
  store i32 %1078, i32* %"2_t", align 4
  br label %loop.head27

loop.head27:                                      ; preds = %loop.end31, %loop.body26
  %1079 = load i32, i32* %"2_t", align 4
  %1080 = add i32 %1079, 1
  %1081 = alloca %dimension_descriptor*, align 8
  %1082 = getelementptr %array.0, %array.0* %c, i32 0, i32 2
  %1083 = load %dimension_descriptor*, %dimension_descriptor** %1082, align 8
  store %dimension_descriptor* %1083, %dimension_descriptor** %1081, align 8
  %1084 = alloca i32, align 4
  store i32 2, i32* %1084, align 4
  %1085 = call i32 @__module_lfortran_intrinsic_builtin_ubound(%dimension_descriptor** %1081, i32* %1084)
  %1086 = icmp sle i32 %1080, %1085
  br i1 %1086, label %loop.body28, label %loop.end32

loop.body28:                                      ; preds = %loop.head27
  %1087 = load i32, i32* %"2_t", align 4
  %1088 = add i32 %1087, 1
  store i32 %1088, i32* %"2_t", align 4
  store i32 1, i32* %"3_v", align 4
  %1089 = alloca %dimension_descriptor*, align 8
  %1090 = getelementptr %array.0, %array.0* %c, i32 0, i32 2
  %1091 = load %dimension_descriptor*, %dimension_descriptor** %1090, align 8
  store %dimension_descriptor* %1091, %dimension_descriptor** %1089, align 8
  %1092 = alloca i32, align 4
  store i32 3, i32* %1092, align 4
  %1093 = call i32 @__module_lfortran_intrinsic_builtin_lbound(%dimension_descriptor** %1089, i32* %1092)
  %1094 = sub i32 %1093, 1
  store i32 %1094, i32* %"3_t", align 4
  br label %loop.head29

loop.head29:                                      ; preds = %loop.body30, %loop.body28
  %1095 = load i32, i32* %"3_t", align 4
  %1096 = add i32 %1095, 1
  %1097 = alloca %dimension_descriptor*, align 8
  %1098 = getelementptr %array.0, %array.0* %c, i32 0, i32 2
  %1099 = load %dimension_descriptor*, %dimension_descriptor** %1098, align 8
  store %dimension_descriptor* %1099, %dimension_descriptor** %1097, align 8
  %1100 = alloca i32, align 4
  store i32 3, i32* %1100, align 4
  %1101 = call i32 @__module_lfortran_intrinsic_builtin_ubound(%dimension_descriptor** %1097, i32* %1100)
  %1102 = icmp sle i32 %1096, %1101
  br i1 %1102, label %loop.body30, label %loop.end31

loop.body30:                                      ; preds = %loop.head29
  %1103 = load i32, i32* %"3_t", align 4
  %1104 = add i32 %1103, 1
  store i32 %1104, i32* %"3_t", align 4
  %1105 = load i32, i32* %"1_t", align 4
  %1106 = load i32, i32* %"2_t", align 4
  %1107 = load i32, i32* %"3_t", align 4
  %1108 = getelementptr %array.0, %array.0* %c, i32 0, i32 2
  %1109 = load %dimension_descriptor*, %dimension_descriptor** %1108, align 8
  %1110 = getelementptr inbounds %dimension_descriptor, %dimension_descriptor* %1109, i32 0
  %1111 = getelementptr %dimension_descriptor, %dimension_descriptor* %1110, i32 0, i32 1
  %1112 = load i32, i32* %1111, align 4
  %1113 = sub i32 %1105, %1112
  %1114 = mul i32 1, %1113
  %1115 = add i32 0, %1114
  %1116 = getelementptr %dimension_descriptor, %dimension_descriptor* %1110, i32 0, i32 3
  %1117 = load i32, i32* %1116, align 4
  %1118 = mul i32 1, %1117
  %1119 = getelementptr inbounds %dimension_descriptor, %dimension_descriptor* %1109, i32 1
  %1120 = getelementptr %dimension_descriptor, %dimension_descriptor* %1119, i32 0, i32 1
  %1121 = load i32, i32* %1120, align 4
  %1122 = sub i32 %1106, %1121
  %1123 = mul i32 %1118, %1122
  %1124 = add i32 %1115, %1123
  %1125 = getelementptr %dimension_descriptor, %dimension_descriptor* %1119, i32 0, i32 3
  %1126 = load i32, i32* %1125, align 4
  %1127 = mul i32 %1118, %1126
  %1128 = getelementptr inbounds %dimension_descriptor, %dimension_descriptor* %1109, i32 2
  %1129 = getelementptr %dimension_descriptor, %dimension_descriptor* %1128, i32 0, i32 1
  %1130 = load i32, i32* %1129, align 4
  %1131 = sub i32 %1107, %1130
  %1132 = mul i32 %1127, %1131
  %1133 = add i32 %1124, %1132
  %1134 = getelementptr %dimension_descriptor, %dimension_descriptor* %1128, i32 0, i32 3
  %1135 = load i32, i32* %1134, align 4
  %1136 = mul i32 %1127, %1135
  %1137 = getelementptr %array.0, %array.0* %c, i32 0, i32 0
  %1138 = load i32*, i32** %1137, align 8
  %1139 = getelementptr inbounds i32, i32* %1138, i32 %1133
  %1140 = load i32, i32* %"1_v", align 4
  %1141 = load i32, i32* %"2_v", align 4
  %1142 = load i32, i32* %"3_v", align 4
  %1143 = getelementptr %array.0, %array.0* %a, i32 0, i32 2
  %1144 = load %dimension_descriptor*, %dimension_descriptor** %1143, align 8
  %1145 = getelementptr inbounds %dimension_descriptor, %dimension_descriptor* %1144, i32 0
  %1146 = getelementptr %dimension_descriptor, %dimension_descriptor* %1145, i32 0, i32 1
  %1147 = load i32, i32* %1146, align 4
  %1148 = sub i32 %1140, %1147
  %1149 = mul i32 1, %1148
  %1150 = add i32 0, %1149
  %1151 = getelementptr %dimension_descriptor, %dimension_descriptor* %1145, i32 0, i32 3
  %1152 = load i32, i32* %1151, align 4
  %1153 = mul i32 1, %1152
  %1154 = getelementptr inbounds %dimension_descriptor, %dimension_descriptor* %1144, i32 1
  %1155 = getelementptr %dimension_descriptor, %dimension_descriptor* %1154, i32 0, i32 1
  %1156 = load i32, i32* %1155, align 4
  %1157 = sub i32 %1141, %1156
  %1158 = mul i32 %1153, %1157
  %1159 = add i32 %1150, %1158
  %1160 = getelementptr %dimension_descriptor, %dimension_descriptor* %1154, i32 0, i32 3
  %1161 = load i32, i32* %1160, align 4
  %1162 = mul i32 %1153, %1161
  %1163 = getelementptr inbounds %dimension_descriptor, %dimension_descriptor* %1144, i32 2
  %1164 = getelementptr %dimension_descriptor, %dimension_descriptor* %1163, i32 0, i32 1
  %1165 = load i32, i32* %1164, align 4
  %1166 = sub i32 %1142, %1165
  %1167 = mul i32 %1162, %1166
  %1168 = add i32 %1159, %1167
  %1169 = getelementptr %dimension_descriptor, %dimension_descriptor* %1163, i32 0, i32 3
  %1170 = load i32, i32* %1169, align 4
  %1171 = mul i32 %1162, %1170
  %1172 = getelementptr %array.0, %array.0* %a, i32 0, i32 0
  %1173 = load i32*, i32** %1172, align 8
  %1174 = getelementptr inbounds i32, i32* %1173, i32 %1168
  %1175 = load i32, i32* %1174, align 4
  %1176 = load i32, i32* %"1_v", align 4
  %1177 = load i32, i32* %"2_v", align 4
  %1178 = load i32, i32* %"3_v", align 4
  %1179 = getelementptr %array.0, %array.0* %b, i32 0, i32 2
  %1180 = load %dimension_descriptor*, %dimension_descriptor** %1179, align 8
  %1181 = getelementptr inbounds %dimension_descriptor, %dimension_descriptor* %1180, i32 0
  %1182 = getelementptr %dimension_descriptor, %dimension_descriptor* %1181, i32 0, i32 1
  %1183 = load i32, i32* %1182, align 4
  %1184 = sub i32 %1176, %1183
  %1185 = mul i32 1, %1184
  %1186 = add i32 0, %1185
  %1187 = getelementptr %dimension_descriptor, %dimension_descriptor* %1181, i32 0, i32 3
  %1188 = load i32, i32* %1187, align 4
  %1189 = mul i32 1, %1188
  %1190 = getelementptr inbounds %dimension_descriptor, %dimension_descriptor* %1180, i32 1
  %1191 = getelementptr %dimension_descriptor, %dimension_descriptor* %1190, i32 0, i32 1
  %1192 = load i32, i32* %1191, align 4
  %1193 = sub i32 %1177, %1192
  %1194 = mul i32 %1189, %1193
  %1195 = add i32 %1186, %1194
  %1196 = getelementptr %dimension_descriptor, %dimension_descriptor* %1190, i32 0, i32 3
  %1197 = load i32, i32* %1196, align 4
  %1198 = mul i32 %1189, %1197
  %1199 = getelementptr inbounds %dimension_descriptor, %dimension_descriptor* %1180, i32 2
  %1200 = getelementptr %dimension_descriptor, %dimension_descriptor* %1199, i32 0, i32 1
  %1201 = load i32, i32* %1200, align 4
  %1202 = sub i32 %1178, %1201
  %1203 = mul i32 %1198, %1202
  %1204 = add i32 %1195, %1203
  %1205 = getelementptr %dimension_descriptor, %dimension_descriptor* %1199, i32 0, i32 3
  %1206 = load i32, i32* %1205, align 4
  %1207 = mul i32 %1198, %1206
  %1208 = getelementptr %array.0, %array.0* %b, i32 0, i32 0
  %1209 = load i32*, i32** %1208, align 8
  %1210 = getelementptr inbounds i32, i32* %1209, i32 %1204
  %1211 = load i32, i32* %1210, align 4
  %1212 = mul i32 %1175, %1211
  store i32 %1212, i32* %1139, align 4
  %1213 = load i32, i32* %"3_v", align 4
  %1214 = add i32 %1213, 1
  store i32 %1214, i32* %"3_v", align 4
  br label %loop.head29

loop.end31:                                       ; preds = %loop.head29
  %1215 = load i32, i32* %"2_v", align 4
  %1216 = add i32 %1215, 1
  store i32 %1216, i32* %"2_v", align 4
  br label %loop.head27

loop.end32:                                       ; preds = %loop.head27
  %1217 = load i32, i32* %"1_v", align 4
  %1218 = add i32 %1217, 1
  store i32 %1218, i32* %"1_v", align 4
  br label %loop.head25

loop.end33:                                       ; preds = %loop.head25
  %1219 = getelementptr %array.0, %array.0* %c, i32 0, i32 2
  %1220 = load %dimension_descriptor*, %dimension_descriptor** %1219, align 8
  %1221 = getelementptr inbounds %dimension_descriptor, %dimension_descriptor* %1220, i32 0
  %1222 = getelementptr %dimension_descriptor, %dimension_descriptor* %1221, i32 0, i32 1
  %1223 = load i32, i32* %1222, align 4
  %1224 = sub i32 1, %1223
  %1225 = mul i32 1, %1224
  %1226 = add i32 0, %1225
  %1227 = getelementptr %dimension_descriptor, %dimension_descriptor* %1221, i32 0, i32 3
  %1228 = load i32, i32* %1227, align 4
  %1229 = mul i32 1, %1228
  %1230 = getelementptr inbounds %dimension_descriptor, %dimension_descriptor* %1220, i32 1
  %1231 = getelementptr %dimension_descriptor, %dimension_descriptor* %1230, i32 0, i32 1
  %1232 = load i32, i32* %1231, align 4
  %1233 = sub i32 1, %1232
  %1234 = mul i32 %1229, %1233
  %1235 = add i32 %1226, %1234
  %1236 = getelementptr %dimension_descriptor, %dimension_descriptor* %1230, i32 0, i32 3
  %1237 = load i32, i32* %1236, align 4
  %1238 = mul i32 %1229, %1237
  %1239 = getelementptr inbounds %dimension_descriptor, %dimension_descriptor* %1220, i32 2
  %1240 = getelementptr %dimension_descriptor, %dimension_descriptor* %1239, i32 0, i32 1
  %1241 = load i32, i32* %1240, align 4
  %1242 = sub i32 1, %1241
  %1243 = mul i32 %1238, %1242
  %1244 = add i32 %1235, %1243
  %1245 = getelementptr %dimension_descriptor, %dimension_descriptor* %1239, i32 0, i32 3
  %1246 = load i32, i32* %1245, align 4
  %1247 = mul i32 %1238, %1246
  %1248 = getelementptr %array.0, %array.0* %c, i32 0, i32 0
  %1249 = load i32*, i32** %1248, align 8
  %1250 = getelementptr inbounds i32, i32* %1249, i32 %1244
  %1251 = load i32, i32* %1250, align 4
  %1252 = getelementptr %array.0, %array.0* %c, i32 0, i32 2
  %1253 = load %dimension_descriptor*, %dimension_descriptor** %1252, align 8
  %1254 = getelementptr inbounds %dimension_descriptor, %dimension_descriptor* %1253, i32 0
  %1255 = getelementptr %dimension_descriptor, %dimension_descriptor* %1254, i32 0, i32 1
  %1256 = load i32, i32* %1255, align 4
  %1257 = sub i32 1, %1256
  %1258 = mul i32 1, %1257
  %1259 = add i32 0, %1258
  %1260 = getelementptr %dimension_descriptor, %dimension_descriptor* %1254, i32 0, i32 3
  %1261 = load i32, i32* %1260, align 4
  %1262 = mul i32 1, %1261
  %1263 = getelementptr inbounds %dimension_descriptor, %dimension_descriptor* %1253, i32 1
  %1264 = getelementptr %dimension_descriptor, %dimension_descriptor* %1263, i32 0, i32 1
  %1265 = load i32, i32* %1264, align 4
  %1266 = sub i32 2, %1265
  %1267 = mul i32 %1262, %1266
  %1268 = add i32 %1259, %1267
  %1269 = getelementptr %dimension_descriptor, %dimension_descriptor* %1263, i32 0, i32 3
  %1270 = load i32, i32* %1269, align 4
  %1271 = mul i32 %1262, %1270
  %1272 = getelementptr inbounds %dimension_descriptor, %dimension_descriptor* %1253, i32 2
  %1273 = getelementptr %dimension_descriptor, %dimension_descriptor* %1272, i32 0, i32 1
  %1274 = load i32, i32* %1273, align 4
  %1275 = sub i32 1, %1274
  %1276 = mul i32 %1271, %1275
  %1277 = add i32 %1268, %1276
  %1278 = getelementptr %dimension_descriptor, %dimension_descriptor* %1272, i32 0, i32 3
  %1279 = load i32, i32* %1278, align 4
  %1280 = mul i32 %1271, %1279
  %1281 = getelementptr %array.0, %array.0* %c, i32 0, i32 0
  %1282 = load i32*, i32** %1281, align 8
  %1283 = getelementptr inbounds i32, i32* %1282, i32 %1277
  %1284 = load i32, i32* %1283, align 4
  %1285 = getelementptr %array.0, %array.0* %c, i32 0, i32 2
  %1286 = load %dimension_descriptor*, %dimension_descriptor** %1285, align 8
  %1287 = getelementptr inbounds %dimension_descriptor, %dimension_descriptor* %1286, i32 0
  %1288 = getelementptr %dimension_descriptor, %dimension_descriptor* %1287, i32 0, i32 1
  %1289 = load i32, i32* %1288, align 4
  %1290 = sub i32 2, %1289
  %1291 = mul i32 1, %1290
  %1292 = add i32 0, %1291
  %1293 = getelementptr %dimension_descriptor, %dimension_descriptor* %1287, i32 0, i32 3
  %1294 = load i32, i32* %1293, align 4
  %1295 = mul i32 1, %1294
  %1296 = getelementptr inbounds %dimension_descriptor, %dimension_descriptor* %1286, i32 1
  %1297 = getelementptr %dimension_descriptor, %dimension_descriptor* %1296, i32 0, i32 1
  %1298 = load i32, i32* %1297, align 4
  %1299 = sub i32 1, %1298
  %1300 = mul i32 %1295, %1299
  %1301 = add i32 %1292, %1300
  %1302 = getelementptr %dimension_descriptor, %dimension_descriptor* %1296, i32 0, i32 3
  %1303 = load i32, i32* %1302, align 4
  %1304 = mul i32 %1295, %1303
  %1305 = getelementptr inbounds %dimension_descriptor, %dimension_descriptor* %1286, i32 2
  %1306 = getelementptr %dimension_descriptor, %dimension_descriptor* %1305, i32 0, i32 1
  %1307 = load i32, i32* %1306, align 4
  %1308 = sub i32 1, %1307
  %1309 = mul i32 %1304, %1308
  %1310 = add i32 %1301, %1309
  %1311 = getelementptr %dimension_descriptor, %dimension_descriptor* %1305, i32 0, i32 3
  %1312 = load i32, i32* %1311, align 4
  %1313 = mul i32 %1304, %1312
  %1314 = getelementptr %array.0, %array.0* %c, i32 0, i32 0
  %1315 = load i32*, i32** %1314, align 8
  %1316 = getelementptr inbounds i32, i32* %1315, i32 %1310
  %1317 = load i32, i32* %1316, align 4
  %1318 = getelementptr %array.0, %array.0* %c, i32 0, i32 2
  %1319 = load %dimension_descriptor*, %dimension_descriptor** %1318, align 8
  %1320 = getelementptr inbounds %dimension_descriptor, %dimension_descriptor* %1319, i32 0
  %1321 = getelementptr %dimension_descriptor, %dimension_descriptor* %1320, i32 0, i32 1
  %1322 = load i32, i32* %1321, align 4
  %1323 = sub i32 2, %1322
  %1324 = mul i32 1, %1323
  %1325 = add i32 0, %1324
  %1326 = getelementptr %dimension_descriptor, %dimension_descriptor* %1320, i32 0, i32 3
  %1327 = load i32, i32* %1326, align 4
  %1328 = mul i32 1, %1327
  %1329 = getelementptr inbounds %dimension_descriptor, %dimension_descriptor* %1319, i32 1
  %1330 = getelementptr %dimension_descriptor, %dimension_descriptor* %1329, i32 0, i32 1
  %1331 = load i32, i32* %1330, align 4
  %1332 = sub i32 2, %1331
  %1333 = mul i32 %1328, %1332
  %1334 = add i32 %1325, %1333
  %1335 = getelementptr %dimension_descriptor, %dimension_descriptor* %1329, i32 0, i32 3
  %1336 = load i32, i32* %1335, align 4
  %1337 = mul i32 %1328, %1336
  %1338 = getelementptr inbounds %dimension_descriptor, %dimension_descriptor* %1319, i32 2
  %1339 = getelementptr %dimension_descriptor, %dimension_descriptor* %1338, i32 0, i32 1
  %1340 = load i32, i32* %1339, align 4
  %1341 = sub i32 1, %1340
  %1342 = mul i32 %1337, %1341
  %1343 = add i32 %1334, %1342
  %1344 = getelementptr %dimension_descriptor, %dimension_descriptor* %1338, i32 0, i32 3
  %1345 = load i32, i32* %1344, align 4
  %1346 = mul i32 %1337, %1345
  %1347 = getelementptr %array.0, %array.0* %c, i32 0, i32 0
  %1348 = load i32*, i32** %1347, align 8
  %1349 = getelementptr inbounds i32, i32* %1348, i32 %1343
  %1350 = load i32, i32* %1349, align 4
  call void (i8*, ...) @_lfortran_printf(i8* getelementptr inbounds ([13 x i8], [13 x i8]* @4, i32 0, i32 0), i32 %1251, i32 %1284, i32 %1317, i32 %1350)
  store i32 1, i32* %"1_v", align 4
  %1351 = alloca %dimension_descriptor*, align 8
  %1352 = getelementptr %array.0, %array.0* %c, i32 0, i32 2
  %1353 = load %dimension_descriptor*, %dimension_descriptor** %1352, align 8
  store %dimension_descriptor* %1353, %dimension_descriptor** %1351, align 8
  %1354 = alloca i32, align 4
  store i32 1, i32* %1354, align 4
  %1355 = call i32 @__module_lfortran_intrinsic_builtin_lbound(%dimension_descriptor** %1351, i32* %1354)
  %1356 = sub i32 %1355, 1
  store i32 %1356, i32* %"1_t", align 4
  br label %loop.head34

loop.head34:                                      ; preds = %loop.end41, %loop.end33
  %1357 = load i32, i32* %"1_t", align 4
  %1358 = add i32 %1357, 1
  %1359 = alloca %dimension_descriptor*, align 8
  %1360 = getelementptr %array.0, %array.0* %c, i32 0, i32 2
  %1361 = load %dimension_descriptor*, %dimension_descriptor** %1360, align 8
  store %dimension_descriptor* %1361, %dimension_descriptor** %1359, align 8
  %1362 = alloca i32, align 4
  store i32 1, i32* %1362, align 4
  %1363 = call i32 @__module_lfortran_intrinsic_builtin_ubound(%dimension_descriptor** %1359, i32* %1362)
  %1364 = icmp sle i32 %1358, %1363
  br i1 %1364, label %loop.body35, label %loop.end42

loop.body35:                                      ; preds = %loop.head34
  %1365 = load i32, i32* %"1_t", align 4
  %1366 = add i32 %1365, 1
  store i32 %1366, i32* %"1_t", align 4
  store i32 1, i32* %"2_v", align 4
  %1367 = alloca %dimension_descriptor*, align 8
  %1368 = getelementptr %array.0, %array.0* %c, i32 0, i32 2
  %1369 = load %dimension_descriptor*, %dimension_descriptor** %1368, align 8
  store %dimension_descriptor* %1369, %dimension_descriptor** %1367, align 8
  %1370 = alloca i32, align 4
  store i32 2, i32* %1370, align 4
  %1371 = call i32 @__module_lfortran_intrinsic_builtin_lbound(%dimension_descriptor** %1367, i32* %1370)
  %1372 = sub i32 %1371, 1
  store i32 %1372, i32* %"2_t", align 4
  br label %loop.head36

loop.head36:                                      ; preds = %loop.end40, %loop.body35
  %1373 = load i32, i32* %"2_t", align 4
  %1374 = add i32 %1373, 1
  %1375 = alloca %dimension_descriptor*, align 8
  %1376 = getelementptr %array.0, %array.0* %c, i32 0, i32 2
  %1377 = load %dimension_descriptor*, %dimension_descriptor** %1376, align 8
  store %dimension_descriptor* %1377, %dimension_descriptor** %1375, align 8
  %1378 = alloca i32, align 4
  store i32 2, i32* %1378, align 4
  %1379 = call i32 @__module_lfortran_intrinsic_builtin_ubound(%dimension_descriptor** %1375, i32* %1378)
  %1380 = icmp sle i32 %1374, %1379
  br i1 %1380, label %loop.body37, label %loop.end41

loop.body37:                                      ; preds = %loop.head36
  %1381 = load i32, i32* %"2_t", align 4
  %1382 = add i32 %1381, 1
  store i32 %1382, i32* %"2_t", align 4
  store i32 1, i32* %"3_v", align 4
  %1383 = alloca %dimension_descriptor*, align 8
  %1384 = getelementptr %array.0, %array.0* %c, i32 0, i32 2
  %1385 = load %dimension_descriptor*, %dimension_descriptor** %1384, align 8
  store %dimension_descriptor* %1385, %dimension_descriptor** %1383, align 8
  %1386 = alloca i32, align 4
  store i32 3, i32* %1386, align 4
  %1387 = call i32 @__module_lfortran_intrinsic_builtin_lbound(%dimension_descriptor** %1383, i32* %1386)
  %1388 = sub i32 %1387, 1
  store i32 %1388, i32* %"3_t", align 4
  br label %loop.head38

loop.head38:                                      ; preds = %loop.body39, %loop.body37
  %1389 = load i32, i32* %"3_t", align 4
  %1390 = add i32 %1389, 1
  %1391 = alloca %dimension_descriptor*, align 8
  %1392 = getelementptr %array.0, %array.0* %c, i32 0, i32 2
  %1393 = load %dimension_descriptor*, %dimension_descriptor** %1392, align 8
  store %dimension_descriptor* %1393, %dimension_descriptor** %1391, align 8
  %1394 = alloca i32, align 4
  store i32 3, i32* %1394, align 4
  %1395 = call i32 @__module_lfortran_intrinsic_builtin_ubound(%dimension_descriptor** %1391, i32* %1394)
  %1396 = icmp sle i32 %1390, %1395
  br i1 %1396, label %loop.body39, label %loop.end40

loop.body39:                                      ; preds = %loop.head38
  %1397 = load i32, i32* %"3_t", align 4
  %1398 = add i32 %1397, 1
  store i32 %1398, i32* %"3_t", align 4
  %1399 = load i32, i32* %"1_t", align 4
  %1400 = load i32, i32* %"2_t", align 4
  %1401 = load i32, i32* %"3_t", align 4
  %1402 = getelementptr %array.0, %array.0* %c, i32 0, i32 2
  %1403 = load %dimension_descriptor*, %dimension_descriptor** %1402, align 8
  %1404 = getelementptr inbounds %dimension_descriptor, %dimension_descriptor* %1403, i32 0
  %1405 = getelementptr %dimension_descriptor, %dimension_descriptor* %1404, i32 0, i32 1
  %1406 = load i32, i32* %1405, align 4
  %1407 = sub i32 %1399, %1406
  %1408 = mul i32 1, %1407
  %1409 = add i32 0, %1408
  %1410 = getelementptr %dimension_descriptor, %dimension_descriptor* %1404, i32 0, i32 3
  %1411 = load i32, i32* %1410, align 4
  %1412 = mul i32 1, %1411
  %1413 = getelementptr inbounds %dimension_descriptor, %dimension_descriptor* %1403, i32 1
  %1414 = getelementptr %dimension_descriptor, %dimension_descriptor* %1413, i32 0, i32 1
  %1415 = load i32, i32* %1414, align 4
  %1416 = sub i32 %1400, %1415
  %1417 = mul i32 %1412, %1416
  %1418 = add i32 %1409, %1417
  %1419 = getelementptr %dimension_descriptor, %dimension_descriptor* %1413, i32 0, i32 3
  %1420 = load i32, i32* %1419, align 4
  %1421 = mul i32 %1412, %1420
  %1422 = getelementptr inbounds %dimension_descriptor, %dimension_descriptor* %1403, i32 2
  %1423 = getelementptr %dimension_descriptor, %dimension_descriptor* %1422, i32 0, i32 1
  %1424 = load i32, i32* %1423, align 4
  %1425 = sub i32 %1401, %1424
  %1426 = mul i32 %1421, %1425
  %1427 = add i32 %1418, %1426
  %1428 = getelementptr %dimension_descriptor, %dimension_descriptor* %1422, i32 0, i32 3
  %1429 = load i32, i32* %1428, align 4
  %1430 = mul i32 %1421, %1429
  %1431 = getelementptr %array.0, %array.0* %c, i32 0, i32 0
  %1432 = load i32*, i32** %1431, align 8
  %1433 = getelementptr inbounds i32, i32* %1432, i32 %1427
  %1434 = load i32, i32* %"1_v", align 4
  %1435 = load i32, i32* %"2_v", align 4
  %1436 = load i32, i32* %"3_v", align 4
  %1437 = getelementptr %array.0, %array.0* %b, i32 0, i32 2
  %1438 = load %dimension_descriptor*, %dimension_descriptor** %1437, align 8
  %1439 = getelementptr inbounds %dimension_descriptor, %dimension_descriptor* %1438, i32 0
  %1440 = getelementptr %dimension_descriptor, %dimension_descriptor* %1439, i32 0, i32 1
  %1441 = load i32, i32* %1440, align 4
  %1442 = sub i32 %1434, %1441
  %1443 = mul i32 1, %1442
  %1444 = add i32 0, %1443
  %1445 = getelementptr %dimension_descriptor, %dimension_descriptor* %1439, i32 0, i32 3
  %1446 = load i32, i32* %1445, align 4
  %1447 = mul i32 1, %1446
  %1448 = getelementptr inbounds %dimension_descriptor, %dimension_descriptor* %1438, i32 1
  %1449 = getelementptr %dimension_descriptor, %dimension_descriptor* %1448, i32 0, i32 1
  %1450 = load i32, i32* %1449, align 4
  %1451 = sub i32 %1435, %1450
  %1452 = mul i32 %1447, %1451
  %1453 = add i32 %1444, %1452
  %1454 = getelementptr %dimension_descriptor, %dimension_descriptor* %1448, i32 0, i32 3
  %1455 = load i32, i32* %1454, align 4
  %1456 = mul i32 %1447, %1455
  %1457 = getelementptr inbounds %dimension_descriptor, %dimension_descriptor* %1438, i32 2
  %1458 = getelementptr %dimension_descriptor, %dimension_descriptor* %1457, i32 0, i32 1
  %1459 = load i32, i32* %1458, align 4
  %1460 = sub i32 %1436, %1459
  %1461 = mul i32 %1456, %1460
  %1462 = add i32 %1453, %1461
  %1463 = getelementptr %dimension_descriptor, %dimension_descriptor* %1457, i32 0, i32 3
  %1464 = load i32, i32* %1463, align 4
  %1465 = mul i32 %1456, %1464
  %1466 = getelementptr %array.0, %array.0* %b, i32 0, i32 0
  %1467 = load i32*, i32** %1466, align 8
  %1468 = getelementptr inbounds i32, i32* %1467, i32 %1462
  %1469 = load i32, i32* %1468, align 4
  %1470 = load i32, i32* %"1_v", align 4
  %1471 = load i32, i32* %"2_v", align 4
  %1472 = load i32, i32* %"3_v", align 4
  %1473 = getelementptr %array.0, %array.0* %a, i32 0, i32 2
  %1474 = load %dimension_descriptor*, %dimension_descriptor** %1473, align 8
  %1475 = getelementptr inbounds %dimension_descriptor, %dimension_descriptor* %1474, i32 0
  %1476 = getelementptr %dimension_descriptor, %dimension_descriptor* %1475, i32 0, i32 1
  %1477 = load i32, i32* %1476, align 4
  %1478 = sub i32 %1470, %1477
  %1479 = mul i32 1, %1478
  %1480 = add i32 0, %1479
  %1481 = getelementptr %dimension_descriptor, %dimension_descriptor* %1475, i32 0, i32 3
  %1482 = load i32, i32* %1481, align 4
  %1483 = mul i32 1, %1482
  %1484 = getelementptr inbounds %dimension_descriptor, %dimension_descriptor* %1474, i32 1
  %1485 = getelementptr %dimension_descriptor, %dimension_descriptor* %1484, i32 0, i32 1
  %1486 = load i32, i32* %1485, align 4
  %1487 = sub i32 %1471, %1486
  %1488 = mul i32 %1483, %1487
  %1489 = add i32 %1480, %1488
  %1490 = getelementptr %dimension_descriptor, %dimension_descriptor* %1484, i32 0, i32 3
  %1491 = load i32, i32* %1490, align 4
  %1492 = mul i32 %1483, %1491
  %1493 = getelementptr inbounds %dimension_descriptor, %dimension_descriptor* %1474, i32 2
  %1494 = getelementptr %dimension_descriptor, %dimension_descriptor* %1493, i32 0, i32 1
  %1495 = load i32, i32* %1494, align 4
  %1496 = sub i32 %1472, %1495
  %1497 = mul i32 %1492, %1496
  %1498 = add i32 %1489, %1497
  %1499 = getelementptr %dimension_descriptor, %dimension_descriptor* %1493, i32 0, i32 3
  %1500 = load i32, i32* %1499, align 4
  %1501 = mul i32 %1492, %1500
  %1502 = getelementptr %array.0, %array.0* %a, i32 0, i32 0
  %1503 = load i32*, i32** %1502, align 8
  %1504 = getelementptr inbounds i32, i32* %1503, i32 %1498
  %1505 = load i32, i32* %1504, align 4
  %1506 = udiv i32 %1469, %1505
  store i32 %1506, i32* %1433, align 4
  %1507 = load i32, i32* %"3_v", align 4
  %1508 = add i32 %1507, 1
  store i32 %1508, i32* %"3_v", align 4
  br label %loop.head38

loop.end40:                                       ; preds = %loop.head38
  %1509 = load i32, i32* %"2_v", align 4
  %1510 = add i32 %1509, 1
  store i32 %1510, i32* %"2_v", align 4
  br label %loop.head36

loop.end41:                                       ; preds = %loop.head36
  %1511 = load i32, i32* %"1_v", align 4
  %1512 = add i32 %1511, 1
  store i32 %1512, i32* %"1_v", align 4
  br label %loop.head34

loop.end42:                                       ; preds = %loop.head34
  %1513 = getelementptr %array.0, %array.0* %c, i32 0, i32 2
  %1514 = load %dimension_descriptor*, %dimension_descriptor** %1513, align 8
  %1515 = getelementptr inbounds %dimension_descriptor, %dimension_descriptor* %1514, i32 0
  %1516 = getelementptr %dimension_descriptor, %dimension_descriptor* %1515, i32 0, i32 1
  %1517 = load i32, i32* %1516, align 4
  %1518 = sub i32 1, %1517
  %1519 = mul i32 1, %1518
  %1520 = add i32 0, %1519
  %1521 = getelementptr %dimension_descriptor, %dimension_descriptor* %1515, i32 0, i32 3
  %1522 = load i32, i32* %1521, align 4
  %1523 = mul i32 1, %1522
  %1524 = getelementptr inbounds %dimension_descriptor, %dimension_descriptor* %1514, i32 1
  %1525 = getelementptr %dimension_descriptor, %dimension_descriptor* %1524, i32 0, i32 1
  %1526 = load i32, i32* %1525, align 4
  %1527 = sub i32 1, %1526
  %1528 = mul i32 %1523, %1527
  %1529 = add i32 %1520, %1528
  %1530 = getelementptr %dimension_descriptor, %dimension_descriptor* %1524, i32 0, i32 3
  %1531 = load i32, i32* %1530, align 4
  %1532 = mul i32 %1523, %1531
  %1533 = getelementptr inbounds %dimension_descriptor, %dimension_descriptor* %1514, i32 2
  %1534 = getelementptr %dimension_descriptor, %dimension_descriptor* %1533, i32 0, i32 1
  %1535 = load i32, i32* %1534, align 4
  %1536 = sub i32 1, %1535
  %1537 = mul i32 %1532, %1536
  %1538 = add i32 %1529, %1537
  %1539 = getelementptr %dimension_descriptor, %dimension_descriptor* %1533, i32 0, i32 3
  %1540 = load i32, i32* %1539, align 4
  %1541 = mul i32 %1532, %1540
  %1542 = getelementptr %array.0, %array.0* %c, i32 0, i32 0
  %1543 = load i32*, i32** %1542, align 8
  %1544 = getelementptr inbounds i32, i32* %1543, i32 %1538
  %1545 = load i32, i32* %1544, align 4
  %1546 = getelementptr %array.0, %array.0* %c, i32 0, i32 2
  %1547 = load %dimension_descriptor*, %dimension_descriptor** %1546, align 8
  %1548 = getelementptr inbounds %dimension_descriptor, %dimension_descriptor* %1547, i32 0
  %1549 = getelementptr %dimension_descriptor, %dimension_descriptor* %1548, i32 0, i32 1
  %1550 = load i32, i32* %1549, align 4
  %1551 = sub i32 1, %1550
  %1552 = mul i32 1, %1551
  %1553 = add i32 0, %1552
  %1554 = getelementptr %dimension_descriptor, %dimension_descriptor* %1548, i32 0, i32 3
  %1555 = load i32, i32* %1554, align 4
  %1556 = mul i32 1, %1555
  %1557 = getelementptr inbounds %dimension_descriptor, %dimension_descriptor* %1547, i32 1
  %1558 = getelementptr %dimension_descriptor, %dimension_descriptor* %1557, i32 0, i32 1
  %1559 = load i32, i32* %1558, align 4
  %1560 = sub i32 2, %1559
  %1561 = mul i32 %1556, %1560
  %1562 = add i32 %1553, %1561
  %1563 = getelementptr %dimension_descriptor, %dimension_descriptor* %1557, i32 0, i32 3
  %1564 = load i32, i32* %1563, align 4
  %1565 = mul i32 %1556, %1564
  %1566 = getelementptr inbounds %dimension_descriptor, %dimension_descriptor* %1547, i32 2
  %1567 = getelementptr %dimension_descriptor, %dimension_descriptor* %1566, i32 0, i32 1
  %1568 = load i32, i32* %1567, align 4
  %1569 = sub i32 1, %1568
  %1570 = mul i32 %1565, %1569
  %1571 = add i32 %1562, %1570
  %1572 = getelementptr %dimension_descriptor, %dimension_descriptor* %1566, i32 0, i32 3
  %1573 = load i32, i32* %1572, align 4
  %1574 = mul i32 %1565, %1573
  %1575 = getelementptr %array.0, %array.0* %c, i32 0, i32 0
  %1576 = load i32*, i32** %1575, align 8
  %1577 = getelementptr inbounds i32, i32* %1576, i32 %1571
  %1578 = load i32, i32* %1577, align 4
  %1579 = getelementptr %array.0, %array.0* %c, i32 0, i32 2
  %1580 = load %dimension_descriptor*, %dimension_descriptor** %1579, align 8
  %1581 = getelementptr inbounds %dimension_descriptor, %dimension_descriptor* %1580, i32 0
  %1582 = getelementptr %dimension_descriptor, %dimension_descriptor* %1581, i32 0, i32 1
  %1583 = load i32, i32* %1582, align 4
  %1584 = sub i32 2, %1583
  %1585 = mul i32 1, %1584
  %1586 = add i32 0, %1585
  %1587 = getelementptr %dimension_descriptor, %dimension_descriptor* %1581, i32 0, i32 3
  %1588 = load i32, i32* %1587, align 4
  %1589 = mul i32 1, %1588
  %1590 = getelementptr inbounds %dimension_descriptor, %dimension_descriptor* %1580, i32 1
  %1591 = getelementptr %dimension_descriptor, %dimension_descriptor* %1590, i32 0, i32 1
  %1592 = load i32, i32* %1591, align 4
  %1593 = sub i32 1, %1592
  %1594 = mul i32 %1589, %1593
  %1595 = add i32 %1586, %1594
  %1596 = getelementptr %dimension_descriptor, %dimension_descriptor* %1590, i32 0, i32 3
  %1597 = load i32, i32* %1596, align 4
  %1598 = mul i32 %1589, %1597
  %1599 = getelementptr inbounds %dimension_descriptor, %dimension_descriptor* %1580, i32 2
  %1600 = getelementptr %dimension_descriptor, %dimension_descriptor* %1599, i32 0, i32 1
  %1601 = load i32, i32* %1600, align 4
  %1602 = sub i32 1, %1601
  %1603 = mul i32 %1598, %1602
  %1604 = add i32 %1595, %1603
  %1605 = getelementptr %dimension_descriptor, %dimension_descriptor* %1599, i32 0, i32 3
  %1606 = load i32, i32* %1605, align 4
  %1607 = mul i32 %1598, %1606
  %1608 = getelementptr %array.0, %array.0* %c, i32 0, i32 0
  %1609 = load i32*, i32** %1608, align 8
  %1610 = getelementptr inbounds i32, i32* %1609, i32 %1604
  %1611 = load i32, i32* %1610, align 4
  %1612 = getelementptr %array.0, %array.0* %c, i32 0, i32 2
  %1613 = load %dimension_descriptor*, %dimension_descriptor** %1612, align 8
  %1614 = getelementptr inbounds %dimension_descriptor, %dimension_descriptor* %1613, i32 0
  %1615 = getelementptr %dimension_descriptor, %dimension_descriptor* %1614, i32 0, i32 1
  %1616 = load i32, i32* %1615, align 4
  %1617 = sub i32 2, %1616
  %1618 = mul i32 1, %1617
  %1619 = add i32 0, %1618
  %1620 = getelementptr %dimension_descriptor, %dimension_descriptor* %1614, i32 0, i32 3
  %1621 = load i32, i32* %1620, align 4
  %1622 = mul i32 1, %1621
  %1623 = getelementptr inbounds %dimension_descriptor, %dimension_descriptor* %1613, i32 1
  %1624 = getelementptr %dimension_descriptor, %dimension_descriptor* %1623, i32 0, i32 1
  %1625 = load i32, i32* %1624, align 4
  %1626 = sub i32 2, %1625
  %1627 = mul i32 %1622, %1626
  %1628 = add i32 %1619, %1627
  %1629 = getelementptr %dimension_descriptor, %dimension_descriptor* %1623, i32 0, i32 3
  %1630 = load i32, i32* %1629, align 4
  %1631 = mul i32 %1622, %1630
  %1632 = getelementptr inbounds %dimension_descriptor, %dimension_descriptor* %1613, i32 2
  %1633 = getelementptr %dimension_descriptor, %dimension_descriptor* %1632, i32 0, i32 1
  %1634 = load i32, i32* %1633, align 4
  %1635 = sub i32 1, %1634
  %1636 = mul i32 %1631, %1635
  %1637 = add i32 %1628, %1636
  %1638 = getelementptr %dimension_descriptor, %dimension_descriptor* %1632, i32 0, i32 3
  %1639 = load i32, i32* %1638, align 4
  %1640 = mul i32 %1631, %1639
  %1641 = getelementptr %array.0, %array.0* %c, i32 0, i32 0
  %1642 = load i32*, i32** %1641, align 8
  %1643 = getelementptr inbounds i32, i32* %1642, i32 %1637
  %1644 = load i32, i32* %1643, align 4
  call void (i8*, ...) @_lfortran_printf(i8* getelementptr inbounds ([13 x i8], [13 x i8]* @5, i32 0, i32 0), i32 %1545, i32 %1578, i32 %1611, i32 %1644)
  ret i32 0
}

declare void @_lfortran_printf(i8*, ...)
