; ModuleID = 'LFortran'
source_filename = "LFortran"

%dimension_descriptor = type { i32, i32, i32, i32 }
%array.0 = type { float*, i32, %dimension_descriptor*, i1, i32 }

@0 = private unnamed_addr constant [12 x i8] c"ERROR STOP\0A\00", align 1

define i32 @__module_lfortran_intrinsic_builtin_lbound(%dimension_descriptor** %x, i32* %dim) {
.entry:
  %lbound = alloca i32, align 4
  %0 = load %dimension_descriptor*, %dimension_descriptor** %x, align 8
  %1 = load i32, i32* %dim, align 4
  %2 = sub i32 %1, 1
  %3 = getelementptr inbounds %dimension_descriptor, %dimension_descriptor* %0, i32 %2
  %4 = getelementptr %dimension_descriptor, %dimension_descriptor* %3, i32 0, i32 1
  %5 = load i32, i32* %4, align 4
  store i32 %5, i32* %lbound, align 4
  br label %return

return:                                           ; preds = %.entry
  %6 = load i32, i32* %lbound, align 4
  ret i32 %6
}

declare void @__module_lfortran_intrinsic_builtin_move_alloc(i32*, i32*)

define i32 @__module_lfortran_intrinsic_builtin_ubound(%dimension_descriptor** %x, i32* %dim) {
.entry:
  %ubound = alloca i32, align 4
  %0 = load %dimension_descriptor*, %dimension_descriptor** %x, align 8
  %1 = load i32, i32* %dim, align 4
  %2 = sub i32 %1, 1
  %3 = getelementptr inbounds %dimension_descriptor, %dimension_descriptor* %0, i32 %2
  %4 = getelementptr %dimension_descriptor, %dimension_descriptor* %3, i32 0, i32 2
  %5 = load i32, i32* %4, align 4
  store i32 %5, i32* %ubound, align 4
  br label %return

return:                                           ; preds = %.entry
  %6 = load i32, i32* %ubound, align 4
  ret i32 %6
}

define void @asquare(%array.0* %a, %array.0* %b, %array.0* %c, %array.0* %d) {
.entry:
  %"1_t" = alloca i32, align 4
  %"1_v" = alloca i32, align 4
  %"2_t" = alloca i32, align 4
  %"2_v" = alloca i32, align 4
  %"3_t" = alloca i32, align 4
  %"3_v" = alloca i32, align 4
  %"~0_bin_op_res" = alloca %array.0, align 8
  %0 = alloca %dimension_descriptor*, align 8
  %1 = getelementptr %array.0, %array.0* %a, i32 0, i32 2
  %2 = load %dimension_descriptor*, %dimension_descriptor** %1, align 8
  store %dimension_descriptor* %2, %dimension_descriptor** %0, align 8
  %3 = alloca i32, align 4
  store i32 1, i32* %3, align 4
  %4 = call i32 @__module_lfortran_intrinsic_builtin_lbound(%dimension_descriptor** %0, i32* %3)
  %5 = alloca %dimension_descriptor*, align 8
  %6 = getelementptr %array.0, %array.0* %a, i32 0, i32 2
  %7 = load %dimension_descriptor*, %dimension_descriptor** %6, align 8
  store %dimension_descriptor* %7, %dimension_descriptor** %5, align 8
  %8 = alloca i32, align 4
  store i32 1, i32* %8, align 4
  %9 = call i32 @__module_lfortran_intrinsic_builtin_ubound(%dimension_descriptor** %5, i32* %8)
  %10 = alloca %dimension_descriptor*, align 8
  %11 = getelementptr %array.0, %array.0* %a, i32 0, i32 2
  %12 = load %dimension_descriptor*, %dimension_descriptor** %11, align 8
  store %dimension_descriptor* %12, %dimension_descriptor** %10, align 8
  %13 = alloca i32, align 4
  store i32 2, i32* %13, align 4
  %14 = call i32 @__module_lfortran_intrinsic_builtin_lbound(%dimension_descriptor** %10, i32* %13)
  %15 = alloca %dimension_descriptor*, align 8
  %16 = getelementptr %array.0, %array.0* %a, i32 0, i32 2
  %17 = load %dimension_descriptor*, %dimension_descriptor** %16, align 8
  store %dimension_descriptor* %17, %dimension_descriptor** %15, align 8
  %18 = alloca i32, align 4
  store i32 2, i32* %18, align 4
  %19 = call i32 @__module_lfortran_intrinsic_builtin_ubound(%dimension_descriptor** %15, i32* %18)
  %20 = alloca %dimension_descriptor*, align 8
  %21 = getelementptr %array.0, %array.0* %a, i32 0, i32 2
  %22 = load %dimension_descriptor*, %dimension_descriptor** %21, align 8
  store %dimension_descriptor* %22, %dimension_descriptor** %20, align 8
  %23 = alloca i32, align 4
  store i32 3, i32* %23, align 4
  %24 = call i32 @__module_lfortran_intrinsic_builtin_lbound(%dimension_descriptor** %20, i32* %23)
  %25 = alloca %dimension_descriptor*, align 8
  %26 = getelementptr %array.0, %array.0* %a, i32 0, i32 2
  %27 = load %dimension_descriptor*, %dimension_descriptor** %26, align 8
  store %dimension_descriptor* %27, %dimension_descriptor** %25, align 8
  %28 = alloca i32, align 4
  store i32 3, i32* %28, align 4
  %29 = call i32 @__module_lfortran_intrinsic_builtin_ubound(%dimension_descriptor** %25, i32* %28)
  %30 = getelementptr %array.0, %array.0* %"~0_bin_op_res", i32 0, i32 1
  store i32 0, i32* %30, align 4
  %31 = getelementptr %array.0, %array.0* %"~0_bin_op_res", i32 0, i32 2
  %32 = alloca i32, align 4
  store i32 3, i32* %32, align 4
  %33 = load i32, i32* %32, align 4
  %34 = alloca %dimension_descriptor, i32 %33, align 8
  %35 = getelementptr %array.0, %array.0* %"~0_bin_op_res", i32 0, i32 4
  store i32 3, i32* %35, align 4
  store %dimension_descriptor* %34, %dimension_descriptor** %31, align 8
  %36 = load %dimension_descriptor*, %dimension_descriptor** %31, align 8
  %37 = getelementptr inbounds %dimension_descriptor, %dimension_descriptor* %36, i32 0
  %38 = getelementptr %dimension_descriptor, %dimension_descriptor* %37, i32 0, i32 0
  %39 = getelementptr %dimension_descriptor, %dimension_descriptor* %37, i32 0, i32 1
  %40 = getelementptr %dimension_descriptor, %dimension_descriptor* %37, i32 0, i32 2
  %41 = getelementptr %dimension_descriptor, %dimension_descriptor* %37, i32 0, i32 3
  store i32 1, i32* %38, align 4
  store i32 %4, i32* %39, align 4
  store i32 %9, i32* %40, align 4
  %42 = load i32, i32* %40, align 4
  %43 = load i32, i32* %39, align 4
  %44 = sub i32 %42, %43
  %45 = add i32 %44, 1
  store i32 %45, i32* %41, align 4
  %46 = getelementptr inbounds %dimension_descriptor, %dimension_descriptor* %36, i32 1
  %47 = getelementptr %dimension_descriptor, %dimension_descriptor* %46, i32 0, i32 0
  %48 = getelementptr %dimension_descriptor, %dimension_descriptor* %46, i32 0, i32 1
  %49 = getelementptr %dimension_descriptor, %dimension_descriptor* %46, i32 0, i32 2
  %50 = getelementptr %dimension_descriptor, %dimension_descriptor* %46, i32 0, i32 3
  store i32 1, i32* %47, align 4
  store i32 %14, i32* %48, align 4
  store i32 %19, i32* %49, align 4
  %51 = load i32, i32* %49, align 4
  %52 = load i32, i32* %48, align 4
  %53 = sub i32 %51, %52
  %54 = add i32 %53, 1
  store i32 %54, i32* %50, align 4
  %55 = getelementptr inbounds %dimension_descriptor, %dimension_descriptor* %36, i32 2
  %56 = getelementptr %dimension_descriptor, %dimension_descriptor* %55, i32 0, i32 0
  %57 = getelementptr %dimension_descriptor, %dimension_descriptor* %55, i32 0, i32 1
  %58 = getelementptr %dimension_descriptor, %dimension_descriptor* %55, i32 0, i32 2
  %59 = getelementptr %dimension_descriptor, %dimension_descriptor* %55, i32 0, i32 3
  store i32 1, i32* %56, align 4
  store i32 %24, i32* %57, align 4
  store i32 %29, i32* %58, align 4
  %60 = load i32, i32* %58, align 4
  %61 = load i32, i32* %57, align 4
  %62 = sub i32 %60, %61
  %63 = add i32 %62, 1
  store i32 %63, i32* %59, align 4
  %64 = alloca i32, align 4
  %65 = sub i32 %9, %4
  %66 = add i32 %65, 1
  %67 = mul i32 1, %66
  %68 = sub i32 %19, %14
  %69 = add i32 %68, 1
  %70 = mul i32 %67, %69
  %71 = sub i32 %29, %24
  %72 = add i32 %71, 1
  %73 = mul i32 %70, %72
  store i32 %73, i32* %64, align 4
  %74 = getelementptr %array.0, %array.0* %"~0_bin_op_res", i32 0, i32 0
  %75 = load i32, i32* %64, align 4
  %76 = alloca float, i32 %75, align 4
  store float* %76, float** %74, align 8
  store i32 1, i32* %"1_v", align 4
  %77 = alloca %dimension_descriptor*, align 8
  %78 = getelementptr %array.0, %array.0* %"~0_bin_op_res", i32 0, i32 2
  %79 = load %dimension_descriptor*, %dimension_descriptor** %78, align 8
  store %dimension_descriptor* %79, %dimension_descriptor** %77, align 8
  %80 = alloca i32, align 4
  store i32 1, i32* %80, align 4
  %81 = call i32 @__module_lfortran_intrinsic_builtin_lbound(%dimension_descriptor** %77, i32* %80)
  %82 = sub i32 %81, 1
  store i32 %82, i32* %"1_t", align 4
  br label %loop.head

loop.head:                                        ; preds = %loop.end5, %.entry
  %83 = load i32, i32* %"1_t", align 4
  %84 = add i32 %83, 1
  %85 = alloca %dimension_descriptor*, align 8
  %86 = getelementptr %array.0, %array.0* %"~0_bin_op_res", i32 0, i32 2
  %87 = load %dimension_descriptor*, %dimension_descriptor** %86, align 8
  store %dimension_descriptor* %87, %dimension_descriptor** %85, align 8
  %88 = alloca i32, align 4
  store i32 1, i32* %88, align 4
  %89 = call i32 @__module_lfortran_intrinsic_builtin_ubound(%dimension_descriptor** %85, i32* %88)
  %90 = icmp sle i32 %84, %89
  br i1 %90, label %loop.body, label %loop.end6

loop.body:                                        ; preds = %loop.head
  %91 = load i32, i32* %"1_t", align 4
  %92 = add i32 %91, 1
  store i32 %92, i32* %"1_t", align 4
  store i32 1, i32* %"2_v", align 4
  %93 = alloca %dimension_descriptor*, align 8
  %94 = getelementptr %array.0, %array.0* %"~0_bin_op_res", i32 0, i32 2
  %95 = load %dimension_descriptor*, %dimension_descriptor** %94, align 8
  store %dimension_descriptor* %95, %dimension_descriptor** %93, align 8
  %96 = alloca i32, align 4
  store i32 2, i32* %96, align 4
  %97 = call i32 @__module_lfortran_intrinsic_builtin_lbound(%dimension_descriptor** %93, i32* %96)
  %98 = sub i32 %97, 1
  store i32 %98, i32* %"2_t", align 4
  br label %loop.head1

loop.head1:                                       ; preds = %loop.end, %loop.body
  %99 = load i32, i32* %"2_t", align 4
  %100 = add i32 %99, 1
  %101 = alloca %dimension_descriptor*, align 8
  %102 = getelementptr %array.0, %array.0* %"~0_bin_op_res", i32 0, i32 2
  %103 = load %dimension_descriptor*, %dimension_descriptor** %102, align 8
  store %dimension_descriptor* %103, %dimension_descriptor** %101, align 8
  %104 = alloca i32, align 4
  store i32 2, i32* %104, align 4
  %105 = call i32 @__module_lfortran_intrinsic_builtin_ubound(%dimension_descriptor** %101, i32* %104)
  %106 = icmp sle i32 %100, %105
  br i1 %106, label %loop.body2, label %loop.end5

loop.body2:                                       ; preds = %loop.head1
  %107 = load i32, i32* %"2_t", align 4
  %108 = add i32 %107, 1
  store i32 %108, i32* %"2_t", align 4
  store i32 1, i32* %"3_v", align 4
  %109 = alloca %dimension_descriptor*, align 8
  %110 = getelementptr %array.0, %array.0* %"~0_bin_op_res", i32 0, i32 2
  %111 = load %dimension_descriptor*, %dimension_descriptor** %110, align 8
  store %dimension_descriptor* %111, %dimension_descriptor** %109, align 8
  %112 = alloca i32, align 4
  store i32 3, i32* %112, align 4
  %113 = call i32 @__module_lfortran_intrinsic_builtin_lbound(%dimension_descriptor** %109, i32* %112)
  %114 = sub i32 %113, 1
  store i32 %114, i32* %"3_t", align 4
  br label %loop.head3

loop.head3:                                       ; preds = %loop.body4, %loop.body2
  %115 = load i32, i32* %"3_t", align 4
  %116 = add i32 %115, 1
  %117 = alloca %dimension_descriptor*, align 8
  %118 = getelementptr %array.0, %array.0* %"~0_bin_op_res", i32 0, i32 2
  %119 = load %dimension_descriptor*, %dimension_descriptor** %118, align 8
  store %dimension_descriptor* %119, %dimension_descriptor** %117, align 8
  %120 = alloca i32, align 4
  store i32 3, i32* %120, align 4
  %121 = call i32 @__module_lfortran_intrinsic_builtin_ubound(%dimension_descriptor** %117, i32* %120)
  %122 = icmp sle i32 %116, %121
  br i1 %122, label %loop.body4, label %loop.end

loop.body4:                                       ; preds = %loop.head3
  %123 = load i32, i32* %"3_t", align 4
  %124 = add i32 %123, 1
  store i32 %124, i32* %"3_t", align 4
  %125 = load i32, i32* %"1_t", align 4
  %126 = load i32, i32* %"2_t", align 4
  %127 = load i32, i32* %"3_t", align 4
  %128 = getelementptr %array.0, %array.0* %"~0_bin_op_res", i32 0, i32 2
  %129 = load %dimension_descriptor*, %dimension_descriptor** %128, align 8
  %130 = getelementptr inbounds %dimension_descriptor, %dimension_descriptor* %129, i32 0
  %131 = getelementptr %dimension_descriptor, %dimension_descriptor* %130, i32 0, i32 1
  %132 = load i32, i32* %131, align 4
  %133 = sub i32 %125, %132
  %134 = mul i32 1, %133
  %135 = add i32 0, %134
  %136 = getelementptr %dimension_descriptor, %dimension_descriptor* %130, i32 0, i32 3
  %137 = load i32, i32* %136, align 4
  %138 = mul i32 1, %137
  %139 = getelementptr inbounds %dimension_descriptor, %dimension_descriptor* %129, i32 1
  %140 = getelementptr %dimension_descriptor, %dimension_descriptor* %139, i32 0, i32 1
  %141 = load i32, i32* %140, align 4
  %142 = sub i32 %126, %141
  %143 = mul i32 %138, %142
  %144 = add i32 %135, %143
  %145 = getelementptr %dimension_descriptor, %dimension_descriptor* %139, i32 0, i32 3
  %146 = load i32, i32* %145, align 4
  %147 = mul i32 %138, %146
  %148 = getelementptr inbounds %dimension_descriptor, %dimension_descriptor* %129, i32 2
  %149 = getelementptr %dimension_descriptor, %dimension_descriptor* %148, i32 0, i32 1
  %150 = load i32, i32* %149, align 4
  %151 = sub i32 %127, %150
  %152 = mul i32 %147, %151
  %153 = add i32 %144, %152
  %154 = getelementptr %dimension_descriptor, %dimension_descriptor* %148, i32 0, i32 3
  %155 = load i32, i32* %154, align 4
  %156 = mul i32 %147, %155
  %157 = getelementptr %array.0, %array.0* %"~0_bin_op_res", i32 0, i32 0
  %158 = load float*, float** %157, align 8
  %159 = getelementptr inbounds float, float* %158, i32 %153
  %160 = load i32, i32* %"1_v", align 4
  %161 = load i32, i32* %"2_v", align 4
  %162 = load i32, i32* %"3_v", align 4
  %163 = getelementptr %array.0, %array.0* %a, i32 0, i32 2
  %164 = load %dimension_descriptor*, %dimension_descriptor** %163, align 8
  %165 = getelementptr inbounds %dimension_descriptor, %dimension_descriptor* %164, i32 0
  %166 = getelementptr %dimension_descriptor, %dimension_descriptor* %165, i32 0, i32 1
  %167 = load i32, i32* %166, align 4
  %168 = sub i32 %160, %167
  %169 = mul i32 1, %168
  %170 = add i32 0, %169
  %171 = getelementptr %dimension_descriptor, %dimension_descriptor* %165, i32 0, i32 3
  %172 = load i32, i32* %171, align 4
  %173 = mul i32 1, %172
  %174 = getelementptr inbounds %dimension_descriptor, %dimension_descriptor* %164, i32 1
  %175 = getelementptr %dimension_descriptor, %dimension_descriptor* %174, i32 0, i32 1
  %176 = load i32, i32* %175, align 4
  %177 = sub i32 %161, %176
  %178 = mul i32 %173, %177
  %179 = add i32 %170, %178
  %180 = getelementptr %dimension_descriptor, %dimension_descriptor* %174, i32 0, i32 3
  %181 = load i32, i32* %180, align 4
  %182 = mul i32 %173, %181
  %183 = getelementptr inbounds %dimension_descriptor, %dimension_descriptor* %164, i32 2
  %184 = getelementptr %dimension_descriptor, %dimension_descriptor* %183, i32 0, i32 1
  %185 = load i32, i32* %184, align 4
  %186 = sub i32 %162, %185
  %187 = mul i32 %182, %186
  %188 = add i32 %179, %187
  %189 = getelementptr %dimension_descriptor, %dimension_descriptor* %183, i32 0, i32 3
  %190 = load i32, i32* %189, align 4
  %191 = mul i32 %182, %190
  %192 = getelementptr %array.0, %array.0* %a, i32 0, i32 0
  %193 = load float*, float** %192, align 8
  %194 = getelementptr inbounds float, float* %193, i32 %188
  %195 = load float, float* %194, align 4
  %196 = load i32, i32* %"1_v", align 4
  %197 = load i32, i32* %"2_v", align 4
  %198 = load i32, i32* %"3_v", align 4
  %199 = getelementptr %array.0, %array.0* %b, i32 0, i32 2
  %200 = load %dimension_descriptor*, %dimension_descriptor** %199, align 8
  %201 = getelementptr inbounds %dimension_descriptor, %dimension_descriptor* %200, i32 0
  %202 = getelementptr %dimension_descriptor, %dimension_descriptor* %201, i32 0, i32 1
  %203 = load i32, i32* %202, align 4
  %204 = sub i32 %196, %203
  %205 = mul i32 1, %204
  %206 = add i32 0, %205
  %207 = getelementptr %dimension_descriptor, %dimension_descriptor* %201, i32 0, i32 3
  %208 = load i32, i32* %207, align 4
  %209 = mul i32 1, %208
  %210 = getelementptr inbounds %dimension_descriptor, %dimension_descriptor* %200, i32 1
  %211 = getelementptr %dimension_descriptor, %dimension_descriptor* %210, i32 0, i32 1
  %212 = load i32, i32* %211, align 4
  %213 = sub i32 %197, %212
  %214 = mul i32 %209, %213
  %215 = add i32 %206, %214
  %216 = getelementptr %dimension_descriptor, %dimension_descriptor* %210, i32 0, i32 3
  %217 = load i32, i32* %216, align 4
  %218 = mul i32 %209, %217
  %219 = getelementptr inbounds %dimension_descriptor, %dimension_descriptor* %200, i32 2
  %220 = getelementptr %dimension_descriptor, %dimension_descriptor* %219, i32 0, i32 1
  %221 = load i32, i32* %220, align 4
  %222 = sub i32 %198, %221
  %223 = mul i32 %218, %222
  %224 = add i32 %215, %223
  %225 = getelementptr %dimension_descriptor, %dimension_descriptor* %219, i32 0, i32 3
  %226 = load i32, i32* %225, align 4
  %227 = mul i32 %218, %226
  %228 = getelementptr %array.0, %array.0* %b, i32 0, i32 0
  %229 = load float*, float** %228, align 8
  %230 = getelementptr inbounds float, float* %229, i32 %224
  %231 = load float, float* %230, align 4
  %232 = fadd float %195, %231
  store float %232, float* %159, align 4
  %233 = load i32, i32* %"3_v", align 4
  %234 = add i32 %233, 1
  store i32 %234, i32* %"3_v", align 4
  br label %loop.head3

loop.end:                                         ; preds = %loop.head3
  %235 = load i32, i32* %"2_v", align 4
  %236 = add i32 %235, 1
  store i32 %236, i32* %"2_v", align 4
  br label %loop.head1

loop.end5:                                        ; preds = %loop.head1
  %237 = load i32, i32* %"1_v", align 4
  %238 = add i32 %237, 1
  store i32 %238, i32* %"1_v", align 4
  br label %loop.head

loop.end6:                                        ; preds = %loop.head
  store i32 1, i32* %"1_v", align 4
  %239 = alloca %dimension_descriptor*, align 8
  %240 = getelementptr %array.0, %array.0* %d, i32 0, i32 2
  %241 = load %dimension_descriptor*, %dimension_descriptor** %240, align 8
  store %dimension_descriptor* %241, %dimension_descriptor** %239, align 8
  %242 = alloca i32, align 4
  store i32 1, i32* %242, align 4
  %243 = call i32 @__module_lfortran_intrinsic_builtin_lbound(%dimension_descriptor** %239, i32* %242)
  %244 = sub i32 %243, 1
  store i32 %244, i32* %"1_t", align 4
  br label %loop.head7

loop.head7:                                       ; preds = %loop.end14, %loop.end6
  %245 = load i32, i32* %"1_t", align 4
  %246 = add i32 %245, 1
  %247 = alloca %dimension_descriptor*, align 8
  %248 = getelementptr %array.0, %array.0* %d, i32 0, i32 2
  %249 = load %dimension_descriptor*, %dimension_descriptor** %248, align 8
  store %dimension_descriptor* %249, %dimension_descriptor** %247, align 8
  %250 = alloca i32, align 4
  store i32 1, i32* %250, align 4
  %251 = call i32 @__module_lfortran_intrinsic_builtin_ubound(%dimension_descriptor** %247, i32* %250)
  %252 = icmp sle i32 %246, %251
  br i1 %252, label %loop.body8, label %loop.end15

loop.body8:                                       ; preds = %loop.head7
  %253 = load i32, i32* %"1_t", align 4
  %254 = add i32 %253, 1
  store i32 %254, i32* %"1_t", align 4
  store i32 1, i32* %"2_v", align 4
  %255 = alloca %dimension_descriptor*, align 8
  %256 = getelementptr %array.0, %array.0* %d, i32 0, i32 2
  %257 = load %dimension_descriptor*, %dimension_descriptor** %256, align 8
  store %dimension_descriptor* %257, %dimension_descriptor** %255, align 8
  %258 = alloca i32, align 4
  store i32 2, i32* %258, align 4
  %259 = call i32 @__module_lfortran_intrinsic_builtin_lbound(%dimension_descriptor** %255, i32* %258)
  %260 = sub i32 %259, 1
  store i32 %260, i32* %"2_t", align 4
  br label %loop.head9

loop.head9:                                       ; preds = %loop.end13, %loop.body8
  %261 = load i32, i32* %"2_t", align 4
  %262 = add i32 %261, 1
  %263 = alloca %dimension_descriptor*, align 8
  %264 = getelementptr %array.0, %array.0* %d, i32 0, i32 2
  %265 = load %dimension_descriptor*, %dimension_descriptor** %264, align 8
  store %dimension_descriptor* %265, %dimension_descriptor** %263, align 8
  %266 = alloca i32, align 4
  store i32 2, i32* %266, align 4
  %267 = call i32 @__module_lfortran_intrinsic_builtin_ubound(%dimension_descriptor** %263, i32* %266)
  %268 = icmp sle i32 %262, %267
  br i1 %268, label %loop.body10, label %loop.end14

loop.body10:                                      ; preds = %loop.head9
  %269 = load i32, i32* %"2_t", align 4
  %270 = add i32 %269, 1
  store i32 %270, i32* %"2_t", align 4
  store i32 1, i32* %"3_v", align 4
  %271 = alloca %dimension_descriptor*, align 8
  %272 = getelementptr %array.0, %array.0* %d, i32 0, i32 2
  %273 = load %dimension_descriptor*, %dimension_descriptor** %272, align 8
  store %dimension_descriptor* %273, %dimension_descriptor** %271, align 8
  %274 = alloca i32, align 4
  store i32 3, i32* %274, align 4
  %275 = call i32 @__module_lfortran_intrinsic_builtin_lbound(%dimension_descriptor** %271, i32* %274)
  %276 = sub i32 %275, 1
  store i32 %276, i32* %"3_t", align 4
  br label %loop.head11

loop.head11:                                      ; preds = %loop.body12, %loop.body10
  %277 = load i32, i32* %"3_t", align 4
  %278 = add i32 %277, 1
  %279 = alloca %dimension_descriptor*, align 8
  %280 = getelementptr %array.0, %array.0* %d, i32 0, i32 2
  %281 = load %dimension_descriptor*, %dimension_descriptor** %280, align 8
  store %dimension_descriptor* %281, %dimension_descriptor** %279, align 8
  %282 = alloca i32, align 4
  store i32 3, i32* %282, align 4
  %283 = call i32 @__module_lfortran_intrinsic_builtin_ubound(%dimension_descriptor** %279, i32* %282)
  %284 = icmp sle i32 %278, %283
  br i1 %284, label %loop.body12, label %loop.end13

loop.body12:                                      ; preds = %loop.head11
  %285 = load i32, i32* %"3_t", align 4
  %286 = add i32 %285, 1
  store i32 %286, i32* %"3_t", align 4
  %287 = load i32, i32* %"1_t", align 4
  %288 = load i32, i32* %"2_t", align 4
  %289 = load i32, i32* %"3_t", align 4
  %290 = getelementptr %array.0, %array.0* %d, i32 0, i32 2
  %291 = load %dimension_descriptor*, %dimension_descriptor** %290, align 8
  %292 = getelementptr inbounds %dimension_descriptor, %dimension_descriptor* %291, i32 0
  %293 = getelementptr %dimension_descriptor, %dimension_descriptor* %292, i32 0, i32 1
  %294 = load i32, i32* %293, align 4
  %295 = sub i32 %287, %294
  %296 = mul i32 1, %295
  %297 = add i32 0, %296
  %298 = getelementptr %dimension_descriptor, %dimension_descriptor* %292, i32 0, i32 3
  %299 = load i32, i32* %298, align 4
  %300 = mul i32 1, %299
  %301 = getelementptr inbounds %dimension_descriptor, %dimension_descriptor* %291, i32 1
  %302 = getelementptr %dimension_descriptor, %dimension_descriptor* %301, i32 0, i32 1
  %303 = load i32, i32* %302, align 4
  %304 = sub i32 %288, %303
  %305 = mul i32 %300, %304
  %306 = add i32 %297, %305
  %307 = getelementptr %dimension_descriptor, %dimension_descriptor* %301, i32 0, i32 3
  %308 = load i32, i32* %307, align 4
  %309 = mul i32 %300, %308
  %310 = getelementptr inbounds %dimension_descriptor, %dimension_descriptor* %291, i32 2
  %311 = getelementptr %dimension_descriptor, %dimension_descriptor* %310, i32 0, i32 1
  %312 = load i32, i32* %311, align 4
  %313 = sub i32 %289, %312
  %314 = mul i32 %309, %313
  %315 = add i32 %306, %314
  %316 = getelementptr %dimension_descriptor, %dimension_descriptor* %310, i32 0, i32 3
  %317 = load i32, i32* %316, align 4
  %318 = mul i32 %309, %317
  %319 = getelementptr %array.0, %array.0* %d, i32 0, i32 0
  %320 = load float*, float** %319, align 8
  %321 = getelementptr inbounds float, float* %320, i32 %315
  %322 = load i32, i32* %"1_v", align 4
  %323 = load i32, i32* %"2_v", align 4
  %324 = load i32, i32* %"3_v", align 4
  %325 = getelementptr %array.0, %array.0* %"~0_bin_op_res", i32 0, i32 2
  %326 = load %dimension_descriptor*, %dimension_descriptor** %325, align 8
  %327 = getelementptr inbounds %dimension_descriptor, %dimension_descriptor* %326, i32 0
  %328 = getelementptr %dimension_descriptor, %dimension_descriptor* %327, i32 0, i32 1
  %329 = load i32, i32* %328, align 4
  %330 = sub i32 %322, %329
  %331 = mul i32 1, %330
  %332 = add i32 0, %331
  %333 = getelementptr %dimension_descriptor, %dimension_descriptor* %327, i32 0, i32 3
  %334 = load i32, i32* %333, align 4
  %335 = mul i32 1, %334
  %336 = getelementptr inbounds %dimension_descriptor, %dimension_descriptor* %326, i32 1
  %337 = getelementptr %dimension_descriptor, %dimension_descriptor* %336, i32 0, i32 1
  %338 = load i32, i32* %337, align 4
  %339 = sub i32 %323, %338
  %340 = mul i32 %335, %339
  %341 = add i32 %332, %340
  %342 = getelementptr %dimension_descriptor, %dimension_descriptor* %336, i32 0, i32 3
  %343 = load i32, i32* %342, align 4
  %344 = mul i32 %335, %343
  %345 = getelementptr inbounds %dimension_descriptor, %dimension_descriptor* %326, i32 2
  %346 = getelementptr %dimension_descriptor, %dimension_descriptor* %345, i32 0, i32 1
  %347 = load i32, i32* %346, align 4
  %348 = sub i32 %324, %347
  %349 = mul i32 %344, %348
  %350 = add i32 %341, %349
  %351 = getelementptr %dimension_descriptor, %dimension_descriptor* %345, i32 0, i32 3
  %352 = load i32, i32* %351, align 4
  %353 = mul i32 %344, %352
  %354 = getelementptr %array.0, %array.0* %"~0_bin_op_res", i32 0, i32 0
  %355 = load float*, float** %354, align 8
  %356 = getelementptr inbounds float, float* %355, i32 %350
  %357 = load float, float* %356, align 4
  %358 = load i32, i32* %"1_v", align 4
  %359 = load i32, i32* %"2_v", align 4
  %360 = load i32, i32* %"3_v", align 4
  %361 = getelementptr %array.0, %array.0* %c, i32 0, i32 2
  %362 = load %dimension_descriptor*, %dimension_descriptor** %361, align 8
  %363 = getelementptr inbounds %dimension_descriptor, %dimension_descriptor* %362, i32 0
  %364 = getelementptr %dimension_descriptor, %dimension_descriptor* %363, i32 0, i32 1
  %365 = load i32, i32* %364, align 4
  %366 = sub i32 %358, %365
  %367 = mul i32 1, %366
  %368 = add i32 0, %367
  %369 = getelementptr %dimension_descriptor, %dimension_descriptor* %363, i32 0, i32 3
  %370 = load i32, i32* %369, align 4
  %371 = mul i32 1, %370
  %372 = getelementptr inbounds %dimension_descriptor, %dimension_descriptor* %362, i32 1
  %373 = getelementptr %dimension_descriptor, %dimension_descriptor* %372, i32 0, i32 1
  %374 = load i32, i32* %373, align 4
  %375 = sub i32 %359, %374
  %376 = mul i32 %371, %375
  %377 = add i32 %368, %376
  %378 = getelementptr %dimension_descriptor, %dimension_descriptor* %372, i32 0, i32 3
  %379 = load i32, i32* %378, align 4
  %380 = mul i32 %371, %379
  %381 = getelementptr inbounds %dimension_descriptor, %dimension_descriptor* %362, i32 2
  %382 = getelementptr %dimension_descriptor, %dimension_descriptor* %381, i32 0, i32 1
  %383 = load i32, i32* %382, align 4
  %384 = sub i32 %360, %383
  %385 = mul i32 %380, %384
  %386 = add i32 %377, %385
  %387 = getelementptr %dimension_descriptor, %dimension_descriptor* %381, i32 0, i32 3
  %388 = load i32, i32* %387, align 4
  %389 = mul i32 %380, %388
  %390 = getelementptr %array.0, %array.0* %c, i32 0, i32 0
  %391 = load float*, float** %390, align 8
  %392 = getelementptr inbounds float, float* %391, i32 %386
  %393 = load float, float* %392, align 4
  %394 = fadd float %357, %393
  store float %394, float* %321, align 4
  %395 = load i32, i32* %"3_v", align 4
  %396 = add i32 %395, 1
  store i32 %396, i32* %"3_v", align 4
  br label %loop.head11

loop.end13:                                       ; preds = %loop.head11
  %397 = load i32, i32* %"2_v", align 4
  %398 = add i32 %397, 1
  store i32 %398, i32* %"2_v", align 4
  br label %loop.head9

loop.end14:                                       ; preds = %loop.head9
  %399 = load i32, i32* %"1_v", align 4
  %400 = add i32 %399, 1
  store i32 %400, i32* %"1_v", align 4
  br label %loop.head7

loop.end15:                                       ; preds = %loop.head7
  br label %return

return:                                           ; preds = %loop.end15
  ret void
}

define void @check(%array.0* %c) {
.entry:
  %i = alloca i32, align 4
  %j = alloca i32, align 4
  %k = alloca i32, align 4
  %0 = load %array.0, %array.0* %c, align 8
  %1 = getelementptr %array.0, %array.0* %c, i32 0, i32 2
  %2 = load %dimension_descriptor*, %dimension_descriptor** %1, align 8
  %3 = getelementptr inbounds %dimension_descriptor, %dimension_descriptor* %2, i32 0
  %4 = getelementptr %dimension_descriptor, %dimension_descriptor* %3, i32 0, i32 1
  %5 = load i32, i32* %4, align 4
  %6 = sub i32 %5, 1
  store i32 %6, i32* %i, align 4
  br label %loop.head

loop.head:                                        ; preds = %loop.end5, %.entry
  %7 = load i32, i32* %i, align 4
  %8 = add i32 %7, 1
  %9 = load %array.0, %array.0* %c, align 8
  %10 = getelementptr %array.0, %array.0* %c, i32 0, i32 2
  %11 = load %dimension_descriptor*, %dimension_descriptor** %10, align 8
  %12 = getelementptr inbounds %dimension_descriptor, %dimension_descriptor* %11, i32 0
  %13 = getelementptr %dimension_descriptor, %dimension_descriptor* %12, i32 0, i32 2
  %14 = load i32, i32* %13, align 4
  %15 = icmp sle i32 %8, %14
  br i1 %15, label %loop.body, label %loop.end6

loop.body:                                        ; preds = %loop.head
  %16 = load i32, i32* %i, align 4
  %17 = add i32 %16, 1
  store i32 %17, i32* %i, align 4
  %18 = load %array.0, %array.0* %c, align 8
  %19 = getelementptr %array.0, %array.0* %c, i32 0, i32 2
  %20 = load %dimension_descriptor*, %dimension_descriptor** %19, align 8
  %21 = getelementptr inbounds %dimension_descriptor, %dimension_descriptor* %20, i32 1
  %22 = getelementptr %dimension_descriptor, %dimension_descriptor* %21, i32 0, i32 1
  %23 = load i32, i32* %22, align 4
  %24 = sub i32 %23, 1
  store i32 %24, i32* %j, align 4
  br label %loop.head1

loop.head1:                                       ; preds = %loop.end, %loop.body
  %25 = load i32, i32* %j, align 4
  %26 = add i32 %25, 1
  %27 = load %array.0, %array.0* %c, align 8
  %28 = getelementptr %array.0, %array.0* %c, i32 0, i32 2
  %29 = load %dimension_descriptor*, %dimension_descriptor** %28, align 8
  %30 = getelementptr inbounds %dimension_descriptor, %dimension_descriptor* %29, i32 1
  %31 = getelementptr %dimension_descriptor, %dimension_descriptor* %30, i32 0, i32 2
  %32 = load i32, i32* %31, align 4
  %33 = icmp sle i32 %26, %32
  br i1 %33, label %loop.body2, label %loop.end5

loop.body2:                                       ; preds = %loop.head1
  %34 = load i32, i32* %j, align 4
  %35 = add i32 %34, 1
  store i32 %35, i32* %j, align 4
  %36 = load %array.0, %array.0* %c, align 8
  %37 = getelementptr %array.0, %array.0* %c, i32 0, i32 2
  %38 = load %dimension_descriptor*, %dimension_descriptor** %37, align 8
  %39 = getelementptr inbounds %dimension_descriptor, %dimension_descriptor* %38, i32 2
  %40 = getelementptr %dimension_descriptor, %dimension_descriptor* %39, i32 0, i32 1
  %41 = load i32, i32* %40, align 4
  %42 = sub i32 %41, 1
  store i32 %42, i32* %k, align 4
  br label %loop.head3

loop.head3:                                       ; preds = %ifcont, %loop.body2
  %43 = load i32, i32* %k, align 4
  %44 = add i32 %43, 1
  %45 = load %array.0, %array.0* %c, align 8
  %46 = getelementptr %array.0, %array.0* %c, i32 0, i32 2
  %47 = load %dimension_descriptor*, %dimension_descriptor** %46, align 8
  %48 = getelementptr inbounds %dimension_descriptor, %dimension_descriptor* %47, i32 2
  %49 = getelementptr %dimension_descriptor, %dimension_descriptor* %48, i32 0, i32 2
  %50 = load i32, i32* %49, align 4
  %51 = icmp sle i32 %44, %50
  br i1 %51, label %loop.body4, label %loop.end

loop.body4:                                       ; preds = %loop.head3
  %52 = load i32, i32* %k, align 4
  %53 = add i32 %52, 1
  store i32 %53, i32* %k, align 4
  %54 = load i32, i32* %i, align 4
  %55 = load i32, i32* %j, align 4
  %56 = load i32, i32* %k, align 4
  %57 = getelementptr %array.0, %array.0* %c, i32 0, i32 2
  %58 = load %dimension_descriptor*, %dimension_descriptor** %57, align 8
  %59 = getelementptr inbounds %dimension_descriptor, %dimension_descriptor* %58, i32 0
  %60 = getelementptr %dimension_descriptor, %dimension_descriptor* %59, i32 0, i32 1
  %61 = load i32, i32* %60, align 4
  %62 = sub i32 %54, %61
  %63 = mul i32 1, %62
  %64 = add i32 0, %63
  %65 = getelementptr %dimension_descriptor, %dimension_descriptor* %59, i32 0, i32 3
  %66 = load i32, i32* %65, align 4
  %67 = mul i32 1, %66
  %68 = getelementptr inbounds %dimension_descriptor, %dimension_descriptor* %58, i32 1
  %69 = getelementptr %dimension_descriptor, %dimension_descriptor* %68, i32 0, i32 1
  %70 = load i32, i32* %69, align 4
  %71 = sub i32 %55, %70
  %72 = mul i32 %67, %71
  %73 = add i32 %64, %72
  %74 = getelementptr %dimension_descriptor, %dimension_descriptor* %68, i32 0, i32 3
  %75 = load i32, i32* %74, align 4
  %76 = mul i32 %67, %75
  %77 = getelementptr inbounds %dimension_descriptor, %dimension_descriptor* %58, i32 2
  %78 = getelementptr %dimension_descriptor, %dimension_descriptor* %77, i32 0, i32 1
  %79 = load i32, i32* %78, align 4
  %80 = sub i32 %56, %79
  %81 = mul i32 %76, %80
  %82 = add i32 %73, %81
  %83 = getelementptr %dimension_descriptor, %dimension_descriptor* %77, i32 0, i32 3
  %84 = load i32, i32* %83, align 4
  %85 = mul i32 %76, %84
  %86 = getelementptr %array.0, %array.0* %c, i32 0, i32 0
  %87 = load float*, float** %86, align 8
  %88 = getelementptr inbounds float, float* %87, i32 %82
  %89 = load float, float* %88, align 4
  %90 = load i32, i32* %i, align 4
  %91 = load i32, i32* %j, align 4
  %92 = add i32 %90, %91
  %93 = load i32, i32* %k, align 4
  %94 = add i32 %92, %93
  %95 = sitofp i32 %94 to float
  %96 = call float @llvm.pow.f32(float %95, float 2.000000e+00)
  %97 = fptosi float %96 to i32
  %98 = sitofp i32 %97 to float
  %99 = fcmp une float %89, %98
  br i1 %99, label %then, label %else

then:                                             ; preds = %loop.body4
  call void (i8*, ...) @_lfortran_printf(i8* getelementptr inbounds ([12 x i8], [12 x i8]* @0, i32 0, i32 0))
  call void @exit(i32 1)
  br label %ifcont

else:                                             ; preds = %loop.body4
  br label %ifcont

ifcont:                                           ; preds = %else, %then
  br label %loop.head3

loop.end:                                         ; preds = %loop.head3
  br label %loop.head1

loop.end5:                                        ; preds = %loop.head1
  br label %loop.head

loop.end6:                                        ; preds = %loop.head
  br label %return

return:                                           ; preds = %loop.end6
  ret void
}

; Function Attrs: nounwind readnone speculatable willreturn
declare float @llvm.pow.f32(float, float) #0

declare void @_lfortran_printf(i8*, ...)

declare void @exit(i32)

define i32 @main() {
.entry:
  %a = alloca %array.0, align 8
  %0 = getelementptr %array.0, %array.0* %a, i32 0, i32 1
  store i32 0, i32* %0, align 4
  %1 = getelementptr %array.0, %array.0* %a, i32 0, i32 2
  %2 = alloca i32, align 4
  store i32 3, i32* %2, align 4
  %3 = load i32, i32* %2, align 4
  %4 = alloca %dimension_descriptor, i32 %3, align 8
  %5 = getelementptr %array.0, %array.0* %a, i32 0, i32 4
  store i32 3, i32* %5, align 4
  store %dimension_descriptor* %4, %dimension_descriptor** %1, align 8
  %6 = load %dimension_descriptor*, %dimension_descriptor** %1, align 8
  %7 = getelementptr inbounds %dimension_descriptor, %dimension_descriptor* %6, i32 0
  %8 = getelementptr %dimension_descriptor, %dimension_descriptor* %7, i32 0, i32 0
  %9 = getelementptr %dimension_descriptor, %dimension_descriptor* %7, i32 0, i32 1
  %10 = getelementptr %dimension_descriptor, %dimension_descriptor* %7, i32 0, i32 2
  %11 = getelementptr %dimension_descriptor, %dimension_descriptor* %7, i32 0, i32 3
  store i32 1, i32* %8, align 4
  store i32 1, i32* %9, align 4
  store i32 2, i32* %10, align 4
  %12 = load i32, i32* %10, align 4
  %13 = load i32, i32* %9, align 4
  %14 = sub i32 %12, %13
  %15 = add i32 %14, 1
  store i32 %15, i32* %11, align 4
  %16 = getelementptr inbounds %dimension_descriptor, %dimension_descriptor* %6, i32 1
  %17 = getelementptr %dimension_descriptor, %dimension_descriptor* %16, i32 0, i32 0
  %18 = getelementptr %dimension_descriptor, %dimension_descriptor* %16, i32 0, i32 1
  %19 = getelementptr %dimension_descriptor, %dimension_descriptor* %16, i32 0, i32 2
  %20 = getelementptr %dimension_descriptor, %dimension_descriptor* %16, i32 0, i32 3
  store i32 1, i32* %17, align 4
  store i32 1, i32* %18, align 4
  store i32 2, i32* %19, align 4
  %21 = load i32, i32* %19, align 4
  %22 = load i32, i32* %18, align 4
  %23 = sub i32 %21, %22
  %24 = add i32 %23, 1
  store i32 %24, i32* %20, align 4
  %25 = getelementptr inbounds %dimension_descriptor, %dimension_descriptor* %6, i32 2
  %26 = getelementptr %dimension_descriptor, %dimension_descriptor* %25, i32 0, i32 0
  %27 = getelementptr %dimension_descriptor, %dimension_descriptor* %25, i32 0, i32 1
  %28 = getelementptr %dimension_descriptor, %dimension_descriptor* %25, i32 0, i32 2
  %29 = getelementptr %dimension_descriptor, %dimension_descriptor* %25, i32 0, i32 3
  store i32 1, i32* %26, align 4
  store i32 1, i32* %27, align 4
  store i32 2, i32* %28, align 4
  %30 = load i32, i32* %28, align 4
  %31 = load i32, i32* %27, align 4
  %32 = sub i32 %30, %31
  %33 = add i32 %32, 1
  store i32 %33, i32* %29, align 4
  %34 = alloca i32, align 4
  store i32 8, i32* %34, align 4
  %35 = getelementptr %array.0, %array.0* %a, i32 0, i32 0
  %36 = load i32, i32* %34, align 4
  %37 = alloca float, i32 %36, align 4
  store float* %37, float** %35, align 8
  %b = alloca %array.0, align 8
  %38 = getelementptr %array.0, %array.0* %b, i32 0, i32 1
  store i32 0, i32* %38, align 4
  %39 = getelementptr %array.0, %array.0* %b, i32 0, i32 2
  %40 = alloca i32, align 4
  store i32 3, i32* %40, align 4
  %41 = load i32, i32* %40, align 4
  %42 = alloca %dimension_descriptor, i32 %41, align 8
  %43 = getelementptr %array.0, %array.0* %b, i32 0, i32 4
  store i32 3, i32* %43, align 4
  store %dimension_descriptor* %42, %dimension_descriptor** %39, align 8
  %44 = load %dimension_descriptor*, %dimension_descriptor** %39, align 8
  %45 = getelementptr inbounds %dimension_descriptor, %dimension_descriptor* %44, i32 0
  %46 = getelementptr %dimension_descriptor, %dimension_descriptor* %45, i32 0, i32 0
  %47 = getelementptr %dimension_descriptor, %dimension_descriptor* %45, i32 0, i32 1
  %48 = getelementptr %dimension_descriptor, %dimension_descriptor* %45, i32 0, i32 2
  %49 = getelementptr %dimension_descriptor, %dimension_descriptor* %45, i32 0, i32 3
  store i32 1, i32* %46, align 4
  store i32 1, i32* %47, align 4
  store i32 2, i32* %48, align 4
  %50 = load i32, i32* %48, align 4
  %51 = load i32, i32* %47, align 4
  %52 = sub i32 %50, %51
  %53 = add i32 %52, 1
  store i32 %53, i32* %49, align 4
  %54 = getelementptr inbounds %dimension_descriptor, %dimension_descriptor* %44, i32 1
  %55 = getelementptr %dimension_descriptor, %dimension_descriptor* %54, i32 0, i32 0
  %56 = getelementptr %dimension_descriptor, %dimension_descriptor* %54, i32 0, i32 1
  %57 = getelementptr %dimension_descriptor, %dimension_descriptor* %54, i32 0, i32 2
  %58 = getelementptr %dimension_descriptor, %dimension_descriptor* %54, i32 0, i32 3
  store i32 1, i32* %55, align 4
  store i32 1, i32* %56, align 4
  store i32 2, i32* %57, align 4
  %59 = load i32, i32* %57, align 4
  %60 = load i32, i32* %56, align 4
  %61 = sub i32 %59, %60
  %62 = add i32 %61, 1
  store i32 %62, i32* %58, align 4
  %63 = getelementptr inbounds %dimension_descriptor, %dimension_descriptor* %44, i32 2
  %64 = getelementptr %dimension_descriptor, %dimension_descriptor* %63, i32 0, i32 0
  %65 = getelementptr %dimension_descriptor, %dimension_descriptor* %63, i32 0, i32 1
  %66 = getelementptr %dimension_descriptor, %dimension_descriptor* %63, i32 0, i32 2
  %67 = getelementptr %dimension_descriptor, %dimension_descriptor* %63, i32 0, i32 3
  store i32 1, i32* %64, align 4
  store i32 1, i32* %65, align 4
  store i32 2, i32* %66, align 4
  %68 = load i32, i32* %66, align 4
  %69 = load i32, i32* %65, align 4
  %70 = sub i32 %68, %69
  %71 = add i32 %70, 1
  store i32 %71, i32* %67, align 4
  %72 = alloca i32, align 4
  store i32 8, i32* %72, align 4
  %73 = getelementptr %array.0, %array.0* %b, i32 0, i32 0
  %74 = load i32, i32* %72, align 4
  %75 = alloca float, i32 %74, align 4
  store float* %75, float** %73, align 8
  %c = alloca %array.0, align 8
  %76 = getelementptr %array.0, %array.0* %c, i32 0, i32 1
  store i32 0, i32* %76, align 4
  %77 = getelementptr %array.0, %array.0* %c, i32 0, i32 2
  %78 = alloca i32, align 4
  store i32 3, i32* %78, align 4
  %79 = load i32, i32* %78, align 4
  %80 = alloca %dimension_descriptor, i32 %79, align 8
  %81 = getelementptr %array.0, %array.0* %c, i32 0, i32 4
  store i32 3, i32* %81, align 4
  store %dimension_descriptor* %80, %dimension_descriptor** %77, align 8
  %82 = load %dimension_descriptor*, %dimension_descriptor** %77, align 8
  %83 = getelementptr inbounds %dimension_descriptor, %dimension_descriptor* %82, i32 0
  %84 = getelementptr %dimension_descriptor, %dimension_descriptor* %83, i32 0, i32 0
  %85 = getelementptr %dimension_descriptor, %dimension_descriptor* %83, i32 0, i32 1
  %86 = getelementptr %dimension_descriptor, %dimension_descriptor* %83, i32 0, i32 2
  %87 = getelementptr %dimension_descriptor, %dimension_descriptor* %83, i32 0, i32 3
  store i32 1, i32* %84, align 4
  store i32 1, i32* %85, align 4
  store i32 2, i32* %86, align 4
  %88 = load i32, i32* %86, align 4
  %89 = load i32, i32* %85, align 4
  %90 = sub i32 %88, %89
  %91 = add i32 %90, 1
  store i32 %91, i32* %87, align 4
  %92 = getelementptr inbounds %dimension_descriptor, %dimension_descriptor* %82, i32 1
  %93 = getelementptr %dimension_descriptor, %dimension_descriptor* %92, i32 0, i32 0
  %94 = getelementptr %dimension_descriptor, %dimension_descriptor* %92, i32 0, i32 1
  %95 = getelementptr %dimension_descriptor, %dimension_descriptor* %92, i32 0, i32 2
  %96 = getelementptr %dimension_descriptor, %dimension_descriptor* %92, i32 0, i32 3
  store i32 1, i32* %93, align 4
  store i32 1, i32* %94, align 4
  store i32 2, i32* %95, align 4
  %97 = load i32, i32* %95, align 4
  %98 = load i32, i32* %94, align 4
  %99 = sub i32 %97, %98
  %100 = add i32 %99, 1
  store i32 %100, i32* %96, align 4
  %101 = getelementptr inbounds %dimension_descriptor, %dimension_descriptor* %82, i32 2
  %102 = getelementptr %dimension_descriptor, %dimension_descriptor* %101, i32 0, i32 0
  %103 = getelementptr %dimension_descriptor, %dimension_descriptor* %101, i32 0, i32 1
  %104 = getelementptr %dimension_descriptor, %dimension_descriptor* %101, i32 0, i32 2
  %105 = getelementptr %dimension_descriptor, %dimension_descriptor* %101, i32 0, i32 3
  store i32 1, i32* %102, align 4
  store i32 1, i32* %103, align 4
  store i32 2, i32* %104, align 4
  %106 = load i32, i32* %104, align 4
  %107 = load i32, i32* %103, align 4
  %108 = sub i32 %106, %107
  %109 = add i32 %108, 1
  store i32 %109, i32* %105, align 4
  %110 = alloca i32, align 4
  store i32 8, i32* %110, align 4
  %111 = getelementptr %array.0, %array.0* %c, i32 0, i32 0
  %112 = load i32, i32* %110, align 4
  %113 = alloca float, i32 %112, align 4
  store float* %113, float** %111, align 8
  %d = alloca %array.0, align 8
  %114 = getelementptr %array.0, %array.0* %d, i32 0, i32 1
  store i32 0, i32* %114, align 4
  %115 = getelementptr %array.0, %array.0* %d, i32 0, i32 2
  %116 = alloca i32, align 4
  store i32 3, i32* %116, align 4
  %117 = load i32, i32* %116, align 4
  %118 = alloca %dimension_descriptor, i32 %117, align 8
  %119 = getelementptr %array.0, %array.0* %d, i32 0, i32 4
  store i32 3, i32* %119, align 4
  store %dimension_descriptor* %118, %dimension_descriptor** %115, align 8
  %120 = load %dimension_descriptor*, %dimension_descriptor** %115, align 8
  %121 = getelementptr inbounds %dimension_descriptor, %dimension_descriptor* %120, i32 0
  %122 = getelementptr %dimension_descriptor, %dimension_descriptor* %121, i32 0, i32 0
  %123 = getelementptr %dimension_descriptor, %dimension_descriptor* %121, i32 0, i32 1
  %124 = getelementptr %dimension_descriptor, %dimension_descriptor* %121, i32 0, i32 2
  %125 = getelementptr %dimension_descriptor, %dimension_descriptor* %121, i32 0, i32 3
  store i32 1, i32* %122, align 4
  store i32 1, i32* %123, align 4
  store i32 2, i32* %124, align 4
  %126 = load i32, i32* %124, align 4
  %127 = load i32, i32* %123, align 4
  %128 = sub i32 %126, %127
  %129 = add i32 %128, 1
  store i32 %129, i32* %125, align 4
  %130 = getelementptr inbounds %dimension_descriptor, %dimension_descriptor* %120, i32 1
  %131 = getelementptr %dimension_descriptor, %dimension_descriptor* %130, i32 0, i32 0
  %132 = getelementptr %dimension_descriptor, %dimension_descriptor* %130, i32 0, i32 1
  %133 = getelementptr %dimension_descriptor, %dimension_descriptor* %130, i32 0, i32 2
  %134 = getelementptr %dimension_descriptor, %dimension_descriptor* %130, i32 0, i32 3
  store i32 1, i32* %131, align 4
  store i32 1, i32* %132, align 4
  store i32 2, i32* %133, align 4
  %135 = load i32, i32* %133, align 4
  %136 = load i32, i32* %132, align 4
  %137 = sub i32 %135, %136
  %138 = add i32 %137, 1
  store i32 %138, i32* %134, align 4
  %139 = getelementptr inbounds %dimension_descriptor, %dimension_descriptor* %120, i32 2
  %140 = getelementptr %dimension_descriptor, %dimension_descriptor* %139, i32 0, i32 0
  %141 = getelementptr %dimension_descriptor, %dimension_descriptor* %139, i32 0, i32 1
  %142 = getelementptr %dimension_descriptor, %dimension_descriptor* %139, i32 0, i32 2
  %143 = getelementptr %dimension_descriptor, %dimension_descriptor* %139, i32 0, i32 3
  store i32 1, i32* %140, align 4
  store i32 1, i32* %141, align 4
  store i32 2, i32* %142, align 4
  %144 = load i32, i32* %142, align 4
  %145 = load i32, i32* %141, align 4
  %146 = sub i32 %144, %145
  %147 = add i32 %146, 1
  store i32 %147, i32* %143, align 4
  %148 = alloca i32, align 4
  store i32 8, i32* %148, align 4
  %149 = getelementptr %array.0, %array.0* %d, i32 0, i32 0
  %150 = load i32, i32* %148, align 4
  %151 = alloca float, i32 %150, align 4
  store float* %151, float** %149, align 8
  %i = alloca i32, align 4
  %j = alloca i32, align 4
  %k = alloca i32, align 4
  store i32 0, i32* %i, align 4
  br label %loop.head

loop.head:                                        ; preds = %loop.end5, %.entry
  %152 = load i32, i32* %i, align 4
  %153 = add i32 %152, 1
  %154 = icmp sle i32 %153, 2
  br i1 %154, label %loop.body, label %loop.end6

loop.body:                                        ; preds = %loop.head
  %155 = load i32, i32* %i, align 4
  %156 = add i32 %155, 1
  store i32 %156, i32* %i, align 4
  store i32 0, i32* %j, align 4
  br label %loop.head1

loop.head1:                                       ; preds = %loop.end, %loop.body
  %157 = load i32, i32* %j, align 4
  %158 = add i32 %157, 1
  %159 = icmp sle i32 %158, 2
  br i1 %159, label %loop.body2, label %loop.end5

loop.body2:                                       ; preds = %loop.head1
  %160 = load i32, i32* %j, align 4
  %161 = add i32 %160, 1
  store i32 %161, i32* %j, align 4
  store i32 0, i32* %k, align 4
  br label %loop.head3

loop.head3:                                       ; preds = %loop.body4, %loop.body2
  %162 = load i32, i32* %k, align 4
  %163 = add i32 %162, 1
  %164 = icmp sle i32 %163, 2
  br i1 %164, label %loop.body4, label %loop.end

loop.body4:                                       ; preds = %loop.head3
  %165 = load i32, i32* %k, align 4
  %166 = add i32 %165, 1
  store i32 %166, i32* %k, align 4
  %167 = load i32, i32* %i, align 4
  %168 = load i32, i32* %j, align 4
  %169 = load i32, i32* %k, align 4
  %170 = getelementptr %array.0, %array.0* %a, i32 0, i32 2
  %171 = load %dimension_descriptor*, %dimension_descriptor** %170, align 8
  %172 = getelementptr inbounds %dimension_descriptor, %dimension_descriptor* %171, i32 0
  %173 = getelementptr %dimension_descriptor, %dimension_descriptor* %172, i32 0, i32 1
  %174 = load i32, i32* %173, align 4
  %175 = sub i32 %167, %174
  %176 = mul i32 1, %175
  %177 = add i32 0, %176
  %178 = getelementptr %dimension_descriptor, %dimension_descriptor* %172, i32 0, i32 3
  %179 = load i32, i32* %178, align 4
  %180 = mul i32 1, %179
  %181 = getelementptr inbounds %dimension_descriptor, %dimension_descriptor* %171, i32 1
  %182 = getelementptr %dimension_descriptor, %dimension_descriptor* %181, i32 0, i32 1
  %183 = load i32, i32* %182, align 4
  %184 = sub i32 %168, %183
  %185 = mul i32 %180, %184
  %186 = add i32 %177, %185
  %187 = getelementptr %dimension_descriptor, %dimension_descriptor* %181, i32 0, i32 3
  %188 = load i32, i32* %187, align 4
  %189 = mul i32 %180, %188
  %190 = getelementptr inbounds %dimension_descriptor, %dimension_descriptor* %171, i32 2
  %191 = getelementptr %dimension_descriptor, %dimension_descriptor* %190, i32 0, i32 1
  %192 = load i32, i32* %191, align 4
  %193 = sub i32 %169, %192
  %194 = mul i32 %189, %193
  %195 = add i32 %186, %194
  %196 = getelementptr %dimension_descriptor, %dimension_descriptor* %190, i32 0, i32 3
  %197 = load i32, i32* %196, align 4
  %198 = mul i32 %189, %197
  %199 = getelementptr %array.0, %array.0* %a, i32 0, i32 0
  %200 = load float*, float** %199, align 8
  %201 = getelementptr inbounds float, float* %200, i32 %195
  %202 = load i32, i32* %i, align 4
  %203 = load i32, i32* %i, align 4
  %204 = mul i32 %202, %203
  %205 = load i32, i32* %j, align 4
  %206 = load i32, i32* %j, align 4
  %207 = mul i32 %205, %206
  %208 = add i32 %204, %207
  %209 = load i32, i32* %k, align 4
  %210 = load i32, i32* %k, align 4
  %211 = mul i32 %209, %210
  %212 = add i32 %208, %211
  %213 = sitofp i32 %212 to float
  store float %213, float* %201, align 4
  %214 = load i32, i32* %i, align 4
  %215 = load i32, i32* %j, align 4
  %216 = load i32, i32* %k, align 4
  %217 = getelementptr %array.0, %array.0* %b, i32 0, i32 2
  %218 = load %dimension_descriptor*, %dimension_descriptor** %217, align 8
  %219 = getelementptr inbounds %dimension_descriptor, %dimension_descriptor* %218, i32 0
  %220 = getelementptr %dimension_descriptor, %dimension_descriptor* %219, i32 0, i32 1
  %221 = load i32, i32* %220, align 4
  %222 = sub i32 %214, %221
  %223 = mul i32 1, %222
  %224 = add i32 0, %223
  %225 = getelementptr %dimension_descriptor, %dimension_descriptor* %219, i32 0, i32 3
  %226 = load i32, i32* %225, align 4
  %227 = mul i32 1, %226
  %228 = getelementptr inbounds %dimension_descriptor, %dimension_descriptor* %218, i32 1
  %229 = getelementptr %dimension_descriptor, %dimension_descriptor* %228, i32 0, i32 1
  %230 = load i32, i32* %229, align 4
  %231 = sub i32 %215, %230
  %232 = mul i32 %227, %231
  %233 = add i32 %224, %232
  %234 = getelementptr %dimension_descriptor, %dimension_descriptor* %228, i32 0, i32 3
  %235 = load i32, i32* %234, align 4
  %236 = mul i32 %227, %235
  %237 = getelementptr inbounds %dimension_descriptor, %dimension_descriptor* %218, i32 2
  %238 = getelementptr %dimension_descriptor, %dimension_descriptor* %237, i32 0, i32 1
  %239 = load i32, i32* %238, align 4
  %240 = sub i32 %216, %239
  %241 = mul i32 %236, %240
  %242 = add i32 %233, %241
  %243 = getelementptr %dimension_descriptor, %dimension_descriptor* %237, i32 0, i32 3
  %244 = load i32, i32* %243, align 4
  %245 = mul i32 %236, %244
  %246 = getelementptr %array.0, %array.0* %b, i32 0, i32 0
  %247 = load float*, float** %246, align 8
  %248 = getelementptr inbounds float, float* %247, i32 %242
  %249 = load i32, i32* %i, align 4
  %250 = load i32, i32* %j, align 4
  %251 = mul i32 %249, %250
  %252 = load i32, i32* %j, align 4
  %253 = load i32, i32* %k, align 4
  %254 = mul i32 %252, %253
  %255 = add i32 %251, %254
  %256 = load i32, i32* %i, align 4
  %257 = load i32, i32* %k, align 4
  %258 = mul i32 %256, %257
  %259 = add i32 %255, %258
  %260 = mul i32 2, %259
  %261 = sitofp i32 %260 to float
  store float %261, float* %248, align 4
  %262 = load i32, i32* %i, align 4
  %263 = load i32, i32* %j, align 4
  %264 = load i32, i32* %k, align 4
  %265 = getelementptr %array.0, %array.0* %c, i32 0, i32 2
  %266 = load %dimension_descriptor*, %dimension_descriptor** %265, align 8
  %267 = getelementptr inbounds %dimension_descriptor, %dimension_descriptor* %266, i32 0
  %268 = getelementptr %dimension_descriptor, %dimension_descriptor* %267, i32 0, i32 1
  %269 = load i32, i32* %268, align 4
  %270 = sub i32 %262, %269
  %271 = mul i32 1, %270
  %272 = add i32 0, %271
  %273 = getelementptr %dimension_descriptor, %dimension_descriptor* %267, i32 0, i32 3
  %274 = load i32, i32* %273, align 4
  %275 = mul i32 1, %274
  %276 = getelementptr inbounds %dimension_descriptor, %dimension_descriptor* %266, i32 1
  %277 = getelementptr %dimension_descriptor, %dimension_descriptor* %276, i32 0, i32 1
  %278 = load i32, i32* %277, align 4
  %279 = sub i32 %263, %278
  %280 = mul i32 %275, %279
  %281 = add i32 %272, %280
  %282 = getelementptr %dimension_descriptor, %dimension_descriptor* %276, i32 0, i32 3
  %283 = load i32, i32* %282, align 4
  %284 = mul i32 %275, %283
  %285 = getelementptr inbounds %dimension_descriptor, %dimension_descriptor* %266, i32 2
  %286 = getelementptr %dimension_descriptor, %dimension_descriptor* %285, i32 0, i32 1
  %287 = load i32, i32* %286, align 4
  %288 = sub i32 %264, %287
  %289 = mul i32 %284, %288
  %290 = add i32 %281, %289
  %291 = getelementptr %dimension_descriptor, %dimension_descriptor* %285, i32 0, i32 3
  %292 = load i32, i32* %291, align 4
  %293 = mul i32 %284, %292
  %294 = getelementptr %array.0, %array.0* %c, i32 0, i32 0
  %295 = load float*, float** %294, align 8
  %296 = getelementptr inbounds float, float* %295, i32 %290
  store float 0.000000e+00, float* %296, align 4
  br label %loop.head3

loop.end:                                         ; preds = %loop.head3
  br label %loop.head1

loop.end5:                                        ; preds = %loop.head1
  br label %loop.head

loop.end6:                                        ; preds = %loop.head
  %297 = alloca %array.0, align 8
  %298 = alloca %array.0, align 8
  %299 = alloca %array.0, align 8
  %300 = alloca %array.0, align 8
  call void @asquare(%array.0* %a, %array.0* %b, %array.0* %c, %array.0* %d)
  %301 = alloca %array.0, align 8
  call void @check(%array.0* %d)
  ret i32 0
}

attributes #0 = { nounwind readnone speculatable willreturn }
