{
    "basename": "llvm-complex2-092502c",
    "cmd": "lfortran --no-color --show-llvm {infile} -o {outfile}",
    "infile": "tests/complex2.f90",
    "infile_hash": "420a31c745b1be940871a88d76cfdc7432de5cbf6fe9f2e8bc87bf39",
    "outfile": null,
    "outfile_hash": null,
    "stdout": "llvm-complex2-092502c.stdout",
    "stdout_hash": "562c242fd3e4fa06fedad6eb07dbb32b09004291fa6f7ff5e491d6b7",
    "stderr": null,
    "stderr_hash": null,
    "returncode": 0
}