; ModuleID = 'LFortran'
source_filename = "LFortran"

%array = type { i32*, i32, %dimension_descriptor*, i1, i32 }
%dimension_descriptor = type { i32, i32, i32, i32 }

@0 = private unnamed_addr constant [4 x i8] c"%d\0A\00", align 1
@1 = private unnamed_addr constant [4 x i8] c"%d\0A\00", align 1
@2 = private unnamed_addr constant [4 x i8] c"%d\0A\00", align 1
@3 = private unnamed_addr constant [4 x i8] c"%d\0A\00", align 1
@4 = private unnamed_addr constant [12 x i8] c"ERROR STOP\0A\00", align 1
@5 = private unnamed_addr constant [4 x i8] c"%d\0A\00", align 1

define void @f(%array* %c) {
.entry:
  %0 = getelementptr %array, %array* %c, i32 0, i32 1
  store i32 0, i32* %0, align 4
  %1 = getelementptr %array, %array* %c, i32 0, i32 3
  store i1 true, i1* %1, align 1
  %2 = getelementptr %array, %array* %c, i32 0, i32 2
  %3 = load %dimension_descriptor*, %dimension_descriptor** %2, align 8
  %4 = getelementptr inbounds %dimension_descriptor, %dimension_descriptor* %3, i32 0
  %5 = getelementptr %dimension_descriptor, %dimension_descriptor* %4, i32 0, i32 0
  %6 = getelementptr %dimension_descriptor, %dimension_descriptor* %4, i32 0, i32 1
  %7 = getelementptr %dimension_descriptor, %dimension_descriptor* %4, i32 0, i32 2
  %8 = getelementptr %dimension_descriptor, %dimension_descriptor* %4, i32 0, i32 3
  store i32 1, i32* %5, align 4
  store i32 1, i32* %6, align 4
  store i32 3, i32* %7, align 4
  %9 = load i32, i32* %7, align 4
  %10 = load i32, i32* %6, align 4
  %11 = sub i32 %9, %10
  %12 = add i32 %11, 1
  %13 = mul i32 1, %12
  store i32 %12, i32* %8, align 4
  %14 = getelementptr inbounds %dimension_descriptor, %dimension_descriptor* %3, i32 1
  %15 = getelementptr %dimension_descriptor, %dimension_descriptor* %14, i32 0, i32 0
  %16 = getelementptr %dimension_descriptor, %dimension_descriptor* %14, i32 0, i32 1
  %17 = getelementptr %dimension_descriptor, %dimension_descriptor* %14, i32 0, i32 2
  %18 = getelementptr %dimension_descriptor, %dimension_descriptor* %14, i32 0, i32 3
  store i32 1, i32* %15, align 4
  store i32 1, i32* %16, align 4
  store i32 3, i32* %17, align 4
  %19 = load i32, i32* %17, align 4
  %20 = load i32, i32* %16, align 4
  %21 = sub i32 %19, %20
  %22 = add i32 %21, 1
  %23 = mul i32 %13, %22
  store i32 %22, i32* %18, align 4
  %24 = getelementptr inbounds %dimension_descriptor, %dimension_descriptor* %3, i32 2
  %25 = getelementptr %dimension_descriptor, %dimension_descriptor* %24, i32 0, i32 0
  %26 = getelementptr %dimension_descriptor, %dimension_descriptor* %24, i32 0, i32 1
  %27 = getelementptr %dimension_descriptor, %dimension_descriptor* %24, i32 0, i32 2
  %28 = getelementptr %dimension_descriptor, %dimension_descriptor* %24, i32 0, i32 3
  store i32 1, i32* %25, align 4
  store i32 1, i32* %26, align 4
  store i32 3, i32* %27, align 4
  %29 = load i32, i32* %27, align 4
  %30 = load i32, i32* %26, align 4
  %31 = sub i32 %29, %30
  %32 = add i32 %31, 1
  %33 = mul i32 %23, %32
  store i32 %32, i32* %28, align 4
  %34 = getelementptr %array, %array* %c, i32 0, i32 0
  %35 = alloca i32, align 4
  %36 = mul i32 %33, 4
  store i32 %36, i32* %35, align 4
  %37 = load i32, i32* %35, align 4
  %38 = call i8* (i32, ...) @_lfortran_malloc(i32 %37)
  %39 = bitcast i8* %38 to i32*
  store i32* %39, i32** %34, align 8
  %40 = getelementptr %array, %array* %c, i32 0, i32 2
  %41 = load %dimension_descriptor*, %dimension_descriptor** %40, align 8
  %42 = getelementptr inbounds %dimension_descriptor, %dimension_descriptor* %41, i32 0
  %43 = getelementptr %dimension_descriptor, %dimension_descriptor* %42, i32 0, i32 1
  %44 = load i32, i32* %43, align 4
  %45 = sub i32 1, %44
  %46 = mul i32 1, %45
  %47 = add i32 0, %46
  %48 = getelementptr %dimension_descriptor, %dimension_descriptor* %42, i32 0, i32 3
  %49 = load i32, i32* %48, align 4
  %50 = mul i32 1, %49
  %51 = getelementptr inbounds %dimension_descriptor, %dimension_descriptor* %41, i32 1
  %52 = getelementptr %dimension_descriptor, %dimension_descriptor* %51, i32 0, i32 1
  %53 = load i32, i32* %52, align 4
  %54 = sub i32 1, %53
  %55 = mul i32 %50, %54
  %56 = add i32 %47, %55
  %57 = getelementptr %dimension_descriptor, %dimension_descriptor* %51, i32 0, i32 3
  %58 = load i32, i32* %57, align 4
  %59 = mul i32 %50, %58
  %60 = getelementptr inbounds %dimension_descriptor, %dimension_descriptor* %41, i32 2
  %61 = getelementptr %dimension_descriptor, %dimension_descriptor* %60, i32 0, i32 1
  %62 = load i32, i32* %61, align 4
  %63 = sub i32 1, %62
  %64 = mul i32 %59, %63
  %65 = add i32 %56, %64
  %66 = getelementptr %dimension_descriptor, %dimension_descriptor* %60, i32 0, i32 3
  %67 = load i32, i32* %66, align 4
  %68 = mul i32 %59, %67
  %69 = getelementptr %array, %array* %c, i32 0, i32 0
  %70 = load i32*, i32** %69, align 8
  %71 = getelementptr inbounds i32, i32* %70, i32 %65
  store i32 99, i32* %71, align 4
  br label %return

return:                                           ; preds = %.entry
  ret void
}

define i32 @g(%array* %x) {
.entry:
  %r = alloca i32, align 4
  %0 = getelementptr %array, %array* %x, i32 0, i32 2
  %1 = load %dimension_descriptor*, %dimension_descriptor** %0, align 8
  %2 = getelementptr inbounds %dimension_descriptor, %dimension_descriptor* %1, i32 0
  %3 = getelementptr %dimension_descriptor, %dimension_descriptor* %2, i32 0, i32 1
  %4 = load i32, i32* %3, align 4
  %5 = sub i32 1, %4
  %6 = mul i32 1, %5
  %7 = add i32 0, %6
  %8 = getelementptr %dimension_descriptor, %dimension_descriptor* %2, i32 0, i32 3
  %9 = load i32, i32* %8, align 4
  %10 = mul i32 1, %9
  %11 = getelementptr inbounds %dimension_descriptor, %dimension_descriptor* %1, i32 1
  %12 = getelementptr %dimension_descriptor, %dimension_descriptor* %11, i32 0, i32 1
  %13 = load i32, i32* %12, align 4
  %14 = sub i32 1, %13
  %15 = mul i32 %10, %14
  %16 = add i32 %7, %15
  %17 = getelementptr %dimension_descriptor, %dimension_descriptor* %11, i32 0, i32 3
  %18 = load i32, i32* %17, align 4
  %19 = mul i32 %10, %18
  %20 = getelementptr inbounds %dimension_descriptor, %dimension_descriptor* %1, i32 2
  %21 = getelementptr %dimension_descriptor, %dimension_descriptor* %20, i32 0, i32 1
  %22 = load i32, i32* %21, align 4
  %23 = sub i32 1, %22
  %24 = mul i32 %19, %23
  %25 = add i32 %16, %24
  %26 = getelementptr %dimension_descriptor, %dimension_descriptor* %20, i32 0, i32 3
  %27 = load i32, i32* %26, align 4
  %28 = mul i32 %19, %27
  %29 = getelementptr %array, %array* %x, i32 0, i32 0
  %30 = load i32*, i32** %29, align 8
  %31 = getelementptr inbounds i32, i32* %30, i32 %25
  %32 = load i32, i32* %31, align 4
  call void (i8*, ...) @_lfortran_printf(i8* getelementptr inbounds ([4 x i8], [4 x i8]* @0, i32 0, i32 0), i32 %32)
  %33 = load %array, %array* %x, align 8
  %34 = getelementptr %array, %array* %x, i32 0, i32 3
  %35 = load i1, i1* %34, align 1
  br i1 %35, label %then, label %else

then:                                             ; preds = %.entry
  %36 = getelementptr %array, %array* %x, i32 0, i32 0
  %37 = load i32*, i32** %36, align 8
  %38 = alloca i8*, align 8
  %39 = bitcast i32* %37 to i8*
  store i8* %39, i8** %38, align 8
  %40 = load i8*, i8** %38, align 8
  call void (i8*, ...) @_lfortran_free(i8* %40)
  %41 = getelementptr %array, %array* %x, i32 0, i32 3
  store i1 false, i1* %41, align 1
  br label %ifcont

else:                                             ; preds = %.entry
  br label %ifcont

ifcont:                                           ; preds = %else, %then
  %42 = alloca %array, align 8
  call void @f(%array* %x)
  %43 = getelementptr %array, %array* %x, i32 0, i32 2
  %44 = load %dimension_descriptor*, %dimension_descriptor** %43, align 8
  %45 = getelementptr inbounds %dimension_descriptor, %dimension_descriptor* %44, i32 0
  %46 = getelementptr %dimension_descriptor, %dimension_descriptor* %45, i32 0, i32 1
  %47 = load i32, i32* %46, align 4
  %48 = sub i32 1, %47
  %49 = mul i32 1, %48
  %50 = add i32 0, %49
  %51 = getelementptr %dimension_descriptor, %dimension_descriptor* %45, i32 0, i32 3
  %52 = load i32, i32* %51, align 4
  %53 = mul i32 1, %52
  %54 = getelementptr inbounds %dimension_descriptor, %dimension_descriptor* %44, i32 1
  %55 = getelementptr %dimension_descriptor, %dimension_descriptor* %54, i32 0, i32 1
  %56 = load i32, i32* %55, align 4
  %57 = sub i32 1, %56
  %58 = mul i32 %53, %57
  %59 = add i32 %50, %58
  %60 = getelementptr %dimension_descriptor, %dimension_descriptor* %54, i32 0, i32 3
  %61 = load i32, i32* %60, align 4
  %62 = mul i32 %53, %61
  %63 = getelementptr inbounds %dimension_descriptor, %dimension_descriptor* %44, i32 2
  %64 = getelementptr %dimension_descriptor, %dimension_descriptor* %63, i32 0, i32 1
  %65 = load i32, i32* %64, align 4
  %66 = sub i32 1, %65
  %67 = mul i32 %62, %66
  %68 = add i32 %59, %67
  %69 = getelementptr %dimension_descriptor, %dimension_descriptor* %63, i32 0, i32 3
  %70 = load i32, i32* %69, align 4
  %71 = mul i32 %62, %70
  %72 = getelementptr %array, %array* %x, i32 0, i32 0
  %73 = load i32*, i32** %72, align 8
  %74 = getelementptr inbounds i32, i32* %73, i32 %68
  %75 = load i32, i32* %74, align 4
  call void (i8*, ...) @_lfortran_printf(i8* getelementptr inbounds ([4 x i8], [4 x i8]* @1, i32 0, i32 0), i32 %75)
  %76 = getelementptr %array, %array* %x, i32 0, i32 2
  %77 = load %dimension_descriptor*, %dimension_descriptor** %76, align 8
  %78 = getelementptr inbounds %dimension_descriptor, %dimension_descriptor* %77, i32 0
  %79 = getelementptr %dimension_descriptor, %dimension_descriptor* %78, i32 0, i32 1
  %80 = load i32, i32* %79, align 4
  %81 = sub i32 1, %80
  %82 = mul i32 1, %81
  %83 = add i32 0, %82
  %84 = getelementptr %dimension_descriptor, %dimension_descriptor* %78, i32 0, i32 3
  %85 = load i32, i32* %84, align 4
  %86 = mul i32 1, %85
  %87 = getelementptr inbounds %dimension_descriptor, %dimension_descriptor* %77, i32 1
  %88 = getelementptr %dimension_descriptor, %dimension_descriptor* %87, i32 0, i32 1
  %89 = load i32, i32* %88, align 4
  %90 = sub i32 1, %89
  %91 = mul i32 %86, %90
  %92 = add i32 %83, %91
  %93 = getelementptr %dimension_descriptor, %dimension_descriptor* %87, i32 0, i32 3
  %94 = load i32, i32* %93, align 4
  %95 = mul i32 %86, %94
  %96 = getelementptr inbounds %dimension_descriptor, %dimension_descriptor* %77, i32 2
  %97 = getelementptr %dimension_descriptor, %dimension_descriptor* %96, i32 0, i32 1
  %98 = load i32, i32* %97, align 4
  %99 = sub i32 1, %98
  %100 = mul i32 %95, %99
  %101 = add i32 %92, %100
  %102 = getelementptr %dimension_descriptor, %dimension_descriptor* %96, i32 0, i32 3
  %103 = load i32, i32* %102, align 4
  %104 = mul i32 %95, %103
  %105 = getelementptr %array, %array* %x, i32 0, i32 0
  %106 = load i32*, i32** %105, align 8
  %107 = getelementptr inbounds i32, i32* %106, i32 %101
  store i32 8, i32* %107, align 4
  store i32 0, i32* %r, align 4
  br label %return

return:                                           ; preds = %ifcont
  %108 = load i32, i32* %r, align 4
  ret i32 %108
}

define void @h(%array* %c) {
.entry:
  %0 = getelementptr %array, %array* %c, i32 0, i32 2
  %1 = load %dimension_descriptor*, %dimension_descriptor** %0, align 8
  %2 = getelementptr inbounds %dimension_descriptor, %dimension_descriptor* %1, i32 0
  %3 = getelementptr %dimension_descriptor, %dimension_descriptor* %2, i32 0, i32 1
  %4 = load i32, i32* %3, align 4
  %5 = sub i32 1, %4
  %6 = mul i32 1, %5
  %7 = add i32 0, %6
  %8 = getelementptr %dimension_descriptor, %dimension_descriptor* %2, i32 0, i32 3
  %9 = load i32, i32* %8, align 4
  %10 = mul i32 1, %9
  %11 = getelementptr inbounds %dimension_descriptor, %dimension_descriptor* %1, i32 1
  %12 = getelementptr %dimension_descriptor, %dimension_descriptor* %11, i32 0, i32 1
  %13 = load i32, i32* %12, align 4
  %14 = sub i32 1, %13
  %15 = mul i32 %10, %14
  %16 = add i32 %7, %15
  %17 = getelementptr %dimension_descriptor, %dimension_descriptor* %11, i32 0, i32 3
  %18 = load i32, i32* %17, align 4
  %19 = mul i32 %10, %18
  %20 = getelementptr inbounds %dimension_descriptor, %dimension_descriptor* %1, i32 2
  %21 = getelementptr %dimension_descriptor, %dimension_descriptor* %20, i32 0, i32 1
  %22 = load i32, i32* %21, align 4
  %23 = sub i32 1, %22
  %24 = mul i32 %19, %23
  %25 = add i32 %16, %24
  %26 = getelementptr %dimension_descriptor, %dimension_descriptor* %20, i32 0, i32 3
  %27 = load i32, i32* %26, align 4
  %28 = mul i32 %19, %27
  %29 = getelementptr %array, %array* %c, i32 0, i32 0
  %30 = load i32*, i32** %29, align 8
  %31 = getelementptr inbounds i32, i32* %30, i32 %25
  %32 = load i32, i32* %31, align 4
  call void (i8*, ...) @_lfortran_printf(i8* getelementptr inbounds ([4 x i8], [4 x i8]* @2, i32 0, i32 0), i32 %32)
  %33 = load %array, %array* %c, align 8
  %34 = getelementptr %array, %array* %c, i32 0, i32 3
  %35 = load i1, i1* %34, align 1
  br i1 %35, label %then, label %else

then:                                             ; preds = %.entry
  %36 = getelementptr %array, %array* %c, i32 0, i32 0
  %37 = load i32*, i32** %36, align 8
  %38 = alloca i8*, align 8
  %39 = bitcast i32* %37 to i8*
  store i8* %39, i8** %38, align 8
  %40 = load i8*, i8** %38, align 8
  call void (i8*, ...) @_lfortran_free(i8* %40)
  %41 = getelementptr %array, %array* %c, i32 0, i32 3
  store i1 false, i1* %41, align 1
  br label %ifcont

else:                                             ; preds = %.entry
  br label %ifcont

ifcont:                                           ; preds = %else, %then
  %42 = alloca %array, align 8
  call void @f(%array* %c)
  %43 = getelementptr %array, %array* %c, i32 0, i32 2
  %44 = load %dimension_descriptor*, %dimension_descriptor** %43, align 8
  %45 = getelementptr inbounds %dimension_descriptor, %dimension_descriptor* %44, i32 0
  %46 = getelementptr %dimension_descriptor, %dimension_descriptor* %45, i32 0, i32 1
  %47 = load i32, i32* %46, align 4
  %48 = sub i32 1, %47
  %49 = mul i32 1, %48
  %50 = add i32 0, %49
  %51 = getelementptr %dimension_descriptor, %dimension_descriptor* %45, i32 0, i32 3
  %52 = load i32, i32* %51, align 4
  %53 = mul i32 1, %52
  %54 = getelementptr inbounds %dimension_descriptor, %dimension_descriptor* %44, i32 1
  %55 = getelementptr %dimension_descriptor, %dimension_descriptor* %54, i32 0, i32 1
  %56 = load i32, i32* %55, align 4
  %57 = sub i32 1, %56
  %58 = mul i32 %53, %57
  %59 = add i32 %50, %58
  %60 = getelementptr %dimension_descriptor, %dimension_descriptor* %54, i32 0, i32 3
  %61 = load i32, i32* %60, align 4
  %62 = mul i32 %53, %61
  %63 = getelementptr inbounds %dimension_descriptor, %dimension_descriptor* %44, i32 2
  %64 = getelementptr %dimension_descriptor, %dimension_descriptor* %63, i32 0, i32 1
  %65 = load i32, i32* %64, align 4
  %66 = sub i32 1, %65
  %67 = mul i32 %62, %66
  %68 = add i32 %59, %67
  %69 = getelementptr %dimension_descriptor, %dimension_descriptor* %63, i32 0, i32 3
  %70 = load i32, i32* %69, align 4
  %71 = mul i32 %62, %70
  %72 = getelementptr %array, %array* %c, i32 0, i32 0
  %73 = load i32*, i32** %72, align 8
  %74 = getelementptr inbounds i32, i32* %73, i32 %68
  %75 = load i32, i32* %74, align 4
  call void (i8*, ...) @_lfortran_printf(i8* getelementptr inbounds ([4 x i8], [4 x i8]* @3, i32 0, i32 0), i32 %75)
  %76 = getelementptr %array, %array* %c, i32 0, i32 2
  %77 = load %dimension_descriptor*, %dimension_descriptor** %76, align 8
  %78 = getelementptr inbounds %dimension_descriptor, %dimension_descriptor* %77, i32 0
  %79 = getelementptr %dimension_descriptor, %dimension_descriptor* %78, i32 0, i32 1
  %80 = load i32, i32* %79, align 4
  %81 = sub i32 1, %80
  %82 = mul i32 1, %81
  %83 = add i32 0, %82
  %84 = getelementptr %dimension_descriptor, %dimension_descriptor* %78, i32 0, i32 3
  %85 = load i32, i32* %84, align 4
  %86 = mul i32 1, %85
  %87 = getelementptr inbounds %dimension_descriptor, %dimension_descriptor* %77, i32 1
  %88 = getelementptr %dimension_descriptor, %dimension_descriptor* %87, i32 0, i32 1
  %89 = load i32, i32* %88, align 4
  %90 = sub i32 1, %89
  %91 = mul i32 %86, %90
  %92 = add i32 %83, %91
  %93 = getelementptr %dimension_descriptor, %dimension_descriptor* %87, i32 0, i32 3
  %94 = load i32, i32* %93, align 4
  %95 = mul i32 %86, %94
  %96 = getelementptr inbounds %dimension_descriptor, %dimension_descriptor* %77, i32 2
  %97 = getelementptr %dimension_descriptor, %dimension_descriptor* %96, i32 0, i32 1
  %98 = load i32, i32* %97, align 4
  %99 = sub i32 1, %98
  %100 = mul i32 %95, %99
  %101 = add i32 %92, %100
  %102 = getelementptr %dimension_descriptor, %dimension_descriptor* %96, i32 0, i32 3
  %103 = load i32, i32* %102, align 4
  %104 = mul i32 %95, %103
  %105 = getelementptr %array, %array* %c, i32 0, i32 0
  %106 = load i32*, i32** %105, align 8
  %107 = getelementptr inbounds i32, i32* %106, i32 %101
  store i32 8, i32* %107, align 4
  br label %return

return:                                           ; preds = %ifcont
  ret void
}

declare i8* @_lfortran_malloc(i32, ...)

declare void @_lfortran_printf(i8*, ...)

declare void @_lfortran_free(i8*, ...)

define i32 @main() {
.entry:
  %c = alloca %array, align 8
  %0 = getelementptr %array, %array* %c, i32 0, i32 2
  %1 = alloca i32, align 4
  store i32 3, i32* %1, align 4
  %2 = load i32, i32* %1, align 4
  %3 = alloca %dimension_descriptor, i32 %2, align 8
  store %dimension_descriptor* %3, %dimension_descriptor** %0, align 8
  %4 = getelementptr %array, %array* %c, i32 0, i32 4
  store i32 3, i32* %4, align 4
  %5 = getelementptr %array, %array* %c, i32 0, i32 3
  store i1 false, i1* %5, align 1
  %r = alloca i32, align 4
  %stat = alloca i32, align 4
  store i32 1, i32* %stat, align 4
  %6 = getelementptr %array, %array* %c, i32 0, i32 1
  store i32 0, i32* %6, align 4
  %7 = getelementptr %array, %array* %c, i32 0, i32 3
  store i1 true, i1* %7, align 1
  %8 = getelementptr %array, %array* %c, i32 0, i32 2
  %9 = load %dimension_descriptor*, %dimension_descriptor** %8, align 8
  %10 = getelementptr inbounds %dimension_descriptor, %dimension_descriptor* %9, i32 0
  %11 = getelementptr %dimension_descriptor, %dimension_descriptor* %10, i32 0, i32 0
  %12 = getelementptr %dimension_descriptor, %dimension_descriptor* %10, i32 0, i32 1
  %13 = getelementptr %dimension_descriptor, %dimension_descriptor* %10, i32 0, i32 2
  %14 = getelementptr %dimension_descriptor, %dimension_descriptor* %10, i32 0, i32 3
  store i32 1, i32* %11, align 4
  store i32 1, i32* %12, align 4
  store i32 3, i32* %13, align 4
  %15 = load i32, i32* %13, align 4
  %16 = load i32, i32* %12, align 4
  %17 = sub i32 %15, %16
  %18 = add i32 %17, 1
  %19 = mul i32 1, %18
  store i32 %18, i32* %14, align 4
  %20 = getelementptr inbounds %dimension_descriptor, %dimension_descriptor* %9, i32 1
  %21 = getelementptr %dimension_descriptor, %dimension_descriptor* %20, i32 0, i32 0
  %22 = getelementptr %dimension_descriptor, %dimension_descriptor* %20, i32 0, i32 1
  %23 = getelementptr %dimension_descriptor, %dimension_descriptor* %20, i32 0, i32 2
  %24 = getelementptr %dimension_descriptor, %dimension_descriptor* %20, i32 0, i32 3
  store i32 1, i32* %21, align 4
  store i32 1, i32* %22, align 4
  store i32 3, i32* %23, align 4
  %25 = load i32, i32* %23, align 4
  %26 = load i32, i32* %22, align 4
  %27 = sub i32 %25, %26
  %28 = add i32 %27, 1
  %29 = mul i32 %19, %28
  store i32 %28, i32* %24, align 4
  %30 = getelementptr inbounds %dimension_descriptor, %dimension_descriptor* %9, i32 2
  %31 = getelementptr %dimension_descriptor, %dimension_descriptor* %30, i32 0, i32 0
  %32 = getelementptr %dimension_descriptor, %dimension_descriptor* %30, i32 0, i32 1
  %33 = getelementptr %dimension_descriptor, %dimension_descriptor* %30, i32 0, i32 2
  %34 = getelementptr %dimension_descriptor, %dimension_descriptor* %30, i32 0, i32 3
  store i32 1, i32* %31, align 4
  store i32 1, i32* %32, align 4
  store i32 3, i32* %33, align 4
  %35 = load i32, i32* %33, align 4
  %36 = load i32, i32* %32, align 4
  %37 = sub i32 %35, %36
  %38 = add i32 %37, 1
  %39 = mul i32 %29, %38
  store i32 %38, i32* %34, align 4
  %40 = getelementptr %array, %array* %c, i32 0, i32 0
  %41 = alloca i32, align 4
  %42 = mul i32 %39, 4
  store i32 %42, i32* %41, align 4
  %43 = load i32, i32* %41, align 4
  %44 = call i8* (i32, ...) @_lfortran_malloc(i32 %43)
  %45 = bitcast i8* %44 to i32*
  store i32* %45, i32** %40, align 8
  store i32 0, i32* %stat, align 4
  %46 = load i32, i32* %stat, align 4
  %47 = icmp ne i32 %46, 0
  br i1 %47, label %then, label %else

then:                                             ; preds = %.entry
  call void (i8*, ...) @_lfortran_printf(i8* getelementptr inbounds ([12 x i8], [12 x i8]* @4, i32 0, i32 0))
  call void @exit(i32 1)
  br label %ifcont

else:                                             ; preds = %.entry
  br label %ifcont

ifcont:                                           ; preds = %else, %then
  %48 = getelementptr %array, %array* %c, i32 0, i32 2
  %49 = load %dimension_descriptor*, %dimension_descriptor** %48, align 8
  %50 = getelementptr inbounds %dimension_descriptor, %dimension_descriptor* %49, i32 0
  %51 = getelementptr %dimension_descriptor, %dimension_descriptor* %50, i32 0, i32 1
  %52 = load i32, i32* %51, align 4
  %53 = sub i32 1, %52
  %54 = mul i32 1, %53
  %55 = add i32 0, %54
  %56 = getelementptr %dimension_descriptor, %dimension_descriptor* %50, i32 0, i32 3
  %57 = load i32, i32* %56, align 4
  %58 = mul i32 1, %57
  %59 = getelementptr inbounds %dimension_descriptor, %dimension_descriptor* %49, i32 1
  %60 = getelementptr %dimension_descriptor, %dimension_descriptor* %59, i32 0, i32 1
  %61 = load i32, i32* %60, align 4
  %62 = sub i32 1, %61
  %63 = mul i32 %58, %62
  %64 = add i32 %55, %63
  %65 = getelementptr %dimension_descriptor, %dimension_descriptor* %59, i32 0, i32 3
  %66 = load i32, i32* %65, align 4
  %67 = mul i32 %58, %66
  %68 = getelementptr inbounds %dimension_descriptor, %dimension_descriptor* %49, i32 2
  %69 = getelementptr %dimension_descriptor, %dimension_descriptor* %68, i32 0, i32 1
  %70 = load i32, i32* %69, align 4
  %71 = sub i32 1, %70
  %72 = mul i32 %67, %71
  %73 = add i32 %64, %72
  %74 = getelementptr %dimension_descriptor, %dimension_descriptor* %68, i32 0, i32 3
  %75 = load i32, i32* %74, align 4
  %76 = mul i32 %67, %75
  %77 = getelementptr %array, %array* %c, i32 0, i32 0
  %78 = load i32*, i32** %77, align 8
  %79 = getelementptr inbounds i32, i32* %78, i32 %73
  store i32 3, i32* %79, align 4
  %80 = load %array, %array* %c, align 8
  %81 = getelementptr %array, %array* %c, i32 0, i32 3
  %82 = load i1, i1* %81, align 1
  br i1 %82, label %then1, label %else2

then1:                                            ; preds = %ifcont
  %83 = getelementptr %array, %array* %c, i32 0, i32 0
  %84 = load i32*, i32** %83, align 8
  %85 = alloca i8*, align 8
  %86 = bitcast i32* %84 to i8*
  store i8* %86, i8** %85, align 8
  %87 = load i8*, i8** %85, align 8
  call void (i8*, ...) @_lfortran_free(i8* %87)
  %88 = getelementptr %array, %array* %c, i32 0, i32 3
  store i1 false, i1* %88, align 1
  br label %ifcont3

else2:                                            ; preds = %ifcont
  br label %ifcont3

ifcont3:                                          ; preds = %else2, %then1
  %89 = alloca %array, align 8
  call void @h(%array* %c)
  %90 = alloca %array, align 8
  %91 = call i32 @g(%array* %c)
  store i32 %91, i32* %r, align 4
  %92 = getelementptr %array, %array* %c, i32 0, i32 2
  %93 = load %dimension_descriptor*, %dimension_descriptor** %92, align 8
  %94 = getelementptr inbounds %dimension_descriptor, %dimension_descriptor* %93, i32 0
  %95 = getelementptr %dimension_descriptor, %dimension_descriptor* %94, i32 0, i32 1
  %96 = load i32, i32* %95, align 4
  %97 = sub i32 1, %96
  %98 = mul i32 1, %97
  %99 = add i32 0, %98
  %100 = getelementptr %dimension_descriptor, %dimension_descriptor* %94, i32 0, i32 3
  %101 = load i32, i32* %100, align 4
  %102 = mul i32 1, %101
  %103 = getelementptr inbounds %dimension_descriptor, %dimension_descriptor* %93, i32 1
  %104 = getelementptr %dimension_descriptor, %dimension_descriptor* %103, i32 0, i32 1
  %105 = load i32, i32* %104, align 4
  %106 = sub i32 1, %105
  %107 = mul i32 %102, %106
  %108 = add i32 %99, %107
  %109 = getelementptr %dimension_descriptor, %dimension_descriptor* %103, i32 0, i32 3
  %110 = load i32, i32* %109, align 4
  %111 = mul i32 %102, %110
  %112 = getelementptr inbounds %dimension_descriptor, %dimension_descriptor* %93, i32 2
  %113 = getelementptr %dimension_descriptor, %dimension_descriptor* %112, i32 0, i32 1
  %114 = load i32, i32* %113, align 4
  %115 = sub i32 1, %114
  %116 = mul i32 %111, %115
  %117 = add i32 %108, %116
  %118 = getelementptr %dimension_descriptor, %dimension_descriptor* %112, i32 0, i32 3
  %119 = load i32, i32* %118, align 4
  %120 = mul i32 %111, %119
  %121 = getelementptr %array, %array* %c, i32 0, i32 0
  %122 = load i32*, i32** %121, align 8
  %123 = getelementptr inbounds i32, i32* %122, i32 %117
  %124 = load i32, i32* %123, align 4
  call void (i8*, ...) @_lfortran_printf(i8* getelementptr inbounds ([4 x i8], [4 x i8]* @5, i32 0, i32 0), i32 %124)
  %125 = load %array, %array* %c, align 8
  %126 = getelementptr %array, %array* %c, i32 0, i32 3
  %127 = load i1, i1* %126, align 1
  br i1 %127, label %then4, label %else5

then4:                                            ; preds = %ifcont3
  %128 = getelementptr %array, %array* %c, i32 0, i32 0
  %129 = load i32*, i32** %128, align 8
  %130 = alloca i8*, align 8
  %131 = bitcast i32* %129 to i8*
  store i8* %131, i8** %130, align 8
  %132 = load i8*, i8** %130, align 8
  call void (i8*, ...) @_lfortran_free(i8* %132)
  %133 = getelementptr %array, %array* %c, i32 0, i32 3
  store i1 false, i1* %133, align 1
  br label %ifcont6

else5:                                            ; preds = %ifcont3
  br label %ifcont6

ifcont6:                                          ; preds = %else5, %then4
  ret i32 0
}

declare void @exit(i32)
