{
    "basename": "llvm-associate_02-558b0e6",
    "cmd": "lfortran --no-color --show-llvm {infile} -o {outfile}",
    "infile": "tests/../integration_tests/associate_02.f90",
    "infile_hash": "dbb8b4f2546c33b093c6e6bff2a4af346405121ccb63b2bb42d761d6",
    "outfile": null,
    "outfile_hash": null,
    "stdout": "llvm-associate_02-558b0e6.stdout",
    "stdout_hash": "d8345bf0cd80de2bdb24306d4d1f75d9f8da6c5988c26419b79a2ae6",
    "stderr": null,
    "stderr_hash": null,
    "returncode": 0
}