{
    "basename": "llvm-intrinsics_02-404e16e",
    "cmd": "lfortran --no-color --show-llvm {infile} -o {outfile}",
    "infile": "tests/../integration_tests/intrinsics_02.f90",
    "infile_hash": "62898f6506eceb32aa540718b4d9de7cd0f9942d9cf5eb181748eba9",
    "outfile": null,
    "outfile_hash": null,
    "stdout": "llvm-intrinsics_02-404e16e.stdout",
    "stdout_hash": "aa0f3dcfb7acb8b86cc2ee69b8f399946f8b71d49b7975388b8b4689",
    "stderr": null,
    "stderr_hash": null,
    "returncode": 0
}