{
    "basename": "llvm-arrays_op_5-8426b5a",
    "cmd": "lfortran --no-color --show-llvm {infile} -o {outfile}",
    "infile": "tests/../integration_tests/arrays_op_5.f90",
    "infile_hash": "f3c014105f55ed7ec4a86da773076b204ada3cd5c8903ecbf25af3c4",
    "outfile": null,
    "outfile_hash": null,
    "stdout": "llvm-arrays_op_5-8426b5a.stdout",
    "stdout_hash": "adf5bc81a0e520a8b48459feaed82b9c1405775d19efdf49bfa5e284",
    "stderr": null,
    "stderr_hash": null,
    "returncode": 0
}