; ModuleID = 'LFortran'
source_filename = "LFortran"

%c_ptr = type { i32 }

@0 = private unnamed_addr constant [1 x i8] zeroinitializer, align 1
@1 = private unnamed_addr constant [10 x i8] c"%f %f %f\0A\00", align 1
@2 = private unnamed_addr constant [4 x i8] c"%f\0A\00", align 1
@3 = private unnamed_addr constant [12 x i8] c"ERROR STOP\0A\00", align 1

declare i8* @__module_lfortran_intrinsic_builtin_char(i32*)

declare void @__module_lfortran_intrinsic_builtin_move_alloc(i32*, i32*)

declare void @__module_lfortran_intrinsic_iso_c_binding_c_f_pointer(%c_ptr*, i32*)

define void @__module_lfortran_intrinsic_math_cpu_time(double* %t) {
.entry:
  call void @_lfortran_cpu_time(double* %t)
  br label %return

return:                                           ; preds = %.entry
  ret void
}

declare void @_lfortran_cpu_time(double*)

define void @__module_lfortran_intrinsic_math_dp_rand_num(double* %harvest) {
.entry:
  call void @_lfortran_dp_rand_num(double* %harvest)
  br label %return

return:                                           ; preds = %.entry
  ret void
}

declare void @_lfortran_dp_rand_num(double*)

define void @__module_lfortran_intrinsic_math_i32sys_clock(i32* %count, i32* %count_rate, i32* %count_max) {
.entry:
  call void @_lfortran_i32sys_clock(i32* %count, i32* %count_rate, i32* %count_max)
  br label %return

return:                                           ; preds = %.entry
  ret void
}

declare void @_lfortran_i32sys_clock(i32*, i32*, i32*)

define void @__module_lfortran_intrinsic_math_i64sys_clock(i64* %count, i64* %count_rate, i64* %count_max) {
.entry:
  call void @_lfortran_i64sys_clock(i64* %count, i64* %count_rate, i64* %count_max)
  br label %return

return:                                           ; preds = %.entry
  ret void
}

declare void @_lfortran_i64sys_clock(i64*, i64*, i64*)

define float @__module_lfortran_intrinsic_math_scos(float* %x) {
.entry:
  %r = alloca float, align 4
  %0 = load float, float* %x, align 4
  %1 = call float @_lfortran_scos(float %0)
  store float %1, float* %r, align 4
  br label %return

return:                                           ; preds = %.entry
  %2 = load float, float* %r, align 4
  ret float %2
}

declare float @_lfortran_scos(float)

define void @__module_lfortran_intrinsic_math_sp_rand_num(float* %harvest) {
.entry:
  call void @_lfortran_sp_rand_num(float* %harvest)
  br label %return

return:                                           ; preds = %.entry
  ret void
}

declare void @_lfortran_sp_rand_num(float*)

define i32 @main() {
.entry:
  %a = alloca float, align 4
  %myreal = alloca float, align 4
  %theta = alloca float, align 4
  %x = alloca float, align 4
  %y = alloca float, align 4
  store float 0x3FDAE147A0000000, float* %x, align 4
  store float 0x3FD6666660000000, float* %y, align 4
  store float 0x4022333340000000, float* %myreal, align 4
  store float 1.500000e+00, float* %theta, align 4
  store float 0x3FD99999A0000000, float* %a, align 4
  %v = alloca float*, align 8
  %z = alloca float, align 4
  %0 = load float, float* %x, align 4
  %1 = fmul float %0, 2.000000e+00
  %2 = load float, float* %y, align 4
  %3 = fmul float %2, 2.000000e+00
  %4 = fadd float %1, %3
  %5 = fsub float 0.000000e+00, %4
  %6 = call float @__module_lfortran_intrinsic_math_scos(float* %theta)
  %7 = fmul float %5, %6
  store float %7, float* %z, align 4
  store float* %myreal, float** %v, align 8
  %8 = load float, float* %a, align 4
  %9 = load float, float* %z, align 4
  %10 = fadd float %8, %9
  %11 = fpext float %10 to double
  %12 = load float, float* %a, align 4
  %13 = load float, float* %z, align 4
  %14 = fsub float %12, %13
  %15 = fpext float %14 to double
  %16 = load float*, float** %v, align 8
  %17 = load float, float* %16, align 4
  %18 = fpext float %17 to double
  call void (i8*, ...) @_lfortran_printf(i8* getelementptr inbounds ([10 x i8], [10 x i8]* @1, i32 0, i32 0), double %11, double %15, double %18)
  %19 = load float*, float** %v, align 8
  %20 = load float*, float** %v, align 8
  %21 = load float, float* %20, align 4
  %22 = fmul float %21, 0x4012666660000000
  store float %22, float* %19, align 4
  %23 = load float, float* %myreal, align 4
  %24 = fpext float %23 to double
  call void (i8*, ...) @_lfortran_printf(i8* getelementptr inbounds ([4 x i8], [4 x i8]* @2, i32 0, i32 0), double %24)
  %25 = load float, float* %myreal, align 4
  %26 = fsub float %25, 0x4044EE1480000000
  %27 = fcmp ugt float %26, 0x3EE4F8B580000000
  %28 = load float, float* %myreal, align 4
  %29 = fsub float %28, 0x4044EE1480000000
  %30 = fcmp ult float %29, 0xBEE4F8B580000000
  %31 = or i1 %27, %30
  br i1 %31, label %then, label %else

then:                                             ; preds = %.entry
  call void (i8*, ...) @_lfortran_printf(i8* getelementptr inbounds ([12 x i8], [12 x i8]* @3, i32 0, i32 0))
  call void @exit(i32 1)
  br label %ifcont

else:                                             ; preds = %.entry
  br label %ifcont

ifcont:                                           ; preds = %else, %then
  ret i32 0
}

declare void @_lfortran_printf(i8*, ...)

declare void @exit(i32)
