{
    "basename": "pass_dead_code_removal-cond_02-69b6d7d",
    "cmd": "lfortran --pass=dead_code_removal --show-asr --no-color {infile} -o {outfile}",
    "infile": "tests/../integration_tests/cond_02.f90",
    "infile_hash": "fc70f7e7943dfe505736cca5b8ff39a034a4a1a7f441d9bdf0a82662",
    "outfile": null,
    "outfile_hash": null,
    "stdout": "pass_dead_code_removal-cond_02-69b6d7d.stdout",
    "stdout_hash": "8468e3d73487b6914faf4b1d6e2d9310246d3728e9725d66657b0284",
    "stderr": null,
    "stderr_hash": null,
    "returncode": 0
}