{
    "basename": "pass_global_stmts-expr2-22f4149",
    "cmd": "lfortran --pass=global_stmts --show-asr --no-color {infile} -o {outfile}",
    "infile": "tests/expr2.f90",
    "infile_hash": "d666975e3f2e2c0cc5c739b85bb21073accdf5692bcb64c9e0278d62",
    "outfile": null,
    "outfile_hash": null,
    "stdout": "pass_global_stmts-expr2-22f4149.stdout",
    "stdout_hash": "0cda9432f7332e884e5169c8c636271c1bd760d130cb56d0844d8f81",
    "stderr": null,
    "stderr_hash": null,
    "returncode": 0
}